{"isSuccess":1,"errorMsg":"","isCache":0,"pageInfo":{"page":17,"pageSize":10,"totalPage":54,"totalCount":539},"degreeLevel":"98","starNum":"4.2","totalNum":"539","goodNum":448,"midNum":81,"badNum":10,"hasImgNum":109,"dpList":[{"commentType":"1","dpContent":"里面空间不大布局紧凑，以郓城县衙为主，其它建筑也很多都是仿古健，短暂游玩还是可以的。没有清明上河园大手**。","dpDate":"2016-02-10","dpGuid":"6465c6be-8b88-4ceb-b375-adc3a546ceb8","dpId":"6465c6be-8b88-4ceb-b375-adc3a546ceb8","DPItemId":"25794","DPItemName":"水浒好汉城","DPSite":"1","dpTripMode":"0","dpTripPurpose":"","DPUserLevel":"1","dpUserName":"186****9672","highLightColor":"","homeId":"","isElite":"0","isMyComments":"","isPraised":"0","lineAccess":"好评","markColor":"","memberGradeUrl":"","memberHeaderImgUrl":"//pic3.40017.cn/member/face/2015/08/27/17/sHIVcY.png","mobile":"","productPriceDesc":"","servicePoint":"1","zanCount":"0","csReplyList":null,"dpImgUrl":[],"subList":[],"dpImpressionList":[],"DPPlusStatus":0,"DPLocation":""},{"commentType":"1","dpContent":"没看演出，一个小时就逛完了，我明明定了，前台看完手机说没定，醉了，后来还是给了票，应改正","dpDate":"2016-05-01","dpGuid":"b67ec9de-48ad-4a52-8bb8-6fadbdfcc1a6","dpId":"b67ec9de-48ad-4a52-8bb8-6fadbdfcc1a6","DPItemId":"25794","DPItemName":"水浒好汉城","DPSite":"1","dpTripMode":"0","dpTripPurpose":"","DPUserLevel":"1","dpUserName":"134****7001","highLightColor":"","homeId":"","isElite":"0","isMyComments":"","isPraised":"0","lineAccess":"中评","markColor":"","memberGradeUrl":"","memberHeaderImgUrl":"//pic3.40017.cn/member/face/2015/08/27/17/sHIVcY.png","mobile":"","productPriceDesc":"","servicePoint":"2","zanCount":"0","csReplyList":null,"dpImgUrl":[],"subList":[],"dpImpressionList":[],"DPPlusStatus":0,"DPLocation":""},{"commentType":"1","dpContent":"购票国庆特惠价，位置不错，就是下午去的，里面的演出少了。","dpDate":"2016-10-02","dpGuid":"fc14a4d1-245c-4de5-932c-4b8d79bc4f72","dpId":"fc14a4d1-245c-4de5-932c-4b8d79bc4f72","DPItemId":"25794","DPItemName":"水浒好汉城","DPSite":"1","dpTripMode":"0","dpTripPurpose":"","DPUserLevel":"1","dpUserName":"9A3487084D10298B","highLightColor":"","homeId":"","isElite":"0","isMyComments":"","isPraised":"0","lineAccess":"好评","markColor":"","memberGradeUrl":"","memberHeaderImgUrl":"https://pic5.40017.cn/i/ori/1dhWb8X8neg.jpg","mobile":"","productPriceDesc":"","servicePoint":"1","zanCount":"0","csReplyList":null,"dpImgUrl":[],"subList":[],"dpImpressionList":[],"DPPlusStatus":0,"DPLocation":""},{"commentType":"1","dpContent":"网上购票很快捷，只是到景区换票还要人工手写，稍显麻烦，里面看着还可以","dpDate":"2016-08-18","dpGuid":"37224c6e-b83b-439e-8a58-823c0d80d9f6","dpId":"37224c6e-b83b-439e-8a58-823c0d80d9f6","DPItemId":"25794","DPItemName":"水浒好汉城","DPSite":"1","dpTripMode":"0","dpTripPurpose":"","DPUserLevel":"1","dpUserName":"同程会员_5CB7063C542","highLightColor":"","homeId":"","isElite":"0","isMyComments":"","isPraised":"0","lineAccess":"好评","markColor":"","memberGradeUrl":"","memberHeaderImgUrl":"https://pic5.40017.cn/i/ori/1difaMet93G.jpg","mobile":"","productPriceDesc":"","servicePoint":"1","zanCount":"0","csReplyList":null,"dpImgUrl":[],"subList":[],"dpImpressionList":[],"DPPlusStatus":0,"DPLocation":""},{"commentType":"1","dpContent":"购票方便，扫二维码进入，整个景区挺有特色的。","dpDate":"2018-08-26","dpGuid":"c0a1d523-afe5-40d7-a531-f445aa0a58a6","dpId":"c0a1d523-afe5-40d7-a531-f445aa0a58a6","DPItemId":"25794","DPItemName":"水浒好汉城","DPSite":"1","dpTripMode":"0","dpTripPurpose":"","DPUserLevel":"1","dpUserName":"13573ztxcsh","highLightColor":"","homeId":"","isElite":"0","isMyComments":"","isPraised":"0","lineAccess":"好评","markColor":"","memberGradeUrl":"","memberHeaderImgUrl":"https://pic5.40017.cn/i/ori/1dhWb8X8neg.jpg","mobile":"","productPriceDesc":"","servicePoint":"1","zanCount":"0","csReplyList":null,"dpImgUrl":[{"imgUrl":"//pic5.40017.cn/01/000/b0/52/rBLkBluCQmqAGxsZAAU-K28hzvo003.jpg","originalImgUrl":"//pic5.40017.cn/01/000/b0/52/rBLkBluCQmqAGxsZAAU-K28hzvo003.jpg","smallImgUrl":"//pic5.40017.cn/01/000/b0/52/rBLkBluCQmqAGxsZAAU-K28hzvo003_150x150_00.jpg"},{"imgUrl":"//pic5.40017.cn/01/001/b0/52/rBLkBVuCQmyATbkgAAZYL9F4FMo797.jpg","originalImgUrl":"//pic5.40017.cn/01/001/b0/52/rBLkBVuCQmyATbkgAAZYL9F4FMo797.jpg","smallImgUrl":"//pic5.40017.cn/01/001/b0/52/rBLkBVuCQmyATbkgAAZYL9F4FMo797_150x150_00.jpg"}],"subList":[],"dpImpressionList":[],"DPPlusStatus":0,"DPLocation":""},{"commentType":"1","dpContent":"表演的节目就一个李奎审案。景点到处是灰尘，无人清理。很多项目不就绪，凌乱不整。","dpDate":"2016-10-07","dpGuid":"4e8d05a7-9887-4ecc-b046-f8c97c234289","dpId":"4e8d05a7-9887-4ecc-b046-f8c97c234289","DPItemId":"25794","DPItemName":"水浒好汉城","DPSite":"1","dpTripMode":"0","dpTripPurpose":"","DPUserLevel":"1","dpUserName":"Fanxinyudetongch","highLightColor":"","homeId":"","isElite":"0","isMyComments":"","isPraised":"0","lineAccess":"差评","markColor":"","memberGradeUrl":"","memberHeaderImgUrl":"https://pic5.40017.cn/i/ori/1difaMet93G.jpg","mobile":"","productPriceDesc":"","servicePoint":"3","zanCount":"0","csReplyList":null,"dpImgUrl":[],"subList":[],"dpImpressionList":[],"DPPlusStatus":0,"DPLocation":""},{"commentType":"1","dpContent":"不错的古迹，特别是衙门气势威严庞大，整条街保存完好。很值得一去。","dpDate":"2016-10-13","dpGuid":"4812c686-c603-4b85-a70b-e614654eeade","dpId":"4812c686-c603-4b85-a70b-e614654eeade","DPItemId":"25794","DPItemName":"水浒好汉城","DPSite":"1","dpTripMode":"0","dpTripPurpose":"","DPUserLevel":"1","dpUserName":"王悠人","highLightColor":"","homeId":"","isElite":"0","isMyComments":"","isPraised":"0","lineAccess":"好评","markColor":"","memberGradeUrl":"","memberHeaderImgUrl":"https://pic5.40017.cn/i/ori/1dhW3XOpwZ2.jpg","mobile":"","productPriceDesc":"","servicePoint":"1","zanCount":"0","csReplyList":null,"dpImgUrl":[],"subList":[],"dpImpressionList":[],"DPPlusStatus":0,"DPLocation":""},{"commentType":"1","dpContent":"网上下订单，现场交的钱！感觉不错，青砖城墙，木雕房子，里面还有一个古筝房，几位老师傅在那做古筝，..","dpDate":"2015-07-20","dpGuid":"t-a6645379-9a81-4baf-9002-b4e5e7cadf06","dpId":"t-a6645379-9a81-4baf-9002-b4e5e7cadf06","DPItemId":"25794","DPItemName":"水浒好汉城","DPSite":"1","dpTripMode":"0","dpTripPurpose":"8,","DPUserLevel":"0","dpUserName":"158*****789","highLightColor":"","homeId":"","isElite":"0","isMyComments":"","isPraised":"0","lineAccess":"好评","markColor":"","memberGradeUrl":"","memberHeaderImgUrl":"//pic5.40017.cn/i/ori/PELe6f5TBC.jpg","mobile":"","productPriceDesc":"","servicePoint":"1","zanCount":"0","csReplyList":null,"dpImgUrl":[],"subList":[],"dpImpressionList":[],"DPPlusStatus":0,"DPLocation":""},{"commentType":"1","dpContent":"取票方便快捷，景色古典古色！","dpDate":"2018-03-24","dpGuid":"951ac3f1-cb3a-4717-b3b6-c2a174fd34d7","dpId":"951ac3f1-cb3a-4717-b3b6-c2a174fd34d7","DPItemId":"25794","DPItemName":"水浒好汉城","DPSite":"1","dpTripMode":"0","dpTripPurpose":"","DPUserLevel":"1","dpUserName":"涵轩","highLightColor":"","homeId":"","isElite":"0","isMyComments":"","isPraised":"0","lineAccess":"好评","markColor":"","memberGradeUrl":"","memberHeaderImgUrl":"https://pic5.40017.cn/i/ori/1difaMet93G.jpg","mobile":"","productPriceDesc":"","servicePoint":"1","zanCount":"0","csReplyList":null,"dpImgUrl":[{"imgUrl":"//pic5.40017.cn/02/001/77/18/rBLkCVq2Nu-AUYMQAAP2BRr3yzQ164.jpg","originalImgUrl":"//pic5.40017.cn/02/001/77/18/rBLkCVq2Nu-AUYMQAAP2BRr3yzQ164.jpg","smallImgUrl":"//pic5.40017.cn/02/001/77/18/rBLkCVq2Nu-AUYMQAAP2BRr3yzQ164_150x150_00.jpg"},{"imgUrl":"//pic5.40017.cn/01/000/76/9c/rBANC1q2NvCAIRBWAAW89no8RwU756.jpg","originalImgUrl":"//pic5.40017.cn/01/000/76/9c/rBANC1q2NvCAIRBWAAW89no8RwU756.jpg","smallImgUrl":"//pic5.40017.cn/01/000/76/9c/rBANC1q2NvCAIRBWAAW89no8RwU756_150x150_00.jpg"}],"subList":[],"dpImpressionList":[],"DPPlusStatus":0,"DPLocation":""},{"commentType":"1","dpContent":"景区环境不错、交通便利、只是里面进行二期工程、有些脏乱、推荐晚些时候再去","dpDate":"2014-03-10","dpGuid":"t-565e6454-47a7-43d7-a8f3-dc9759cd1a48","dpId":"t-565e6454-47a7-43d7-a8f3-dc9759cd1a48","DPItemId":"25794","DPItemName":"水浒好汉城","DPSite":"1","dpTripMode":"1","dpTripPurpose":"3,","DPUserLevel":"3","dpUserName":"139*****386","highLightColor":"","homeId":"","isElite":"0","isMyComments":"","isPraised":"0","lineAccess":"好评","markColor":"","memberGradeUrl":"","memberHeaderImgUrl":"2014/09/01/7/201409010619406878844.jpg","mobile":"","productPriceDesc":"","servicePoint":"1","zanCount":"0","csReplyList":null,"dpImgUrl":[],"subList":[],"dpImpressionList":[],"DPPlusStatus":0,"DPLocation":""}],"isShowConinsicon":0,"rulesContent":"","dpConinRemark":"","isCanEnter":0,"isCanDianPingBefore":0,"externalUrl":"","serviceScoreAvgList":[{"score":"10","serviceName":"同程服务"},{"score":"10","serviceName":"产品便捷"},{"score":"10","serviceName":"性价比"},{"score":"10","serviceName":"景区体验"}],"dpTagList":[{"tagColor":"","tagId":"1","tagName":"全部(539)","tagNum":"539","tagType":"","tagBorderColor":""},{"tagColor":"","tagId":"6","tagName":"最新(539)","tagNum":"539","tagType":"","tagBorderColor":""},{"tagColor":"","tagId":"2","tagName":"好评(448)","tagNum":"448","tagType":"","tagBorderColor":""},{"tagColor":"","tagId":"3","tagName":"中评(81)","tagNum":"81","tagType":"","tagBorderColor":""},{"tagColor":"","tagId":"4","tagName":"差评(10)","tagNum":"10","tagType":"","tagBorderColor":""},{"tagColor":"","tagId":"5","tagName":"有图(109)","tagNum":"109","tagType":"","tagBorderColor":""},{"tagColor":"","tagId":"15","tagName":"整体不错(37)","tagNum":"37","tagType":"","tagBorderColor":""},{"tagColor":"","tagId":"96","tagName":"设施齐全(22)","tagNum":"22","tagType":"","tagBorderColor":""},{"tagColor":"","tagId":"65","tagName":"环境好(8)","tagNum":"8","tagType":"","tagBorderColor":""},{"tagColor":"","tagId":"317","tagName":"风光好(7)","tagNum":"7","tagType":"","tagBorderColor":""},{"tagColor":"","tagId":"266","tagName":"地方不错(3)","tagNum":"3","tagType":"","tagBorderColor":""},{"tagColor":"","tagId":"111","tagName":"景色壮观(1)","tagNum":"1","tagType":"","tagBorderColor":""},{"tagColor":"","tagId":"39","tagName":"门票贵(7)","tagNum":"7","tagType":"","tagBorderColor":""},{"tagColor":"","tagId":"95","tagName":"设施旧(1)","tagNum":"1","tagType":"","tagBorderColor":""}],"dianpingInfo":[]}