{"isSuccess":1,"errorMsg":"","isCache":0,"pageInfo":{"page":15,"pageSize":10,"totalPage":54,"totalCount":539},"degreeLevel":"98","starNum":"4.2","totalNum":"539","goodNum":448,"midNum":81,"badNum":10,"hasImgNum":109,"dpList":[{"commentType":"1","dpContent":"非常复古的建筑，同程网取票很方便，比现场买票便宜15元。景区再大点就好，多安排一些节目演出就更好了","dpDate":"2014-05-02","dpGuid":"t-039bb0c9-248e-46ae-b708-decbd85ac8a6","dpId":"t-039bb0c9-248e-46ae-b708-decbd85ac8a6","DPItemId":"25794","DPItemName":"水浒好汉城","DPSite":"1","dpTripMode":"4","dpTripPurpose":"5,","DPUserLevel":"1","dpUserName":"136*****856","highLightColor":"","homeId":"","isElite":"0","isMyComments":"","isPraised":"0","lineAccess":"好评","markColor":"","memberGradeUrl":"","memberHeaderImgUrl":"2015/02/09/7/201502091156423774915.jpg","mobile":"","productPriceDesc":"","servicePoint":"1","zanCount":"0","csReplyList":null,"dpImgUrl":[],"subList":[],"dpImpressionList":[],"DPPlusStatus":0,"DPLocation":""},{"commentType":"2","dpContent":"去景区的时候天在下雨，有点小雨，虽然没有看到原来的美景，但是小雨中的景色别有一番风味！","dpDate":"2010-10-09","dpGuid":"t-5a08ad04-288c-4b0c-bd75-d5b517c645e4","dpId":"t-5a08ad04-288c-4b0c-bd75-d5b517c645e4","DPItemId":"25794","DPItemName":"水浒好汉城","DPSite":"2","dpTripMode":"0","dpTripPurpose":"0,","DPUserLevel":"0","dpUserName":"136*****552","highLightColor":"","homeId":"","isElite":"0","isMyComments":"","isPraised":"0","lineAccess":"好评","markColor":"","memberGradeUrl":"","memberHeaderImgUrl":"//pic5.40017.cn/i/ori/PELe6f5TBC.jpg","mobile":"","productPriceDesc":"","servicePoint":"1","zanCount":"0","csReplyList":null,"dpImgUrl":[],"subList":[],"dpImpressionList":[],"DPPlusStatus":0,"DPLocation":""},{"commentType":"1","dpContent":"水浒好汉城体验一下好汉大碗喝酒的豪迈气概，仿古建筑很逼真，仿佛置身其中，大型表演智取生纲不错。","dpDate":"2016-10-03","dpGuid":"0838755d-6922-49d6-a68d-e7a2e48652fd","dpId":"0838755d-6922-49d6-a68d-e7a2e48652fd","DPItemId":"25794","DPItemName":"水浒好汉城","DPSite":"1","dpTripMode":"0","dpTripPurpose":"","DPUserLevel":"1","dpUserName":"79E7AA54830FAB06","highLightColor":"","homeId":"","isElite":"0","isMyComments":"","isPraised":"0","lineAccess":"好评","markColor":"","memberGradeUrl":"","memberHeaderImgUrl":"https://pic5.40017.cn/i/ori/1dhWb8X8neg.jpg","mobile":"","productPriceDesc":"","servicePoint":"1","zanCount":"0","csReplyList":null,"dpImgUrl":[],"subList":[],"dpImpressionList":[],"DPPlusStatus":0,"DPLocation":""},{"commentType":"1","dpContent":"票上的六个表演节目，只有李逵审案。其他全无。十一期间太对不起观众了！再一个，里面连个小餐馆都没有。很多展品物件上尽是灰尘。真的对不起4a级景区啊！","dpDate":"2016-10-07","dpGuid":"48ba1f6e-b18e-4482-9751-1d17bdd20dcc","dpId":"48ba1f6e-b18e-4482-9751-1d17bdd20dcc","DPItemId":"25794","DPItemName":"水浒好汉城","DPSite":"1","dpTripMode":"0","dpTripPurpose":"","DPUserLevel":"1","dpUserName":"3B7B77D448BEBA42","highLightColor":"","homeId":"","isElite":"0","isMyComments":"","isPraised":"0","lineAccess":"差评","markColor":"","memberGradeUrl":"","memberHeaderImgUrl":"https://pic5.40017.cn/i/ori/1difaMet93G.jpg","mobile":"","productPriceDesc":"","servicePoint":"3","zanCount":"0","csReplyList":null,"dpImgUrl":[],"subList":[],"dpImpressionList":[],"DPPlusStatus":0,"DPLocation":""},{"commentType":"1","dpContent":"建筑新,但很多材料是老的。从外地收集来这些老材料，再重新安装，费了不少心思和工夫。景区内商业味还不浓，人员朴实。对喜欢历史文化的游客而言，值得一看。","dpDate":"2014-10-05","dpGuid":"t-a59b6145-6bc5-4f15-8f0f-92f32bff5870","dpId":"t-a59b6145-6bc5-4f15-8f0f-92f32bff5870","DPItemId":"25794","DPItemName":"水浒好汉城","DPSite":"1","dpTripMode":"1","dpTripPurpose":"3,","DPUserLevel":"1","dpUserName":"139*****680","highLightColor":"","homeId":"","isElite":"0","isMyComments":"","isPraised":"0","lineAccess":"好评","markColor":"","memberGradeUrl":"","memberHeaderImgUrl":"//pic5.40017.cn/i/ori/PELe6f5TBC.jpg","mobile":"","productPriceDesc":"","servicePoint":"1","zanCount":"0","csReplyList":null,"dpImgUrl":[],"subList":[],"dpImpressionList":[],"DPPlusStatus":0,"DPLocation":""},{"commentType":"1","dpContent":"不算太大。票价50有点贵。在同程上7点多订的，九点多在景区门口拿票35一张，很便捷。个人感觉票价20还行。","dpDate":"2014-08-15","dpGuid":"t-3f77dcd1-455a-4723-a7d1-e37a7d428f47","dpId":"t-3f77dcd1-455a-4723-a7d1-e37a7d428f47","DPItemId":"25794","DPItemName":"水浒好汉城","DPSite":"1","dpTripMode":"1","dpTripPurpose":"3,","DPUserLevel":"2","dpUserName":"138*****988","highLightColor":"","homeId":"","isElite":"0","isMyComments":"","isPraised":"0","lineAccess":"好评","markColor":"","memberGradeUrl":"","memberHeaderImgUrl":"//pic5.40017.cn/i/ori/PELe6f5TBC.jpg","mobile":"","productPriceDesc":"","servicePoint":"1","zanCount":"0","csReplyList":null,"dpImgUrl":[],"subList":[],"dpImpressionList":[],"DPPlusStatus":0,"DPLocation":""},{"commentType":"1","dpContent":"同程订票很便宜很方便。看了3场表演，很精彩，松江武校的狗娃们真的很棒。值得推荐。","dpDate":"2014-10-03","dpGuid":"t-eb88d3c1-f2de-4fca-81c2-31e05a6116e7","dpId":"t-eb88d3c1-f2de-4fca-81c2-31e05a6116e7","DPItemId":"25794","DPItemName":"水浒好汉城","DPSite":"1","dpTripMode":"1","dpTripPurpose":"3,","DPUserLevel":"2","dpUserName":"137*****108","highLightColor":"","homeId":"","isElite":"0","isMyComments":"","isPraised":"0","lineAccess":"好评","markColor":"","memberGradeUrl":"","memberHeaderImgUrl":"//pic5.40017.cn/i/ori/PELe6f5TBC.jpg","mobile":"","productPriceDesc":"","servicePoint":"1","zanCount":"0","csReplyList":null,"dpImgUrl":[],"subList":[],"dpImpressionList":[],"DPPlusStatus":0,"DPLocation":""},{"commentType":"1","dpContent":"出票快捷，我们去时水浒城有活动 ，所以同程的价也没优势。水浒城本身建的还行，但都是些新的仿古的 也就看个样子。园区里有表演，是不错的。","dpDate":"2014-09-10","dpGuid":"t-3b384da8-cf40-4402-829e-0478fdc706a1","dpId":"t-3b384da8-cf40-4402-829e-0478fdc706a1","DPItemId":"25794","DPItemName":"水浒好汉城","DPSite":"1","dpTripMode":"1","dpTripPurpose":"3,","DPUserLevel":"3","dpUserName":"138*****868","highLightColor":"","homeId":"","isElite":"0","isMyComments":"","isPraised":"0","lineAccess":"好评","markColor":"","memberGradeUrl":"","memberHeaderImgUrl":"//pic5.40017.cn/i/ori/PELe6f5TBC.jpg","mobile":"","productPriceDesc":"","servicePoint":"1","zanCount":"0","csReplyList":null,"dpImgUrl":[],"subList":[],"dpImpressionList":[],"DPPlusStatus":0,"DPLocation":""},{"commentType":"1","dpContent":"规模不大  有些地方还在装修  感觉全部是后来修建  景区没有想像好   停车免费    入口不明显","dpDate":"2014-10-02","dpGuid":"t-7407c803-1896-4672-8661-73b184c27d3c","dpId":"t-7407c803-1896-4672-8661-73b184c27d3c","DPItemId":"25794","DPItemName":"水浒好汉城","DPSite":"1","dpTripMode":"1","dpTripPurpose":"3,","DPUserLevel":"2","dpUserName":"135*****172","highLightColor":"","homeId":"","isElite":"0","isMyComments":"","isPraised":"0","lineAccess":"好评","markColor":"","memberGradeUrl":"","memberHeaderImgUrl":"//pic5.40017.cn/i/ori/PELe6f5TBC.jpg","mobile":"","productPriceDesc":"","servicePoint":"1","zanCount":"0","csReplyList":null,"dpImgUrl":[],"subList":[],"dpImpressionList":[],"DPPlusStatus":0,"DPLocation":""},{"commentType":"1","dpContent":"景点服务热情，对水浒的文化了解了很多，尤其是讲解员讲的很详细，总之一句话好，好，好……","dpDate":"2014-04-20","dpGuid":"t-a60b684f-2908-470f-a552-ff6898e806f4","dpId":"t-a60b684f-2908-470f-a552-ff6898e806f4","DPItemId":"25794","DPItemName":"水浒好汉城","DPSite":"1","dpTripMode":"0","dpTripPurpose":"7,","DPUserLevel":"0","dpUserName":"187*****086","highLightColor":"","homeId":"","isElite":"0","isMyComments":"","isPraised":"0","lineAccess":"好评","markColor":"","memberGradeUrl":"","memberHeaderImgUrl":"//pic5.40017.cn/i/ori/PELe6f5TBC.jpg","mobile":"","productPriceDesc":"","servicePoint":"1","zanCount":"0","csReplyList":null,"dpImgUrl":[],"subList":[],"dpImpressionList":[],"DPPlusStatus":0,"DPLocation":""}],"isShowConinsicon":0,"rulesContent":"","dpConinRemark":"","isCanEnter":0,"isCanDianPingBefore":0,"externalUrl":"","serviceScoreAvgList":[{"score":"10","serviceName":"同程服务"},{"score":"10","serviceName":"产品便捷"},{"score":"10","serviceName":"性价比"},{"score":"10","serviceName":"景区体验"}],"dpTagList":[{"tagColor":"","tagId":"1","tagName":"全部(539)","tagNum":"539","tagType":"","tagBorderColor":""},{"tagColor":"","tagId":"6","tagName":"最新(539)","tagNum":"539","tagType":"","tagBorderColor":""},{"tagColor":"","tagId":"2","tagName":"好评(448)","tagNum":"448","tagType":"","tagBorderColor":""},{"tagColor":"","tagId":"3","tagName":"中评(81)","tagNum":"81","tagType":"","tagBorderColor":""},{"tagColor":"","tagId":"4","tagName":"差评(10)","tagNum":"10","tagType":"","tagBorderColor":""},{"tagColor":"","tagId":"5","tagName":"有图(109)","tagNum":"109","tagType":"","tagBorderColor":""},{"tagColor":"","tagId":"15","tagName":"整体不错(37)","tagNum":"37","tagType":"","tagBorderColor":""},{"tagColor":"","tagId":"96","tagName":"设施齐全(22)","tagNum":"22","tagType":"","tagBorderColor":""},{"tagColor":"","tagId":"65","tagName":"环境好(8)","tagNum":"8","tagType":"","tagBorderColor":""},{"tagColor":"","tagId":"317","tagName":"风光好(7)","tagNum":"7","tagType":"","tagBorderColor":""},{"tagColor":"","tagId":"266","tagName":"地方不错(3)","tagNum":"3","tagType":"","tagBorderColor":""},{"tagColor":"","tagId":"111","tagName":"景色壮观(1)","tagNum":"1","tagType":"","tagBorderColor":""},{"tagColor":"","tagId":"39","tagName":"门票贵(7)","tagNum":"7","tagType":"","tagBorderColor":""},{"tagColor":"","tagId":"95","tagName":"设施旧(1)","tagNum":"1","tagType":"","tagBorderColor":""}],"dianpingInfo":[]}