{"isSuccess":1,"errorMsg":"","isCache":0,"pageInfo":{"page":14,"pageSize":10,"totalPage":54,"totalCount":539},"degreeLevel":"98","starNum":"4.2","totalNum":"539","goodNum":448,"midNum":81,"badNum":10,"hasImgNum":109,"dpList":[{"commentType":"1","dpContent":"网上订票方便，不用换票直接扫码进景区，景区有停车场，停车方便，景点不错。","dpDate":"2021-04-08","dpGuid":"577f4e43-8f24-4d05-9a9a-e29224a971dd","dpId":"577f4e43-8f24-4d05-9a9a-e29224a971dd","DPItemId":"25794","DPItemName":"水浒好汉城","DPSite":"1","dpTripMode":"0","dpTripPurpose":"","DPUserLevel":"1","dpUserName":"同程会员_B7479928519","highLightColor":"","homeId":"","isElite":"0","isMyComments":"","isPraised":"0","lineAccess":"好评","markColor":"","memberGradeUrl":"","memberHeaderImgUrl":"//pic5.40017.cn/i/ori/T9uce73cly.jpg","mobile":"","productPriceDesc":"","servicePoint":"1","zanCount":"0","csReplyList":null,"dpImgUrl":[],"subList":[],"dpImpressionList":[],"DPPlusStatus":1,"DPLocation":""},{"commentType":"1","dpContent":"过年期间游客不少，可以直接扫码入园，减少了取票排队时间。景点方面印象比较深的是孙二娘客栈、郓城县衙、晁家庄等，新建的城楼气派巍峨。水浒文化博物馆简单粗糙了点，做为核心文化卖点，可以再好好挖掘下，讲好本地历史故事，弘扬现代水浒精神！","dpDate":"2018-03-02","dpGuid":"eb0bff04-594e-47c1-b915-9e8d4318d3d7","dpId":"eb0bff04-594e-47c1-b915-9e8d4318d3d7","DPItemId":"25794","DPItemName":"水浒好汉城","DPSite":"1","dpTripMode":"0","dpTripPurpose":"","DPUserLevel":"1","dpUserName":"月疏桐","highLightColor":"","homeId":"","isElite":"0","isMyComments":"","isPraised":"0","lineAccess":"好评","markColor":"","memberGradeUrl":"","memberHeaderImgUrl":"https://pic5.40017.cn/i/ori/1dhWb8X8neg.jpg","mobile":"","productPriceDesc":"","servicePoint":"1","zanCount":"1","csReplyList":null,"dpImgUrl":[],"subList":[],"dpImpressionList":[],"DPPlusStatus":3,"DPLocation":""},{"commentType":"2","dpContent":"对不起这个票价啊，水浒好汉城是城么？直接是1公里长的水浒好汉街。一天街走到头，上个厕所，回返。开车来回2个小时，八个小时看完","dpDate":"2013-08-26","dpGuid":"t-61136c12-ac5c-4592-a994-391c53563663","dpId":"t-61136c12-ac5c-4592-a994-391c53563663","DPItemId":"25794","DPItemName":"水浒好汉城","DPSite":"2","dpTripMode":"0","dpTripPurpose":"3,","DPUserLevel":"0","dpUserName":"159*****540","highLightColor":"","homeId":"","isElite":"0","isMyComments":"","isPraised":"0","lineAccess":"好评","markColor":"","memberGradeUrl":"","memberHeaderImgUrl":"//pic5.40017.cn/i/ori/PELe6f5TBC.jpg","mobile":"","productPriceDesc":"","servicePoint":"1","zanCount":"0","csReplyList":null,"dpImgUrl":[],"subList":[],"dpImpressionList":[],"DPPlusStatus":0,"DPLocation":""},{"commentType":"1","dpContent":"好，值得一游。地方虽然不大，但内容很丰富，能够切身感受旧时的生活环境，旧时的县城面貌，而且游客不多，没有其它景区的拥挤。赞！","dpDate":"2014-10-03","dpGuid":"t-8715a151-9051-4012-b3f8-2b5a883e39f7","dpId":"t-8715a151-9051-4012-b3f8-2b5a883e39f7","DPItemId":"25794","DPItemName":"水浒好汉城","DPSite":"1","dpTripMode":"1","dpTripPurpose":"3,","DPUserLevel":"1","dpUserName":"135*****718","highLightColor":"","homeId":"","isElite":"0","isMyComments":"","isPraised":"0","lineAccess":"好评","markColor":"","memberGradeUrl":"","memberHeaderImgUrl":"//pic5.40017.cn/i/ori/PELe6f5TBC.jpg","mobile":"","productPriceDesc":"","servicePoint":"1","zanCount":"0","csReplyList":null,"dpImgUrl":[],"subList":[],"dpImpressionList":[],"DPPlusStatus":0,"DPLocation":""},{"commentType":"1","dpContent":"离家60多公里，交通方便，有导游讲解，古建筑是后来建的，并不是原址，整体还算满意，第一次通过同程买票，实惠","dpDate":"2014-04-06","dpGuid":"t-b1822a89-25a9-444e-b518-ab660c9811b5","dpId":"t-b1822a89-25a9-444e-b518-ab660c9811b5","DPItemId":"25794","DPItemName":"水浒好汉城","DPSite":"1","dpTripMode":"1","dpTripPurpose":"3,","DPUserLevel":"1","dpUserName":"138*****368","highLightColor":"","homeId":"","isElite":"0","isMyComments":"","isPraised":"0","lineAccess":"好评","markColor":"","memberGradeUrl":"","memberHeaderImgUrl":"//pic5.40017.cn/i/ori/PELe6f5TBC.jpg","mobile":"","productPriceDesc":"","servicePoint":"1","zanCount":"0","csReplyList":null,"dpImgUrl":[],"subList":[],"dpImpressionList":[],"DPPlusStatus":0,"DPLocation":""},{"commentType":"1","dpContent":"景色壮观大气，做旧很好，但离实际太远，下代人看后不知怎么想古人，，，，无演出，难見服务员，评书很好","dpDate":"2014-04-06","dpGuid":"t-15c4c1e6-003f-4a82-a405-85e1d2633286","dpId":"t-15c4c1e6-003f-4a82-a405-85e1d2633286","DPItemId":"25794","DPItemName":"水浒好汉城","DPSite":"1","dpTripMode":"1","dpTripPurpose":"3,","DPUserLevel":"2","dpUserName":"137*****200","highLightColor":"","homeId":"","isElite":"0","isMyComments":"","isPraised":"0","lineAccess":"好评","markColor":"","memberGradeUrl":"","memberHeaderImgUrl":"//pic5.40017.cn/i/ori/PELe6f5TBC.jpg","mobile":"","productPriceDesc":"","servicePoint":"1","zanCount":"0","csReplyList":null,"dpImgUrl":[],"subList":[],"dpImpressionList":[],"DPPlusStatus":0,"DPLocation":""},{"commentType":"2","dpContent":"水浒好汉城是郓城宋江武校投资建设，景区规模较大，景点古色古香，虽是仿造建设，但建筑材料如梁、檩、椽子等大部分都是真的古建筑上拆下来的，所以虽明知这些建筑是仿造的，但感觉还是像真的似的，不错，很不错。","dpDate":"2013-10-29","dpGuid":"t-d8ad5a8b-ee42-4497-ac65-fe52829e59bd","dpId":"t-d8ad5a8b-ee42-4497-ac65-fe52829e59bd","DPItemId":"25794","DPItemName":"水浒好汉城","DPSite":"2","dpTripMode":"1","dpTripPurpose":"3,","DPUserLevel":"0","dpUserName":"130*****178","highLightColor":"","homeId":"","isElite":"0","isMyComments":"","isPraised":"0","lineAccess":"好评","markColor":"","memberGradeUrl":"","memberHeaderImgUrl":"//pic5.40017.cn/i/ori/PELe6f5TBC.jpg","mobile":"","productPriceDesc":"","servicePoint":"1","zanCount":"0","csReplyList":null,"dpImgUrl":[],"subList":[],"dpImpressionList":[],"DPPlusStatus":0,"DPLocation":""},{"commentType":"1","dpContent":"同程的票价还是很有优势的35元成人，家庭两大一小85。玩了2小时。不错的地方还没开发好。","dpDate":"2014-10-03","dpGuid":"t-62d05e5a-f3f7-479e-b591-175f205cb610","dpId":"t-62d05e5a-f3f7-479e-b591-175f205cb610","DPItemId":"25794","DPItemName":"水浒好汉城","DPSite":"1","dpTripMode":"1","dpTripPurpose":"3,","DPUserLevel":"2","dpUserName":"137*****108","highLightColor":"","homeId":"","isElite":"0","isMyComments":"","isPraised":"0","lineAccess":"好评","markColor":"","memberGradeUrl":"","memberHeaderImgUrl":"//pic5.40017.cn/i/ori/PELe6f5TBC.jpg","mobile":"","productPriceDesc":"","servicePoint":"1","zanCount":"0","csReplyList":null,"dpImgUrl":[],"subList":[],"dpImpressionList":[],"DPPlusStatus":0,"DPLocation":""},{"commentType":"1","dpContent":"离家60多公里，交通方便，有导游讲解，古建筑是后来建的，并不是原址，整体还算满意，第一次通过同程买票，实惠","dpDate":"2014-04-06","dpGuid":"t-c65ed2ff-547e-4706-ac1a-bf2ad120026b","dpId":"t-c65ed2ff-547e-4706-ac1a-bf2ad120026b","DPItemId":"25794","DPItemName":"水浒好汉城","DPSite":"1","dpTripMode":"1","dpTripPurpose":"3,","DPUserLevel":"1","dpUserName":"138*****368","highLightColor":"","homeId":"","isElite":"0","isMyComments":"","isPraised":"0","lineAccess":"好评","markColor":"","memberGradeUrl":"","memberHeaderImgUrl":"//pic5.40017.cn/i/ori/PELe6f5TBC.jpg","mobile":"","productPriceDesc":"","servicePoint":"1","zanCount":"0","csReplyList":null,"dpImgUrl":[],"subList":[],"dpImpressionList":[],"DPPlusStatus":0,"DPLocation":""},{"commentType":"1","dpContent":"交通很方便，同程网订票也很迅捷，十一期间景区内游人也不是很多，建筑古色古香，商业气息不是很浓，游玩起来非常舒服，挺不错的。","dpDate":"2014-10-07","dpGuid":"t-299bf7cd-9ac7-45ce-855f-b84b68d711fa","dpId":"t-299bf7cd-9ac7-45ce-855f-b84b68d711fa","DPItemId":"25794","DPItemName":"水浒好汉城","DPSite":"1","dpTripMode":"1","dpTripPurpose":"3,","DPUserLevel":"1","dpUserName":"135*****566","highLightColor":"","homeId":"","isElite":"0","isMyComments":"","isPraised":"0","lineAccess":"好评","markColor":"","memberGradeUrl":"","memberHeaderImgUrl":"//pic5.40017.cn/i/ori/PELe6f5TBC.jpg","mobile":"","productPriceDesc":"","servicePoint":"1","zanCount":"0","csReplyList":null,"dpImgUrl":[],"subList":[],"dpImpressionList":[],"DPPlusStatus":0,"DPLocation":""}],"isShowConinsicon":0,"rulesContent":"","dpConinRemark":"","isCanEnter":0,"isCanDianPingBefore":0,"externalUrl":"","serviceScoreAvgList":[{"score":"10","serviceName":"同程服务"},{"score":"10","serviceName":"产品便捷"},{"score":"10","serviceName":"性价比"},{"score":"10","serviceName":"景区体验"}],"dpTagList":[{"tagColor":"","tagId":"1","tagName":"全部(539)","tagNum":"539","tagType":"","tagBorderColor":""},{"tagColor":"","tagId":"6","tagName":"最新(539)","tagNum":"539","tagType":"","tagBorderColor":""},{"tagColor":"","tagId":"2","tagName":"好评(448)","tagNum":"448","tagType":"","tagBorderColor":""},{"tagColor":"","tagId":"3","tagName":"中评(81)","tagNum":"81","tagType":"","tagBorderColor":""},{"tagColor":"","tagId":"4","tagName":"差评(10)","tagNum":"10","tagType":"","tagBorderColor":""},{"tagColor":"","tagId":"5","tagName":"有图(109)","tagNum":"109","tagType":"","tagBorderColor":""},{"tagColor":"","tagId":"15","tagName":"整体不错(37)","tagNum":"37","tagType":"","tagBorderColor":""},{"tagColor":"","tagId":"96","tagName":"设施齐全(22)","tagNum":"22","tagType":"","tagBorderColor":""},{"tagColor":"","tagId":"65","tagName":"环境好(8)","tagNum":"8","tagType":"","tagBorderColor":""},{"tagColor":"","tagId":"317","tagName":"风光好(7)","tagNum":"7","tagType":"","tagBorderColor":""},{"tagColor":"","tagId":"266","tagName":"地方不错(3)","tagNum":"3","tagType":"","tagBorderColor":""},{"tagColor":"","tagId":"111","tagName":"景色壮观(1)","tagNum":"1","tagType":"","tagBorderColor":""},{"tagColor":"","tagId":"39","tagName":"门票贵(7)","tagNum":"7","tagType":"","tagBorderColor":""},{"tagColor":"","tagId":"95","tagName":"设施旧(1)","tagNum":"1","tagType":"","tagBorderColor":""}],"dianpingInfo":[]}