{"isSuccess":1,"errorMsg":"","isCache":0,"pageInfo":{"page":16,"pageSize":10,"totalPage":54,"totalCount":539},"degreeLevel":"98","starNum":"4.2","totalNum":"539","goodNum":448,"midNum":81,"badNum":10,"hasImgNum":109,"dpList":[{"commentType":"2","dpContent":"既然是景点就应在开放时间服务到位，然其景点在开放时间内大门紧闭，让游客多走冤枉路。且进入景点的大门没有导向标，还要经过一武术学校很是不便，希改进。谢谢！","dpDate":"2011-05-07","dpGuid":"t-6100f9a6-bdc1-42c6-8f3d-6a618de03d70","dpId":"t-6100f9a6-bdc1-42c6-8f3d-6a618de03d70","DPItemId":"25794","DPItemName":"水浒好汉城","DPSite":"2","dpTripMode":"0","dpTripPurpose":"7,","DPUserLevel":"2","dpUserName":"189*****855","highLightColor":"","homeId":"","isElite":"0","isMyComments":"","isPraised":"0","lineAccess":"差评","markColor":"","memberGradeUrl":"","memberHeaderImgUrl":"2014/11/14/7/201411140956004202283.jpg","mobile":"","productPriceDesc":"","servicePoint":"3","zanCount":"0","csReplyList":null,"dpImgUrl":[],"subList":[],"dpImpressionList":[],"DPPlusStatus":0,"DPLocation":""},{"commentType":"1","dpContent":"服务态度非常好，好象60岁以上老年人不收费。迷宫不错，没看表演比较遗憾。","dpDate":"2017-02-05","dpGuid":"c55fe90e-cb6d-47d2-9499-104a01c24ed4","dpId":"c55fe90e-cb6d-47d2-9499-104a01c24ed4","DPItemId":"25794","DPItemName":"水浒好汉城","DPSite":"1","dpTripMode":"0","dpTripPurpose":"","DPUserLevel":"4","dpUserName":"吞噬星空58","highLightColor":"","homeId":"","isElite":"0","isMyComments":"","isPraised":"0","lineAccess":"好评","markColor":"","memberGradeUrl":"","memberHeaderImgUrl":"https://pic5.40017.cn/i/ori/1dhWb8X8neg.jpg","mobile":"","productPriceDesc":"","servicePoint":"1","zanCount":"0","csReplyList":null,"dpImgUrl":[],"subList":[],"dpImpressionList":[],"DPPlusStatus":0,"DPLocation":""},{"commentType":"1","dpContent":"有历史意义，值得一看，宋押司的办公室与好汉邻居们","dpDate":"2015-12-18","dpGuid":"c1927f69-ffb8-4980-bd56-3c3f87cfeeac","dpId":"c1927f69-ffb8-4980-bd56-3c3f87cfeeac","DPItemId":"25794","DPItemName":"水浒好汉城","DPSite":"1","dpTripMode":"0","dpTripPurpose":"","DPUserLevel":"0","dpUserName":"186****1995","highLightColor":"","homeId":"","isElite":"0","isMyComments":"","isPraised":"0","lineAccess":"中评","markColor":"","memberGradeUrl":"","memberHeaderImgUrl":"//pic3.40017.cn/member/face/2015/08/27/17/sHIVcY.png","mobile":"","productPriceDesc":"","servicePoint":"2","zanCount":"0","csReplyList":[{"replyContent":"程程感谢您的点评，景区一直在努力，从未停止过，我们一起携手创造更美好游玩品质，欢迎您继续监督哟。"}],"dpImgUrl":[{"imgUrl":"//pic3.40017.cn/scenery/comment/2015/12/18/06/86hjJL.jpg","originalImgUrl":"//pic3.40017.cn/scenery/comment/2015/12/18/06/86hjJL.jpg","smallImgUrl":"//pic3.40017.cn/scenery/comment/2015/12/18/06/86hjJL_150x150_00.jpg"},{"imgUrl":"//pic3.40017.cn/scenery/comment/2015/12/18/06/PI4fj7.jpg","originalImgUrl":"//pic3.40017.cn/scenery/comment/2015/12/18/06/PI4fj7.jpg","smallImgUrl":"//pic3.40017.cn/scenery/comment/2015/12/18/06/PI4fj7_150x150_00.jpg"},{"imgUrl":"//pic3.40017.cn/scenery/comment/2015/12/18/06/3beiQr.jpg","originalImgUrl":"//pic3.40017.cn/scenery/comment/2015/12/18/06/3beiQr.jpg","smallImgUrl":"//pic3.40017.cn/scenery/comment/2015/12/18/06/3beiQr_150x150_00.jpg"},{"imgUrl":"//pic3.40017.cn/scenery/comment/2015/12/18/06/Lj7uSp.jpg","originalImgUrl":"//pic3.40017.cn/scenery/comment/2015/12/18/06/Lj7uSp.jpg","smallImgUrl":"//pic3.40017.cn/scenery/comment/2015/12/18/06/Lj7uSp_150x150_00.jpg"}],"subList":[],"dpImpressionList":[],"DPPlusStatus":0,"DPLocation":""},{"commentType":"1","dpContent":"挺好的，虽然都是现代建的复古建筑，但也挺有味道的，下了大本了。还有表演，看了李逵办案，还有山东坠子，很值。","dpDate":"2015-05-20","dpGuid":"t-c9d03d49-221a-4e0a-b109-50c246390a91","dpId":"t-c9d03d49-221a-4e0a-b109-50c246390a91","DPItemId":"25794","DPItemName":"水浒好汉城","DPSite":"1","dpTripMode":"0","dpTripPurpose":"0,","DPUserLevel":"1","dpUserName":"7C718741E474E6BD","highLightColor":"","homeId":"","isElite":"0","isMyComments":"","isPraised":"0","lineAccess":"好评","markColor":"","memberGradeUrl":"","memberHeaderImgUrl":"//pic3.40017.cn/member/face/2017/12/05/16/tcdefault.png","mobile":"","productPriceDesc":"","servicePoint":"1","zanCount":"0","csReplyList":null,"dpImgUrl":[],"subList":[],"dpImpressionList":[],"DPPlusStatus":0,"DPLocation":""},{"commentType":"1","dpContent":"非常愉快的的旅行，十一放假与家人同游，在同程上定的家庭票，挺划算的。取票很方便，景点挺好特别是3d动画，孩子非常喜欢。","dpDate":"2015-10-10","dpGuid":"996b6297-08a4-4340-809e-1c349c3f7d46","dpId":"996b6297-08a4-4340-809e-1c349c3f7d46","DPItemId":"25794","DPItemName":"水浒好汉城","DPSite":"1","dpTripMode":"0","dpTripPurpose":"","DPUserLevel":"2","dpUserName":"135****4065","highLightColor":"","homeId":"","isElite":"0","isMyComments":"","isPraised":"0","lineAccess":"好评","markColor":"","memberGradeUrl":"","memberHeaderImgUrl":"//pic3.40017.cn/member/face/2015/08/27/17/sHIVcY.png","mobile":"","productPriceDesc":"","servicePoint":"1","zanCount":"0","csReplyList":null,"dpImgUrl":[],"subList":[],"dpImpressionList":[],"DPPlusStatus":0,"DPLocation":""},{"commentType":"1","dpContent":"不好玩，没什么内容，门票太贵，价格和价值不匹配，不建议去，不过城门楼上确实很凉快！","dpDate":"2019-07-06","dpGuid":"dfff362d-157a-4f42-a1ac-5ac667dce010","dpId":"dfff362d-157a-4f42-a1ac-5ac667dce010","DPItemId":"25794","DPItemName":"水浒好汉城","DPSite":"1","dpTripMode":"0","dpTripPurpose":"","DPUserLevel":"1","dpUserName":"jisngjun","highLightColor":"","homeId":"","isElite":"0","isMyComments":"","isPraised":"0","lineAccess":"差评","markColor":"","memberGradeUrl":"","memberHeaderImgUrl":"//pic3.40017.cn/member/face/2015/09/04/12/9aMdlb.jpg","mobile":"","productPriceDesc":"","servicePoint":"3","zanCount":"0","csReplyList":[{"replyContent":"尊敬的客户您好，很抱歉给您此次带来的不好体验，同程网给予您的价格是比较优惠的哦！同程一直在努力给您及每一位客官都能提供更优惠的产品，在整合套餐、优化产品、调整价格上是我们一直在努力！相信我们的产品在价格上的优势一定值得您继续使用并选择相信同程的产品和服务！请您拭目以待！"}],"dpImgUrl":[],"subList":[],"dpImpressionList":[],"DPPlusStatus":3,"DPLocation":""},{"commentType":"1","dpContent":"太棒了！孩子玩的很高兴！","dpDate":"2016-02-12","dpGuid":"4cf0db34-1328-451d-976c-7d8e615077a7","dpId":"4cf0db34-1328-451d-976c-7d8e615077a7","DPItemId":"25794","DPItemName":"水浒好汉城","DPSite":"1","dpTripMode":"0","dpTripPurpose":"","DPUserLevel":"2","dpUserName":"131****0969","highLightColor":"","homeId":"","isElite":"0","isMyComments":"","isPraised":"0","lineAccess":"好评","markColor":"","memberGradeUrl":"","memberHeaderImgUrl":"//pic3.40017.cn/member/face/2015/08/27/17/sHIVcY.png","mobile":"","productPriceDesc":"","servicePoint":"1","zanCount":"0","csReplyList":null,"dpImgUrl":[{"imgUrl":"//pic3.40017.cn/scenery/comment/2016/02/12/19/rWQX18.jpg","originalImgUrl":"//pic3.40017.cn/scenery/comment/2016/02/12/19/rWQX18.jpg","smallImgUrl":"//pic3.40017.cn/scenery/comment/2016/02/12/19/rWQX18_150x150_00.jpg"},{"imgUrl":"//pic3.40017.cn/scenery/comment/2016/02/12/19/YJRktK.jpg","originalImgUrl":"//pic3.40017.cn/scenery/comment/2016/02/12/19/YJRktK.jpg","smallImgUrl":"//pic3.40017.cn/scenery/comment/2016/02/12/19/YJRktK_150x150_00.jpg"}],"subList":[],"dpImpressionList":[],"DPPlusStatus":0,"DPLocation":""},{"commentType":"1","dpContent":"30票还可以吧，就是没看演出，两个小时就能逛完。前台真够了，明明手机定好的票非说我没定，最后虽然解决了，但这样不好！景区还可以","dpDate":"2016-05-13","dpGuid":"d302f056-a87d-4156-8ebf-07af98b98ecb","dpId":"d302f056-a87d-4156-8ebf-07af98b98ecb","DPItemId":"25794","DPItemName":"水浒好汉城","DPSite":"1","dpTripMode":"0","dpTripPurpose":"","DPUserLevel":"1","dpUserName":"134****7001","highLightColor":"","homeId":"","isElite":"0","isMyComments":"","isPraised":"0","lineAccess":"好评","markColor":"","memberGradeUrl":"","memberHeaderImgUrl":"//pic3.40017.cn/member/face/2015/08/27/17/sHIVcY.png","mobile":"","productPriceDesc":"","servicePoint":"1","zanCount":"0","csReplyList":null,"dpImgUrl":[],"subList":[],"dpImpressionList":[],"DPPlusStatus":0,"DPLocation":""},{"commentType":"1","dpContent":"挺好的，虽然都是现代建的复古建筑，但也挺有味道的，下了大本了。还有表演，看了李逵办案，还有山东坠子，很值。","dpDate":"2015-05-20","dpGuid":"t-fd4de1e4-7974-4f0b-aa86-814d636f1a0a","dpId":"t-fd4de1e4-7974-4f0b-aa86-814d636f1a0a","DPItemId":"25794","DPItemName":"水浒好汉城","DPSite":"1","dpTripMode":"0","dpTripPurpose":"0,","DPUserLevel":"1","dpUserName":"7C718741E474E6BD","highLightColor":"","homeId":"","isElite":"0","isMyComments":"","isPraised":"0","lineAccess":"好评","markColor":"","memberGradeUrl":"","memberHeaderImgUrl":"//pic3.40017.cn/member/face/2017/12/05/16/tcdefault.png","mobile":"","productPriceDesc":"","servicePoint":"1","zanCount":"0","csReplyList":null,"dpImgUrl":[],"subList":[],"dpImpressionList":[],"DPPlusStatus":0,"DPLocation":""},{"commentType":"1","dpContent":"里面空间不大布局紧凑，以郓城县衙为主，其它建筑也很多都是仿古健，短暂游玩还是可以的。没有清明上河园大手**。","dpDate":"2016-02-10","dpGuid":"6465c6be-8b88-4ceb-b375-adc3a546ceb8","dpId":"6465c6be-8b88-4ceb-b375-adc3a546ceb8","DPItemId":"25794","DPItemName":"水浒好汉城","DPSite":"1","dpTripMode":"0","dpTripPurpose":"","DPUserLevel":"1","dpUserName":"186****9672","highLightColor":"","homeId":"","isElite":"0","isMyComments":"","isPraised":"0","lineAccess":"好评","markColor":"","memberGradeUrl":"","memberHeaderImgUrl":"//pic3.40017.cn/member/face/2015/08/27/17/sHIVcY.png","mobile":"","productPriceDesc":"","servicePoint":"1","zanCount":"0","csReplyList":null,"dpImgUrl":[],"subList":[],"dpImpressionList":[],"DPPlusStatus":0,"DPLocation":""}],"isShowConinsicon":0,"rulesContent":"","dpConinRemark":"","isCanEnter":0,"isCanDianPingBefore":0,"externalUrl":"","serviceScoreAvgList":[{"score":"10","serviceName":"同程服务"},{"score":"10","serviceName":"产品便捷"},{"score":"10","serviceName":"性价比"},{"score":"10","serviceName":"景区体验"}],"dpTagList":[{"tagColor":"","tagId":"1","tagName":"全部(539)","tagNum":"539","tagType":"","tagBorderColor":""},{"tagColor":"","tagId":"6","tagName":"最新(539)","tagNum":"539","tagType":"","tagBorderColor":""},{"tagColor":"","tagId":"2","tagName":"好评(448)","tagNum":"448","tagType":"","tagBorderColor":""},{"tagColor":"","tagId":"3","tagName":"中评(81)","tagNum":"81","tagType":"","tagBorderColor":""},{"tagColor":"","tagId":"4","tagName":"差评(10)","tagNum":"10","tagType":"","tagBorderColor":""},{"tagColor":"","tagId":"5","tagName":"有图(109)","tagNum":"109","tagType":"","tagBorderColor":""},{"tagColor":"","tagId":"15","tagName":"整体不错(37)","tagNum":"37","tagType":"","tagBorderColor":""},{"tagColor":"","tagId":"96","tagName":"设施齐全(22)","tagNum":"22","tagType":"","tagBorderColor":""},{"tagColor":"","tagId":"65","tagName":"环境好(8)","tagNum":"8","tagType":"","tagBorderColor":""},{"tagColor":"","tagId":"317","tagName":"风光好(7)","tagNum":"7","tagType":"","tagBorderColor":""},{"tagColor":"","tagId":"266","tagName":"地方不错(3)","tagNum":"3","tagType":"","tagBorderColor":""},{"tagColor":"","tagId":"111","tagName":"景色壮观(1)","tagNum":"1","tagType":"","tagBorderColor":""},{"tagColor":"","tagId":"39","tagName":"门票贵(7)","tagNum":"7","tagType":"","tagBorderColor":""},{"tagColor":"","tagId":"95","tagName":"设施旧(1)","tagNum":"1","tagType":"","tagBorderColor":""}],"dianpingInfo":[]}