{"isSuccess":1,"errorMsg":"","isCache":0,"pageInfo":{"page":12,"pageSize":10,"totalPage":54,"totalCount":539},"degreeLevel":"98","starNum":"4.2","totalNum":"539","goodNum":448,"midNum":81,"badNum":10,"hasImgNum":109,"dpList":[{"commentType":"2","dpContent":"我们是一家三口带着婆婆和妹妹一起去的，刚好是小雨过后，比较静，人也少，感觉比起人多的时候更有古镇的意境，就是有个玄女庙的烧香费用不低，有点被忽悠的感觉。","dpDate":"2013-04-06","dpGuid":"t-220c0949-96c7-47fb-afec-51dd038744db","dpId":"t-220c0949-96c7-47fb-afec-51dd038744db","DPItemId":"25794","DPItemName":"水浒好汉城","DPSite":"2","dpTripMode":"0","dpTripPurpose":"3,","DPUserLevel":"1","dpUserName":"186*****608","highLightColor":"","homeId":"","isElite":"0","isMyComments":"","isPraised":"0","lineAccess":"好评","markColor":"","memberGradeUrl":"","memberHeaderImgUrl":"//pic5.40017.cn/i/ori/PELe6f5TBC.jpg","mobile":"","productPriceDesc":"","servicePoint":"1","zanCount":"0","csReplyList":null,"dpImgUrl":[],"subList":[],"dpImpressionList":[],"DPPlusStatus":0,"DPLocation":""},{"commentType":"1","dpContent":"4号去的，景区人不多，停车场免费停车，景区总面积也不大，以古建筑为主，少绿树及湖水，里面无二次收费，旁边好像还有二期三期景点未开发出来。总体可以。一分钱一分货","dpDate":"2015-10-07","dpGuid":"e0435b89-47f1-4218-905c-3e625292c5de","dpId":"e0435b89-47f1-4218-905c-3e625292c5de","DPItemId":"25794","DPItemName":"水浒好汉城","DPSite":"1","dpTripMode":"0","dpTripPurpose":"","DPUserLevel":"0","dpUserName":"136****0731","highLightColor":"","homeId":"","isElite":"0","isMyComments":"","isPraised":"0","lineAccess":"好评","markColor":"","memberGradeUrl":"","memberHeaderImgUrl":"//pic3.40017.cn/member/face/2015/08/27/17/sHIVcY.png","mobile":"","productPriceDesc":"","servicePoint":"1","zanCount":"0","csReplyList":null,"dpImgUrl":[],"subList":[],"dpImpressionList":[],"DPPlusStatus":0,"DPLocation":""},{"commentType":"1","dpContent":"没有导览图，游玩不是很方便。其他的感觉还可以吧。","dpDate":"2019-11-03","dpGuid":"04ebaee5-699a-415e-8bbe-cd15456c9581","dpId":"04ebaee5-699a-415e-8bbe-cd15456c9581","DPItemId":"25794","DPItemName":"水浒好汉城","DPSite":"1","dpTripMode":"0","dpTripPurpose":"","DPUserLevel":"4","dpUserName":"手牵手逛地球","highLightColor":"","homeId":"","isElite":"0","isMyComments":"","isPraised":"0","lineAccess":"好评","markColor":"","memberGradeUrl":"","memberHeaderImgUrl":"//pic5.40017.cn/04/000/91/77/rBTJUl00gJaAOWBcAAHTfTkn9pw388.jpg","mobile":"","productPriceDesc":"","servicePoint":"1","zanCount":"0","csReplyList":null,"dpImgUrl":[],"subList":[],"dpImpressionList":[],"DPPlusStatus":3,"DPLocation":""},{"commentType":"1","dpContent":"很好！我们自驾车去的，停车免费，由于是五一假期，人车都很多，有时候可能一位难求，不过假期有优惠活动，60岁以上老人免费。建议聘请导游，否则自己看可能看不出门道，也弄不清最佳旅游路线。我们是蹭的他人的导游，没花导游费。导游态度很好，很满意！","dpDate":"2014-05-02","dpGuid":"t-80a65994-0581-4efb-9fcd-8d95ed699351","dpId":"t-80a65994-0581-4efb-9fcd-8d95ed699351","DPItemId":"25794","DPItemName":"水浒好汉城","DPSite":"1","dpTripMode":"1","dpTripPurpose":"3,","DPUserLevel":"1","dpUserName":"182*****030","highLightColor":"","homeId":"","isElite":"0","isMyComments":"","isPraised":"0","lineAccess":"好评","markColor":"","memberGradeUrl":"","memberHeaderImgUrl":"//pic5.40017.cn/i/ori/PELe6f5TBC.jpg","mobile":"","productPriceDesc":"","servicePoint":"1","zanCount":"0","csReplyList":null,"dpImgUrl":[],"subList":[],"dpImpressionList":[],"DPPlusStatus":0,"DPLocation":""},{"commentType":"1","dpContent":"很好！我们自驾车去的，停车免费，由于是五一假期，人车都很多，有时候可能一位难求，不过假期有优惠活动，60岁以上老人免费。建议聘请导游，否则自己看可能看不出门道，也弄不清最佳旅游路线。我们是蹭的他人的导游，没花导游费。导游态度很好，很满意！","dpDate":"2014-05-02","dpGuid":"t-8889fe27-daa3-435d-a102-86d287eee74a","dpId":"t-8889fe27-daa3-435d-a102-86d287eee74a","DPItemId":"25794","DPItemName":"水浒好汉城","DPSite":"1","dpTripMode":"1","dpTripPurpose":"3,","DPUserLevel":"1","dpUserName":"182*****030","highLightColor":"","homeId":"","isElite":"0","isMyComments":"","isPraised":"0","lineAccess":"好评","markColor":"","memberGradeUrl":"","memberHeaderImgUrl":"//pic5.40017.cn/i/ori/PELe6f5TBC.jpg","mobile":"","productPriceDesc":"","servicePoint":"1","zanCount":"0","csReplyList":null,"dpImgUrl":[],"subList":[],"dpImpressionList":[],"DPPlusStatus":0,"DPLocation":""},{"commentType":"1","dpContent":"很好！我们自驾车去的，停车免费，由于是五一假期，人车都很多，有时候可能一位难求，不过假期有优惠活动，60岁以上老人免费。建议聘请导游，否则自己看可能看不出门道，也弄不清最佳旅游路线。我们是蹭的他人的导游，没花导游费。导游态度很好，很满意！","dpDate":"2014-05-02","dpGuid":"t-69f95f22-7372-4b7a-b649-3a66a4e997b5","dpId":"t-69f95f22-7372-4b7a-b649-3a66a4e997b5","DPItemId":"25794","DPItemName":"水浒好汉城","DPSite":"1","dpTripMode":"1","dpTripPurpose":"3,","DPUserLevel":"1","dpUserName":"182*****030","highLightColor":"","homeId":"","isElite":"0","isMyComments":"","isPraised":"0","lineAccess":"好评","markColor":"","memberGradeUrl":"","memberHeaderImgUrl":"//pic5.40017.cn/i/ori/PELe6f5TBC.jpg","mobile":"","productPriceDesc":"","servicePoint":"1","zanCount":"0","csReplyList":null,"dpImgUrl":[],"subList":[],"dpImpressionList":[],"DPPlusStatus":0,"DPLocation":""},{"commentType":"1","dpContent":"相当的没意思。为什么还那么多人给那么多高评价。稍微给留点好印象的是当地人很好，物价便宜，停车免费。","dpDate":"2015-06-14","dpGuid":"t-5358b4ea-51ec-442a-ae81-17c0cb6cd47e","dpId":"t-5358b4ea-51ec-442a-ae81-17c0cb6cd47e","DPItemId":"25794","DPItemName":"水浒好汉城","DPSite":"1","dpTripMode":"0","dpTripPurpose":"0,","DPUserLevel":"1","dpUserName":"23EC0B9DF4412AB3","highLightColor":"","homeId":"","isElite":"0","isMyComments":"","isPraised":"0","lineAccess":"中评","markColor":"","memberGradeUrl":"","memberHeaderImgUrl":"//pic3.40017.cn/member/face/2017/12/05/16/tcdefault.png","mobile":"","productPriceDesc":"","servicePoint":"2","zanCount":"0","csReplyList":null,"dpImgUrl":[],"subList":[],"dpImpressionList":[],"DPPlusStatus":0,"DPLocation":""},{"commentType":"1","dpContent":"比上次来好多了，景区的管理有了很大进步，各种表演如情景剧，山东坠子书，武术表演都很精彩。各种建筑很有特色，值得一家人半日游，总体不错。","dpDate":"2015-05-03","dpGuid":"t-fdc016db-3ff5-49ee-8dd7-8f3e2c62a4ee","dpId":"t-fdc016db-3ff5-49ee-8dd7-8f3e2c62a4ee","DPItemId":"25794","DPItemName":"水浒好汉城","DPSite":"1","dpTripMode":"0","dpTripPurpose":"4,","DPUserLevel":"1","dpUserName":"A33F17F9D7C22776","highLightColor":"","homeId":"","isElite":"0","isMyComments":"","isPraised":"0","lineAccess":"好评","markColor":"","memberGradeUrl":"","memberHeaderImgUrl":"//pic3.40017.cn/member/face/2017/12/05/16/tcdefault.png","mobile":"","productPriceDesc":"","servicePoint":"1","zanCount":"2","csReplyList":null,"dpImgUrl":[],"subList":[],"dpImpressionList":[],"DPPlusStatus":0,"DPLocation":""},{"commentType":"1","dpContent":"第二次去了，导游服务非常好，讲的特别细致，赞一个！","dpDate":"2015-12-22","dpGuid":"4f939cc0-9b9d-4ee7-8bc0-14e6def44e79","dpId":"4f939cc0-9b9d-4ee7-8bc0-14e6def44e79","DPItemId":"25794","DPItemName":"水浒好汉城","DPSite":"1","dpTripMode":"0","dpTripPurpose":"","DPUserLevel":"2","dpUserName":"137****6188","highLightColor":"","homeId":"","isElite":"0","isMyComments":"","isPraised":"0","lineAccess":"好评","markColor":"","memberGradeUrl":"","memberHeaderImgUrl":"//pic3.40017.cn/member/face/2015/08/27/17/sHIVcY.png","mobile":"","productPriceDesc":"","servicePoint":"1","zanCount":"0","csReplyList":null,"dpImgUrl":[],"subList":[],"dpImpressionList":[],"DPPlusStatus":0,"DPLocation":""},{"commentType":"1","dpContent":"水浒好汉城还是比较好玩的。里面的建筑都是以仿宋朝为主。本以为门票价格不贵，里面不会很大，但 真正走进去，才发现不仅场地大，还有古代的特色表演 如李逵断案，绣球招亲等，很有朝代特性，也很涨知识。景点环境也非常优美，还很有主题性。","dpDate":"2016-07-19","dpGuid":"1fce1cab-e3e7-42b7-813d-4e466643e7c6","dpId":"1fce1cab-e3e7-42b7-813d-4e466643e7c6","DPItemId":"25794","DPItemName":"水浒好汉城","DPSite":"1","dpTripMode":"0","dpTripPurpose":"","DPUserLevel":"1","dpUserName":"15668mimdbh","highLightColor":"","homeId":"","isElite":"0","isMyComments":"","isPraised":"0","lineAccess":"好评","markColor":"","memberGradeUrl":"","memberHeaderImgUrl":"//pic5.40017.cn/i/ori/PXh10ImsIo.jpg","mobile":"","productPriceDesc":"","servicePoint":"1","zanCount":"0","csReplyList":null,"dpImgUrl":[],"subList":[],"dpImpressionList":[],"DPPlusStatus":0,"DPLocation":""}],"isShowConinsicon":0,"rulesContent":"","dpConinRemark":"","isCanEnter":0,"isCanDianPingBefore":0,"externalUrl":"","serviceScoreAvgList":[{"score":"10","serviceName":"同程服务"},{"score":"10","serviceName":"产品便捷"},{"score":"10","serviceName":"性价比"},{"score":"10","serviceName":"景区体验"}],"dpTagList":[{"tagColor":"","tagId":"1","tagName":"全部(539)","tagNum":"539","tagType":"","tagBorderColor":""},{"tagColor":"","tagId":"6","tagName":"最新(539)","tagNum":"539","tagType":"","tagBorderColor":""},{"tagColor":"","tagId":"2","tagName":"好评(448)","tagNum":"448","tagType":"","tagBorderColor":""},{"tagColor":"","tagId":"3","tagName":"中评(81)","tagNum":"81","tagType":"","tagBorderColor":""},{"tagColor":"","tagId":"4","tagName":"差评(10)","tagNum":"10","tagType":"","tagBorderColor":""},{"tagColor":"","tagId":"5","tagName":"有图(109)","tagNum":"109","tagType":"","tagBorderColor":""},{"tagColor":"","tagId":"15","tagName":"整体不错(37)","tagNum":"37","tagType":"","tagBorderColor":""},{"tagColor":"","tagId":"96","tagName":"设施齐全(22)","tagNum":"22","tagType":"","tagBorderColor":""},{"tagColor":"","tagId":"65","tagName":"环境好(8)","tagNum":"8","tagType":"","tagBorderColor":""},{"tagColor":"","tagId":"317","tagName":"风光好(7)","tagNum":"7","tagType":"","tagBorderColor":""},{"tagColor":"","tagId":"266","tagName":"地方不错(3)","tagNum":"3","tagType":"","tagBorderColor":""},{"tagColor":"","tagId":"111","tagName":"景色壮观(1)","tagNum":"1","tagType":"","tagBorderColor":""},{"tagColor":"","tagId":"39","tagName":"门票贵(7)","tagNum":"7","tagType":"","tagBorderColor":""},{"tagColor":"","tagId":"95","tagName":"设施旧(1)","tagNum":"1","tagType":"","tagBorderColor":""}],"dianpingInfo":[]}