{"isSuccess":1,"errorMsg":"","isCache":0,"pageInfo":{"page":18,"pageSize":10,"totalPage":54,"totalCount":539},"degreeLevel":"98","starNum":"4.2","totalNum":"539","goodNum":448,"midNum":81,"badNum":10,"hasImgNum":109,"dpList":[{"commentType":"2","dpContent":"购票很方便，里边挺有特色，不像有些景点商业气息那么浓，值得一游。","dpDate":"2014-10-07","dpGuid":"t-e47385ed-f205-4060-b287-cf6d916ae04f","dpId":"t-e47385ed-f205-4060-b287-cf6d916ae04f","DPItemId":"25794","DPItemName":"水浒好汉城","DPSite":"2","dpTripMode":"1","dpTripPurpose":"3,","DPUserLevel":"1","dpUserName":"152*****416","highLightColor":"","homeId":"","isElite":"0","isMyComments":"","isPraised":"0","lineAccess":"好评","markColor":"","memberGradeUrl":"","memberHeaderImgUrl":"//pic5.40017.cn/i/ori/PELe6f5TBC.jpg","mobile":"","productPriceDesc":"","servicePoint":"1","zanCount":"0","csReplyList":null,"dpImgUrl":[],"subList":[],"dpImpressionList":[],"DPPlusStatus":0,"DPLocation":""},{"commentType":"1","dpContent":"换票挺快的，景点不错，很多古朴的建筑，绝对老货，不知老板从哪里找的","dpDate":"2016-08-20","dpGuid":"f7de60f6-c2b4-44e2-bbff-16a39fcd66b2","dpId":"f7de60f6-c2b4-44e2-bbff-16a39fcd66b2","DPItemId":"25794","DPItemName":"水浒好汉城","DPSite":"1","dpTripMode":"0","dpTripPurpose":"","DPUserLevel":"1","dpUserName":"CZYDCW","highLightColor":"","homeId":"","isElite":"0","isMyComments":"","isPraised":"0","lineAccess":"好评","markColor":"","memberGradeUrl":"","memberHeaderImgUrl":"https://pic5.40017.cn/i/ori/1dhWb8X8neg.jpg","mobile":"","productPriceDesc":"","servicePoint":"1","zanCount":"0","csReplyList":null,"dpImgUrl":[],"subList":[],"dpImpressionList":[],"DPPlusStatus":0,"DPLocation":""},{"commentType":"1","dpContent":"带家人去的，景点风格古朴，四合院的建造符合传统型制，有时代穿越感。尤其喜欢古建筑风格的朋友值得一看。","dpDate":"2015-08-21","dpGuid":"6feecce2-b6ea-412e-a054-9221f2121d3d","dpId":"6feecce2-b6ea-412e-a054-9221f2121d3d","DPItemId":"25794","DPItemName":"水浒好汉城","DPSite":"1","dpTripMode":"0","dpTripPurpose":"","DPUserLevel":"1","dpUserName":"136****8827","highLightColor":"","homeId":"","isElite":"0","isMyComments":"","isPraised":"0","lineAccess":"好评","markColor":"","memberGradeUrl":"","memberHeaderImgUrl":"//upload.17u.com/uploadfile/2005/11/08/2/boy.gif","mobile":"","productPriceDesc":"","servicePoint":"1","zanCount":"0","csReplyList":null,"dpImgUrl":[],"subList":[],"dpImpressionList":[],"DPPlusStatus":0,"DPLocation":""},{"commentType":"2","dpContent":"园区值得一游，可以感受一下落子戏，了解一下宋朝的大家院落，建筑。","dpDate":"2014-08-23","dpGuid":"t-e16ee34e-e183-4ae8-9344-174f820a4e5d","dpId":"t-e16ee34e-e183-4ae8-9344-174f820a4e5d","DPItemId":"25794","DPItemName":"水浒好汉城","DPSite":"2","dpTripMode":"1","dpTripPurpose":"3,","DPUserLevel":"1","dpUserName":"135*****176","highLightColor":"","homeId":"","isElite":"0","isMyComments":"","isPraised":"0","lineAccess":"中评","markColor":"","memberGradeUrl":"","memberHeaderImgUrl":"2015/04/15/7/201504150732240908529.jpg","mobile":"","productPriceDesc":"","servicePoint":"2","zanCount":"0","csReplyList":null,"dpImgUrl":[],"subList":[],"dpImpressionList":[],"DPPlusStatus":0,"DPLocation":""},{"commentType":"1","dpContent":"去了梁山，十一人非常多，梁山比二十年前好很多 ，有文化底蕴多了。不错，三国迷的孩子非常喜欢","dpDate":"2015-10-22","dpGuid":"c2ea0500-e626-408b-ab69-de71e0b7a596","dpId":"c2ea0500-e626-408b-ab69-de71e0b7a596","DPItemId":"25794","DPItemName":"水浒好汉城","DPSite":"1","dpTripMode":"0","dpTripPurpose":"","DPUserLevel":"3","dpUserName":"138****5030","highLightColor":"","homeId":"","isElite":"0","isMyComments":"","isPraised":"0","lineAccess":"好评","markColor":"","memberGradeUrl":"","memberHeaderImgUrl":"//pic3.40017.cn/member/face/2015/08/27/17/sHIVcY.png","mobile":"","productPriceDesc":"","servicePoint":"1","zanCount":"0","csReplyList":null,"dpImgUrl":[{"imgUrl":"//pic3.40017.cn/scenery/comment/2015/10/22/09/Amd0rn.jpg","originalImgUrl":"//pic3.40017.cn/scenery/comment/2015/10/22/09/Amd0rn.jpg","smallImgUrl":"//pic3.40017.cn/scenery/comment/2015/10/22/09/Amd0rn_150x150_00.jpg"},{"imgUrl":"//pic3.40017.cn/scenery/comment/2015/10/22/09/Qb77PO.jpg","originalImgUrl":"//pic3.40017.cn/scenery/comment/2015/10/22/09/Qb77PO.jpg","smallImgUrl":"//pic3.40017.cn/scenery/comment/2015/10/22/09/Qb77PO_150x150_00.jpg"}],"subList":[],"dpImpressionList":[],"DPPlusStatus":0,"DPLocation":""},{"commentType":"1","dpContent":"很有文化特色，同程网订票有优惠呀！值得一去的地方，要是有节目表演就更好了。","dpDate":"2016-02-11","dpGuid":"e6483139-f093-4e86-882a-44eee206a086","dpId":"e6483139-f093-4e86-882a-44eee206a086","DPItemId":"25794","DPItemName":"水浒好汉城","DPSite":"1","dpTripMode":"0","dpTripPurpose":"","DPUserLevel":"3","dpUserName":"135****2878","highLightColor":"","homeId":"","isElite":"0","isMyComments":"","isPraised":"0","lineAccess":"好评","markColor":"","memberGradeUrl":"","memberHeaderImgUrl":"//pic3.40017.cn/member/face/2015/08/27/17/sHIVcY.png","mobile":"","productPriceDesc":"","servicePoint":"1","zanCount":"0","csReplyList":null,"dpImgUrl":[],"subList":[],"dpImpressionList":[],"DPPlusStatus":0,"DPLocation":""},{"commentType":"1","dpContent":"五十元的门票，凸显中国旅游门票之高。虽然打折到35元也已经很高了。进入后发现里边在大兴土木，很多建筑都在施工。整体感觉很一般。","dpDate":"2014-10-27","dpGuid":"t-679e16fa-2955-4605-8022-ac8e402da128","dpId":"t-679e16fa-2955-4605-8022-ac8e402da128","DPItemId":"25794","DPItemName":"水浒好汉城","DPSite":"1","dpTripMode":"4","dpTripPurpose":"5,","DPUserLevel":"1","dpUserName":"186*****982","highLightColor":"","homeId":"","isElite":"0","isMyComments":"","isPraised":"0","lineAccess":"中评","markColor":"","memberGradeUrl":"","memberHeaderImgUrl":"//pic5.40017.cn/i/ori/PELe6f5TBC.jpg","mobile":"","productPriceDesc":"","servicePoint":"2","zanCount":"0","csReplyList":null,"dpImgUrl":[],"subList":[],"dpImpressionList":[],"DPPlusStatus":0,"DPLocation":""},{"commentType":"2","dpContent":"郓城文化古韵深厚，水浒好汉城汇集古建筑，再现宋代水浒人物场景，古色古韵，评书表演，武术绘画，古玩兵器，酒楼旗幡，韵味十足。期待二期更精彩","dpDate":"2013-05-10","dpGuid":"t-6c77f289-0b76-4f48-b870-3c5c4f64dce6","dpId":"t-6c77f289-0b76-4f48-b870-3c5c4f64dce6","DPItemId":"25794","DPItemName":"水浒好汉城","DPSite":"2","dpTripMode":"0","dpTripPurpose":"3,","DPUserLevel":"1","dpUserName":"158*****772","highLightColor":"","homeId":"","isElite":"0","isMyComments":"","isPraised":"0","lineAccess":"好评","markColor":"","memberGradeUrl":"","memberHeaderImgUrl":"//pic5.40017.cn/i/ori/PELe6f5TBC.jpg","mobile":"","productPriceDesc":"","servicePoint":"1","zanCount":"0","csReplyList":null,"dpImgUrl":[],"subList":[],"dpImpressionList":[],"DPPlusStatus":0,"DPLocation":""},{"commentType":"1","dpContent":"景点很精致，古朴，环境很好，非常值得带孩子去玩。","dpDate":"2016-04-20","dpGuid":"f073ede1-483a-424d-bbd4-7b60b6a7708a","dpId":"f073ede1-483a-424d-bbd4-7b60b6a7708a","DPItemId":"25794","DPItemName":"水浒好汉城","DPSite":"1","dpTripMode":"0","dpTripPurpose":"","DPUserLevel":"3","dpUserName":"186****0365","highLightColor":"","homeId":"","isElite":"0","isMyComments":"","isPraised":"0","lineAccess":"好评","markColor":"","memberGradeUrl":"","memberHeaderImgUrl":"//pic3.40017.cn/member/face/2015/08/27/17/sHIVcY.png","mobile":"","productPriceDesc":"","servicePoint":"1","zanCount":"0","csReplyList":null,"dpImgUrl":[],"subList":[],"dpImpressionList":[],"DPPlusStatus":0,"DPLocation":""},{"commentType":"1","dpContent":"还行吧，进入景区缺少方向指示标志，从武术学院入园，没有一个指示性标志，这方面需改进。","dpDate":"2014-08-19","dpGuid":"t-fdde7faf-2954-4877-be61-902661c17176","dpId":"t-fdde7faf-2954-4877-be61-902661c17176","DPItemId":"25794","DPItemName":"水浒好汉城","DPSite":"1","dpTripMode":"1","dpTripPurpose":"3,","DPUserLevel":"1","dpUserName":"139*****443","highLightColor":"","homeId":"","isElite":"0","isMyComments":"","isPraised":"0","lineAccess":"好评","markColor":"","memberGradeUrl":"","memberHeaderImgUrl":"//pic5.40017.cn/i/ori/PELe6f5TBC.jpg","mobile":"","productPriceDesc":"","servicePoint":"1","zanCount":"0","csReplyList":null,"dpImgUrl":[],"subList":[],"dpImpressionList":[],"DPPlusStatus":0,"DPLocation":""}],"isShowConinsicon":0,"rulesContent":"","dpConinRemark":"","isCanEnter":0,"isCanDianPingBefore":0,"externalUrl":"","serviceScoreAvgList":[{"score":"10","serviceName":"同程服务"},{"score":"10","serviceName":"产品便捷"},{"score":"10","serviceName":"性价比"},{"score":"10","serviceName":"景区体验"}],"dpTagList":[{"tagColor":"","tagId":"1","tagName":"全部(539)","tagNum":"539","tagType":"","tagBorderColor":""},{"tagColor":"","tagId":"6","tagName":"最新(539)","tagNum":"539","tagType":"","tagBorderColor":""},{"tagColor":"","tagId":"2","tagName":"好评(448)","tagNum":"448","tagType":"","tagBorderColor":""},{"tagColor":"","tagId":"3","tagName":"中评(81)","tagNum":"81","tagType":"","tagBorderColor":""},{"tagColor":"","tagId":"4","tagName":"差评(10)","tagNum":"10","tagType":"","tagBorderColor":""},{"tagColor":"","tagId":"5","tagName":"有图(109)","tagNum":"109","tagType":"","tagBorderColor":""},{"tagColor":"","tagId":"15","tagName":"整体不错(37)","tagNum":"37","tagType":"","tagBorderColor":""},{"tagColor":"","tagId":"96","tagName":"设施齐全(22)","tagNum":"22","tagType":"","tagBorderColor":""},{"tagColor":"","tagId":"65","tagName":"环境好(8)","tagNum":"8","tagType":"","tagBorderColor":""},{"tagColor":"","tagId":"317","tagName":"风光好(7)","tagNum":"7","tagType":"","tagBorderColor":""},{"tagColor":"","tagId":"266","tagName":"地方不错(3)","tagNum":"3","tagType":"","tagBorderColor":""},{"tagColor":"","tagId":"111","tagName":"景色壮观(1)","tagNum":"1","tagType":"","tagBorderColor":""},{"tagColor":"","tagId":"39","tagName":"门票贵(7)","tagNum":"7","tagType":"","tagBorderColor":""},{"tagColor":"","tagId":"95","tagName":"设施旧(1)","tagNum":"1","tagType":"","tagBorderColor":""}],"dianpingInfo":[]}