{"isSuccess":1,"errorMsg":"","isCache":0,"pageInfo":{"page":11,"pageSize":10,"totalPage":54,"totalCount":539},"degreeLevel":"98","starNum":"4.2","totalNum":"539","goodNum":448,"midNum":81,"badNum":10,"hasImgNum":109,"dpList":[{"commentType":"1","dpContent":"在菏泽已经算是非常不错的景点了   景点还在建设中，建议仿效清明上河园多一些演出…","dpDate":"2014-12-24","dpGuid":"t-78365a0f-1b3b-449f-bdc3-1a07599dc9ad","dpId":"t-78365a0f-1b3b-449f-bdc3-1a07599dc9ad","DPItemId":"25794","DPItemName":"水浒好汉城","DPSite":"1","dpTripMode":"1","dpTripPurpose":"4,","DPUserLevel":"1","dpUserName":"150*****517","highLightColor":"","homeId":"","isElite":"0","isMyComments":"","isPraised":"0","lineAccess":"好评","markColor":"","memberGradeUrl":"","memberHeaderImgUrl":"//pic5.40017.cn/i/ori/PELe6f5TBC.jpg","mobile":"","productPriceDesc":"","servicePoint":"1","zanCount":"1","csReplyList":null,"dpImgUrl":[],"subList":[],"dpImpressionList":[],"DPPlusStatus":0,"DPLocation":""},{"commentType":"1","dpContent":"就是一个仿古建筑的工地，还在开发中，去的那天很少碰见游客","dpDate":"2015-09-21","dpGuid":"0cd2188e-2126-45a3-b801-052f599b2a8d","dpId":"0cd2188e-2126-45a3-b801-052f599b2a8d","DPItemId":"25794","DPItemName":"水浒好汉城","DPSite":"1","dpTripMode":"0","dpTripPurpose":"","DPUserLevel":"1","dpUserName":"138****0878","highLightColor":"","homeId":"","isElite":"0","isMyComments":"","isPraised":"0","lineAccess":"中评","markColor":"","memberGradeUrl":"","memberHeaderImgUrl":"//pic3.40017.cn/member/face/2015/08/27/17/sHIVcY.png","mobile":"","productPriceDesc":"","servicePoint":"2","zanCount":"0","csReplyList":null,"dpImgUrl":[{"imgUrl":"//pic3.40017.cn/scenery/comment/2015/09/21/06/OxIJjE.jpg","originalImgUrl":"//pic3.40017.cn/scenery/comment/2015/09/21/06/OxIJjE.jpg","smallImgUrl":"//pic3.40017.cn/scenery/comment/2015/09/21/06/OxIJjE_150x150_00.jpg"},{"imgUrl":"//pic3.40017.cn/scenery/comment/2015/09/21/06/0sYPE4.jpg","originalImgUrl":"//pic3.40017.cn/scenery/comment/2015/09/21/06/0sYPE4.jpg","smallImgUrl":"//pic3.40017.cn/scenery/comment/2015/09/21/06/0sYPE4_150x150_00.jpg"},{"imgUrl":"//pic3.40017.cn/scenery/comment/2015/09/21/06/RWXdzq.jpg","originalImgUrl":"//pic3.40017.cn/scenery/comment/2015/09/21/06/RWXdzq.jpg","smallImgUrl":"//pic3.40017.cn/scenery/comment/2015/09/21/06/RWXdzq_150x150_00.jpg"},{"imgUrl":"//pic3.40017.cn/scenery/comment/2015/09/21/06/FA2zUy.jpg","originalImgUrl":"//pic3.40017.cn/scenery/comment/2015/09/21/06/FA2zUy.jpg","smallImgUrl":"//pic3.40017.cn/scenery/comment/2015/09/21/06/FA2zUy_150x150_00.jpg"}],"subList":[],"dpImpressionList":[],"DPPlusStatus":0,"DPLocation":""},{"commentType":"1","dpContent":"取票顺利，景点古建筑特多，雕梁画柱很美观，无购物，有两场情景剧表演，值得一看，了解一下水浒故事。万家姓氏纪念馆把十大元帅，毛主席都贡起来了。有点景点象保罗万象的感觉，庙宇，菩萨也不少，应在突出些水浒特色，如当地客栈小吃等。","dpDate":"2016-10-05","dpGuid":"e2129098-f10a-4eb4-9d0a-12d45266c41d","dpId":"e2129098-f10a-4eb4-9d0a-12d45266c41d","DPItemId":"25794","DPItemName":"水浒好汉城","DPSite":"1","dpTripMode":"0","dpTripPurpose":"","DPUserLevel":"1","dpUserName":"343E227A9F37401A","highLightColor":"","homeId":"","isElite":"0","isMyComments":"","isPraised":"0","lineAccess":"好评","markColor":"","memberGradeUrl":"","memberHeaderImgUrl":"https://pic5.40017.cn/i/ori/1dhWb8X8neg.jpg","mobile":"","productPriceDesc":"","servicePoint":"1","zanCount":"0","csReplyList":null,"dpImgUrl":[],"subList":[],"dpImpressionList":[],"DPPlusStatus":0,"DPLocation":""},{"commentType":"1","dpContent":"景点一般，专门请了导游讲解，导游水平还有待提高，古装情景剧应在门口醒目位置张贴演出时间表，景区在服务上还有待提高。","dpDate":"2016-04-06","dpGuid":"285d7a79-c7ce-4690-a418-9b9f7d37c5d4","dpId":"285d7a79-c7ce-4690-a418-9b9f7d37c5d4","DPItemId":"25794","DPItemName":"水浒好汉城","DPSite":"1","dpTripMode":"0","dpTripPurpose":"","DPUserLevel":"2","dpUserName":"130****2099","highLightColor":"","homeId":"","isElite":"0","isMyComments":"","isPraised":"0","lineAccess":"中评","markColor":"","memberGradeUrl":"","memberHeaderImgUrl":"//pic3.40017.cn/member/face/2015/08/27/17/sHIVcY.png","mobile":"","productPriceDesc":"","servicePoint":"2","zanCount":"0","csReplyList":[{"replyContent":"程程非常感谢您的点评，您反馈的内容程程已经收到，我方会尽快传达至景区，景区方会尽快改进完善的，感谢您的信任与支持，祝您快乐每一程！"}],"dpImgUrl":[],"subList":[],"dpImpressionList":[],"DPPlusStatus":0,"DPLocation":""},{"commentType":"2","dpContent":"这地方在网上订票的可能我是第一个，同程很负责任的打电话来问我是否进去，服务很好。里面是些人造仿古街。正好赶上有领导来视察，看了宋江武校的武术表演。又去城里面听了一段说书的，性价比还行。只是不知道领导不来的话是不是还是这样。总之对菏泽地区的一个县城来说，这个景点还算不错了。","dpDate":"2010-04-27","dpGuid":"t-8dcee5db-6626-4c4a-ae3f-42716cf373ae","dpId":"t-8dcee5db-6626-4c4a-ae3f-42716cf373ae","DPItemId":"25794","DPItemName":"水浒好汉城","DPSite":"2","dpTripMode":"0","dpTripPurpose":"2,","DPUserLevel":"1","dpUserName":"135*****668","highLightColor":"","homeId":"","isElite":"0","isMyComments":"","isPraised":"0","lineAccess":"中评","markColor":"","memberGradeUrl":"","memberHeaderImgUrl":"//pic5.40017.cn/i/ori/PELe6f5TBC.jpg","mobile":"","productPriceDesc":"","servicePoint":"2","zanCount":"0","csReplyList":null,"dpImgUrl":[],"subList":[],"dpImpressionList":[],"DPPlusStatus":0,"DPLocation":""},{"commentType":"1","dpContent":"七夕三天不能网上订票，因为水浒好汉城这三天免费，不用买票，于是一家三口兴冲冲去了，到了之后才发现，门口有人收门票，免费只针对郓城当地人，其他地方的尤其外地游客只能买门票，**网上不能预订了，只能现场买全价！作为郓城出来的人，经常在朋友面前推荐郓城，但是今天是伤心了～真是不配好汉俩字！太不地道了！","dpDate":"2014-08-05","dpGuid":"t-00220f70-e912-4045-8681-fcc2abacea95","dpId":"t-00220f70-e912-4045-8681-fcc2abacea95","DPItemId":"25794","DPItemName":"水浒好汉城","DPSite":"1","dpTripMode":"1","dpTripPurpose":"3,","DPUserLevel":"2","dpUserName":"133*****588","highLightColor":"","homeId":"","isElite":"0","isMyComments":"","isPraised":"0","lineAccess":"中评","markColor":"","memberGradeUrl":"","memberHeaderImgUrl":"//pic5.40017.cn/i/ori/PELe6f5TBC.jpg","mobile":"","productPriceDesc":"","servicePoint":"2","zanCount":"0","csReplyList":null,"dpImgUrl":[],"subList":[],"dpImpressionList":[],"DPPlusStatus":0,"DPLocation":""},{"commentType":"1","dpContent":"第二次去了，总体不错，古色古香，只是一些建筑在修缮、修建，影响游览。","dpDate":"2015-10-06","dpGuid":"e603988c-7313-4acb-819c-9fbd4f51b94d","dpId":"e603988c-7313-4acb-819c-9fbd4f51b94d","DPItemId":"25794","DPItemName":"水浒好汉城","DPSite":"1","dpTripMode":"0","dpTripPurpose":"","DPUserLevel":"1","dpUserName":"135****3718","highLightColor":"","homeId":"","isElite":"0","isMyComments":"","isPraised":"0","lineAccess":"好评","markColor":"","memberGradeUrl":"","memberHeaderImgUrl":"//upload.17u.com/uploadfile/2015/06/11/7/201506110412368819054.jpg","mobile":"","productPriceDesc":"","servicePoint":"1","zanCount":"0","csReplyList":null,"dpImgUrl":[{"imgUrl":"//pic3.40017.cn/scenery/comment/2015/10/06/11/QRICoS.jpg","originalImgUrl":"//pic3.40017.cn/scenery/comment/2015/10/06/11/QRICoS.jpg","smallImgUrl":"//pic3.40017.cn/scenery/comment/2015/10/06/11/QRICoS_150x150_00.jpg"},{"imgUrl":"//pic3.40017.cn/scenery/comment/2015/10/06/11/PEXBoA.jpg","originalImgUrl":"//pic3.40017.cn/scenery/comment/2015/10/06/11/PEXBoA.jpg","smallImgUrl":"//pic3.40017.cn/scenery/comment/2015/10/06/11/PEXBoA_150x150_00.jpg"},{"imgUrl":"//pic3.40017.cn/scenery/comment/2015/10/06/11/16UejN.jpg","originalImgUrl":"//pic3.40017.cn/scenery/comment/2015/10/06/11/16UejN.jpg","smallImgUrl":"//pic3.40017.cn/scenery/comment/2015/10/06/11/16UejN_150x150_00.jpg"},{"imgUrl":"//pic3.40017.cn/scenery/comment/2015/10/06/11/sQYqeM.jpg","originalImgUrl":"//pic3.40017.cn/scenery/comment/2015/10/06/11/sQYqeM.jpg","smallImgUrl":"//pic3.40017.cn/scenery/comment/2015/10/06/11/sQYqeM_150x150_00.jpg"}],"subList":[],"dpImpressionList":[],"DPPlusStatus":0,"DPLocation":""},{"commentType":"1","dpContent":"第二次去了，总体不错，古色古香，只是一些建筑在修缮、修建，影响游览。","dpDate":"2015-10-06","dpGuid":"37168ba2-b8b0-4ce8-8fab-a4f6cf075545","dpId":"37168ba2-b8b0-4ce8-8fab-a4f6cf075545","DPItemId":"25794","DPItemName":"水浒好汉城","DPSite":"1","dpTripMode":"0","dpTripPurpose":"","DPUserLevel":"1","dpUserName":"135****3718","highLightColor":"","homeId":"","isElite":"0","isMyComments":"","isPraised":"0","lineAccess":"好评","markColor":"","memberGradeUrl":"","memberHeaderImgUrl":"//upload.17u.com/uploadfile/2015/06/11/7/201506110412368819054.jpg","mobile":"","productPriceDesc":"","servicePoint":"1","zanCount":"0","csReplyList":null,"dpImgUrl":[{"imgUrl":"//pic3.40017.cn/scenery/comment/2015/10/06/11/XmGeJ6.jpg","originalImgUrl":"//pic3.40017.cn/scenery/comment/2015/10/06/11/XmGeJ6.jpg","smallImgUrl":"//pic3.40017.cn/scenery/comment/2015/10/06/11/XmGeJ6_150x150_00.jpg"},{"imgUrl":"//pic3.40017.cn/scenery/comment/2015/10/06/11/mrMss8.jpg","originalImgUrl":"//pic3.40017.cn/scenery/comment/2015/10/06/11/mrMss8.jpg","smallImgUrl":"//pic3.40017.cn/scenery/comment/2015/10/06/11/mrMss8_150x150_00.jpg"},{"imgUrl":"//pic3.40017.cn/scenery/comment/2015/10/06/11/dGgFwq.jpg","originalImgUrl":"//pic3.40017.cn/scenery/comment/2015/10/06/11/dGgFwq.jpg","smallImgUrl":"//pic3.40017.cn/scenery/comment/2015/10/06/11/dGgFwq_150x150_00.jpg"},{"imgUrl":"//pic3.40017.cn/scenery/comment/2015/10/06/11/cTIBdL.jpg","originalImgUrl":"//pic3.40017.cn/scenery/comment/2015/10/06/11/cTIBdL.jpg","smallImgUrl":"//pic3.40017.cn/scenery/comment/2015/10/06/11/cTIBdL_150x150_00.jpg"}],"subList":[],"dpImpressionList":[],"DPPlusStatus":0,"DPLocation":""},{"commentType":"1","dpContent":"水浒好汉城还是比较好玩的。里面的建筑都是以仿宋朝为主。本以为门票价格不贵，里面不会很大，但 真正走进去，才发现不仅场地大，还有古代的特色表演 如李逵断案，绣球招亲等，很有朝代特性，也很涨知识。景点环境也非常优美，还很有主题性。","dpDate":"2016-07-19","dpGuid":"8e54413c-65d5-4ec8-8d88-fec5cda972cc","dpId":"8e54413c-65d5-4ec8-8d88-fec5cda972cc","DPItemId":"25794","DPItemName":"水浒好汉城","DPSite":"1","dpTripMode":"0","dpTripPurpose":"","DPUserLevel":"1","dpUserName":"15668mimdbh","highLightColor":"","homeId":"","isElite":"0","isMyComments":"","isPraised":"0","lineAccess":"好评","markColor":"","memberGradeUrl":"","memberHeaderImgUrl":"//pic5.40017.cn/i/ori/PXh10ImsIo.jpg","mobile":"","productPriceDesc":"","servicePoint":"1","zanCount":"0","csReplyList":null,"dpImgUrl":[],"subList":[],"dpImpressionList":[],"DPPlusStatus":0,"DPLocation":""},{"commentType":"2","dpContent":"我们是一家三口带着婆婆和妹妹一起去的，刚好是小雨过后，比较静，人也少，感觉比起人多的时候更有古镇的意境，就是有个玄女庙的烧香费用不低，有点被忽悠的感觉。","dpDate":"2013-04-06","dpGuid":"t-220c0949-96c7-47fb-afec-51dd038744db","dpId":"t-220c0949-96c7-47fb-afec-51dd038744db","DPItemId":"25794","DPItemName":"水浒好汉城","DPSite":"2","dpTripMode":"0","dpTripPurpose":"3,","DPUserLevel":"1","dpUserName":"186*****608","highLightColor":"","homeId":"","isElite":"0","isMyComments":"","isPraised":"0","lineAccess":"好评","markColor":"","memberGradeUrl":"","memberHeaderImgUrl":"//pic5.40017.cn/i/ori/PELe6f5TBC.jpg","mobile":"","productPriceDesc":"","servicePoint":"1","zanCount":"0","csReplyList":null,"dpImgUrl":[],"subList":[],"dpImpressionList":[],"DPPlusStatus":0,"DPLocation":""}],"isShowConinsicon":0,"rulesContent":"","dpConinRemark":"","isCanEnter":0,"isCanDianPingBefore":0,"externalUrl":"","serviceScoreAvgList":[{"score":"10","serviceName":"同程服务"},{"score":"10","serviceName":"产品便捷"},{"score":"10","serviceName":"性价比"},{"score":"10","serviceName":"景区体验"}],"dpTagList":[{"tagColor":"","tagId":"1","tagName":"全部(539)","tagNum":"539","tagType":"","tagBorderColor":""},{"tagColor":"","tagId":"6","tagName":"最新(539)","tagNum":"539","tagType":"","tagBorderColor":""},{"tagColor":"","tagId":"2","tagName":"好评(448)","tagNum":"448","tagType":"","tagBorderColor":""},{"tagColor":"","tagId":"3","tagName":"中评(81)","tagNum":"81","tagType":"","tagBorderColor":""},{"tagColor":"","tagId":"4","tagName":"差评(10)","tagNum":"10","tagType":"","tagBorderColor":""},{"tagColor":"","tagId":"5","tagName":"有图(109)","tagNum":"109","tagType":"","tagBorderColor":""},{"tagColor":"","tagId":"15","tagName":"整体不错(37)","tagNum":"37","tagType":"","tagBorderColor":""},{"tagColor":"","tagId":"96","tagName":"设施齐全(22)","tagNum":"22","tagType":"","tagBorderColor":""},{"tagColor":"","tagId":"65","tagName":"环境好(8)","tagNum":"8","tagType":"","tagBorderColor":""},{"tagColor":"","tagId":"317","tagName":"风光好(7)","tagNum":"7","tagType":"","tagBorderColor":""},{"tagColor":"","tagId":"266","tagName":"地方不错(3)","tagNum":"3","tagType":"","tagBorderColor":""},{"tagColor":"","tagId":"111","tagName":"景色壮观(1)","tagNum":"1","tagType":"","tagBorderColor":""},{"tagColor":"","tagId":"39","tagName":"门票贵(7)","tagNum":"7","tagType":"","tagBorderColor":""},{"tagColor":"","tagId":"95","tagName":"设施旧(1)","tagNum":"1","tagType":"","tagBorderColor":""}],"dianpingInfo":[]}