{"isSuccess":1,"errorMsg":"","isCache":0,"pageInfo":{"page":1,"pageSize":10,"totalPage":54,"totalCount":539},"degreeLevel":"98","starNum":"4.2","totalNum":"539","goodNum":448,"midNum":81,"badNum":10,"hasImgNum":109,"dpList":[{"commentType":"1","dpContent":"景点小了一点，但距离近，票价低，所以周边的朋友还是可以过去一逛的，离的太远的不推荐。停车场不收费很赞，老人学生可以现场买票和同程票价一样，里面买东西的不多，最好自带点水和吃的。","dpDate":"2016-08-21","dpGuid":"de3c68c1-d85e-43dd-a9cc-dd7f54bae2e9","dpId":"de3c68c1-d85e-43dd-a9cc-dd7f54bae2e9","DPItemId":"25794","DPItemName":"水浒好汉城","DPSite":"1","dpTripMode":"0","dpTripPurpose":"","DPUserLevel":"1","dpUserName":"742554DBC6DE7A2F","highLightColor":"","homeId":"","isElite":"0","isMyComments":"","isPraised":"0","lineAccess":"中评","markColor":"","memberGradeUrl":"","memberHeaderImgUrl":"https://pic5.40017.cn/i/ori/1difaMet93G.jpg","mobile":"","productPriceDesc":"","servicePoint":"2","zanCount":"5","csReplyList":null,"dpImgUrl":[{"imgUrl":"//pic4.40017.cn/scenery/comment/2016/08/21/07/PHlDM7.jpg","originalImgUrl":"//pic4.40017.cn/scenery/comment/2016/08/21/07/PHlDM7.jpg","smallImgUrl":"//pic4.40017.cn/scenery/comment/2016/08/21/07/PHlDM7_150x150_00.jpg"},{"imgUrl":"//pic4.40017.cn/scenery/comment/2016/08/21/07/he5rLl.jpg","originalImgUrl":"//pic4.40017.cn/scenery/comment/2016/08/21/07/he5rLl.jpg","smallImgUrl":"//pic4.40017.cn/scenery/comment/2016/08/21/07/he5rLl_150x150_00.jpg"},{"imgUrl":"//pic4.40017.cn/scenery/comment/2016/08/21/07/6441wK.jpg","originalImgUrl":"//pic4.40017.cn/scenery/comment/2016/08/21/07/6441wK.jpg","smallImgUrl":"//pic4.40017.cn/scenery/comment/2016/08/21/07/6441wK_150x150_00.jpg"},{"imgUrl":"//pic4.40017.cn/scenery/comment/2016/08/21/07/IlIoXW.jpg","originalImgUrl":"//pic4.40017.cn/scenery/comment/2016/08/21/07/IlIoXW.jpg","smallImgUrl":"//pic4.40017.cn/scenery/comment/2016/08/21/07/IlIoXW_150x150_00.jpg"},{"imgUrl":"//pic4.40017.cn/scenery/comment/2016/08/21/07/3FjfpC.jpg","originalImgUrl":"//pic4.40017.cn/scenery/comment/2016/08/21/07/3FjfpC.jpg","smallImgUrl":"//pic4.40017.cn/scenery/comment/2016/08/21/07/3FjfpC_150x150_00.jpg"},{"imgUrl":"//pic4.40017.cn/scenery/comment/2016/08/21/07/BPBq9y.jpg","originalImgUrl":"//pic4.40017.cn/scenery/comment/2016/08/21/07/BPBq9y.jpg","smallImgUrl":"//pic4.40017.cn/scenery/comment/2016/08/21/07/BPBq9y_150x150_00.jpg"},{"imgUrl":"//pic4.40017.cn/scenery/comment/2016/08/21/07/02Zi0G.jpg","originalImgUrl":"//pic4.40017.cn/scenery/comment/2016/08/21/07/02Zi0G.jpg","smallImgUrl":"//pic4.40017.cn/scenery/comment/2016/08/21/07/02Zi0G_150x150_00.jpg"},{"imgUrl":"//pic4.40017.cn/scenery/comment/2016/08/21/07/riBkzK.jpg","originalImgUrl":"//pic4.40017.cn/scenery/comment/2016/08/21/07/riBkzK.jpg","smallImgUrl":"//pic4.40017.cn/scenery/comment/2016/08/21/07/riBkzK_150x150_00.jpg"},{"imgUrl":"//pic4.40017.cn/scenery/comment/2016/08/21/07/vijBy6.jpg","originalImgUrl":"//pic4.40017.cn/scenery/comment/2016/08/21/07/vijBy6.jpg","smallImgUrl":"//pic4.40017.cn/scenery/comment/2016/08/21/07/vijBy6_150x150_00.jpg"}],"subList":[],"dpImpressionList":[],"DPPlusStatus":0,"DPLocation":""},{"commentType":"1","dpContent":"去的路还不错，郓城南下高速。景区尚在扩建，灰大很大。已建部分三两道街，规模不大。各院落多为重建，以水浒各著名人物及其故事为主要内容。其实既然是郓城---宋江的老家，不如以宋生平为主线，自然贯穿其它。布展不太专业，重建精美程度尚好。表演太随意，比较好的、比较喜欢的算是晁家庄。人不多，停车免费，门票五十略贵。","dpDate":"2017-04-30","dpGuid":"55b90ba3-f7f4-4628-b0ec-cf2d66108855","dpId":"55b90ba3-f7f4-4628-b0ec-cf2d66108855","DPItemId":"25794","DPItemName":"水浒好汉城","DPSite":"1","dpTripMode":"0","dpTripPurpose":"","DPUserLevel":"1","dpUserName":"jljgf","highLightColor":"","homeId":"","isElite":"0","isMyComments":"","isPraised":"0","lineAccess":"中评","markColor":"","memberGradeUrl":"","memberHeaderImgUrl":"//pic3.40017.cn/member/face/2016/09/17/12/26TwZs.jpg","mobile":"","productPriceDesc":"","servicePoint":"2","zanCount":"1","csReplyList":[{"replyContent":"程程感谢您的点评，景区一直在努力，从未停止过，我们一起携手创造更美好游玩品质，欢迎您继续监督哟。"}],"dpImgUrl":[{"imgUrl":"//pic5.40017.cn/02/000/bb/92/rBLkCFkFyjyAF9aMAAgAAPrtMpc642.jpg","originalImgUrl":"//pic5.40017.cn/02/000/bb/92/rBLkCFkFyjyAF9aMAAgAAPrtMpc642.jpg","smallImgUrl":"//pic5.40017.cn/02/000/bb/92/rBLkCFkFyjyAF9aMAAgAAPrtMpc642_150x150_00.jpg"},{"imgUrl":"//pic5.40017.cn/01/000/bb/b9/rBLkBlkFyj2AcSGpAAgAACxycr8109.jpg","originalImgUrl":"//pic5.40017.cn/01/000/bb/b9/rBLkBlkFyj2AcSGpAAgAACxycr8109.jpg","smallImgUrl":"//pic5.40017.cn/01/000/bb/b9/rBLkBlkFyj2AcSGpAAgAACxycr8109_150x150_00.jpg"},{"imgUrl":"//pic5.40017.cn/01/000/bb/44/rBANC1kFyj6AYoCpAAgAAAUpvWY407.jpg","originalImgUrl":"//pic5.40017.cn/01/000/bb/44/rBANC1kFyj6AYoCpAAgAAAUpvWY407.jpg","smallImgUrl":"//pic5.40017.cn/01/000/bb/44/rBANC1kFyj6AYoCpAAgAAAUpvWY407_150x150_00.jpg"},{"imgUrl":"//pic5.40017.cn/02/001/bb/92/rBLkCVkFykCAHO1ZAAQAAP8WMC4225.jpg","originalImgUrl":"//pic5.40017.cn/02/001/bb/92/rBLkCVkFykCAHO1ZAAQAAP8WMC4225.jpg","smallImgUrl":"//pic5.40017.cn/02/001/bb/92/rBLkCVkFykCAHO1ZAAQAAP8WMC4225_150x150_00.jpg"},{"imgUrl":"//pic5.40017.cn/01/000/bb/b9/rBLkBVkFykGAF70oAAIAAOmpDgg664.jpg","originalImgUrl":"//pic5.40017.cn/01/000/bb/b9/rBLkBVkFykGAF70oAAIAAOmpDgg664.jpg","smallImgUrl":"//pic5.40017.cn/01/000/bb/b9/rBLkBVkFykGAF70oAAIAAOmpDgg664_150x150_00.jpg"},{"imgUrl":"//pic5.40017.cn/01/000/bb/b9/rBLkBVkFykGATLX8AAgAALxjtFo417.jpg","originalImgUrl":"//pic5.40017.cn/01/000/bb/b9/rBLkBVkFykGATLX8AAgAALxjtFo417.jpg","smallImgUrl":"//pic5.40017.cn/01/000/bb/b9/rBLkBVkFykGATLX8AAgAALxjtFo417_150x150_00.jpg"},{"imgUrl":"//pic5.40017.cn/02/001/bb/92/rBLkCFkFykKAYlKjAAgAAJwOLU4022.jpg","originalImgUrl":"//pic5.40017.cn/02/001/bb/92/rBLkCFkFykKAYlKjAAgAAJwOLU4022.jpg","smallImgUrl":"//pic5.40017.cn/02/001/bb/92/rBLkCFkFykKAYlKjAAgAAJwOLU4022_150x150_00.jpg"},{"imgUrl":"//pic5.40017.cn/02/001/bb/92/rBLkCFkFykOAJN0uAAQAAIlqP2g065.jpg","originalImgUrl":"//pic5.40017.cn/02/001/bb/92/rBLkCFkFykOAJN0uAAQAAIlqP2g065.jpg","smallImgUrl":"//pic5.40017.cn/02/001/bb/92/rBLkCFkFykOAJN0uAAQAAIlqP2g065_150x150_00.jpg"},{"imgUrl":"//pic5.40017.cn/02/000/bb/92/rBLkCVkFykSAfBSWAAgAAGaZD_g673.jpg","originalImgUrl":"//pic5.40017.cn/02/000/bb/92/rBLkCVkFykSAfBSWAAgAAGaZD_g673.jpg","smallImgUrl":"//pic5.40017.cn/02/000/bb/92/rBLkCVkFykSAfBSWAAgAAGaZD_g673_150x150_00.jpg"},{"imgUrl":"//pic5.40017.cn/01/001/bb/44/rBANC1kFykSASqqKAAgAADdAGe8497.jpg","originalImgUrl":"//pic5.40017.cn/01/001/bb/44/rBANC1kFykSASqqKAAgAADdAGe8497.jpg","smallImgUrl":"//pic5.40017.cn/01/001/bb/44/rBANC1kFykSASqqKAAgAADdAGe8497_150x150_00.jpg"}],"subList":[],"dpImpressionList":[],"DPPlusStatus":0,"DPLocation":""},{"commentType":"1","dpContent":"不错的地方 很有地方气息 工作人员服务很热情 值得一游 不过出发前相机一定要冲好电啊 很多地方值得拍照留念","dpDate":"2015-11-08","dpGuid":"b55c2e80-2a74-4324-8d40-22a4236109a0","dpId":"b55c2e80-2a74-4324-8d40-22a4236109a0","DPItemId":"25794","DPItemName":"水浒好汉城","DPSite":"1","dpTripMode":"0","dpTripPurpose":"","DPUserLevel":"1","dpUserName":"152****9007","highLightColor":"","homeId":"","isElite":"0","isMyComments":"","isPraised":"0","lineAccess":"好评","markColor":"","memberGradeUrl":"","memberHeaderImgUrl":"//pic3.40017.cn/member/face/2015/08/27/17/sHIVcY.png","mobile":"","productPriceDesc":"","servicePoint":"1","zanCount":"3","csReplyList":null,"dpImgUrl":[{"imgUrl":"//pic3.40017.cn/scenery/comment/2015/11/08/08/QY3IkJ.jpg","originalImgUrl":"//pic3.40017.cn/scenery/comment/2015/11/08/08/QY3IkJ.jpg","smallImgUrl":"//pic3.40017.cn/scenery/comment/2015/11/08/08/QY3IkJ_150x150_00.jpg"},{"imgUrl":"//pic3.40017.cn/scenery/comment/2015/11/08/08/vfIet2.jpg","originalImgUrl":"//pic3.40017.cn/scenery/comment/2015/11/08/08/vfIet2.jpg","smallImgUrl":"//pic3.40017.cn/scenery/comment/2015/11/08/08/vfIet2_150x150_00.jpg"},{"imgUrl":"//pic3.40017.cn/scenery/comment/2015/11/08/08/Pd9V0B.jpg","originalImgUrl":"//pic3.40017.cn/scenery/comment/2015/11/08/08/Pd9V0B.jpg","smallImgUrl":"//pic3.40017.cn/scenery/comment/2015/11/08/08/Pd9V0B_150x150_00.jpg"},{"imgUrl":"//pic3.40017.cn/scenery/comment/2015/11/08/08/Ws1qcU.jpg","originalImgUrl":"//pic3.40017.cn/scenery/comment/2015/11/08/08/Ws1qcU.jpg","smallImgUrl":"//pic3.40017.cn/scenery/comment/2015/11/08/08/Ws1qcU_150x150_00.jpg"},{"imgUrl":"//pic3.40017.cn/scenery/comment/2015/11/08/08/xkOIy6.jpg","originalImgUrl":"//pic3.40017.cn/scenery/comment/2015/11/08/08/xkOIy6.jpg","smallImgUrl":"//pic3.40017.cn/scenery/comment/2015/11/08/08/xkOIy6_150x150_00.jpg"},{"imgUrl":"//pic3.40017.cn/scenery/comment/2015/11/08/08/eRZZFv.jpg","originalImgUrl":"//pic3.40017.cn/scenery/comment/2015/11/08/08/eRZZFv.jpg","smallImgUrl":"//pic3.40017.cn/scenery/comment/2015/11/08/08/eRZZFv_150x150_00.jpg"}],"subList":[],"dpImpressionList":[],"DPPlusStatus":0,"DPLocation":""},{"commentType":"1","dpContent":"首先服务态度很好，景区很干净，人不多，所以比较安静，也比较悠闲，不紧不慢的随意玩，两场演出都不错，并且是免费的，景区内没有其他收费项目，卖的东西和市场价一样，总之很满意，孩子玩的也很高兴……","dpDate":"2015-10-05","dpGuid":"2e67c80c-69e8-435e-a7c5-d975261a9fe4","dpId":"2e67c80c-69e8-435e-a7c5-d975261a9fe4","DPItemId":"25794","DPItemName":"水浒好汉城","DPSite":"1","dpTripMode":"0","dpTripPurpose":"","DPUserLevel":"1","dpUserName":"188****8030","highLightColor":"","homeId":"","isElite":"0","isMyComments":"","isPraised":"0","lineAccess":"好评","markColor":"","memberGradeUrl":"","memberHeaderImgUrl":"//pic3.40017.cn/member/face/2015/08/27/17/sHIVcY.png","mobile":"","productPriceDesc":"","servicePoint":"1","zanCount":"3","csReplyList":null,"dpImgUrl":[{"imgUrl":"//pic3.40017.cn/scenery/comment/2015/10/05/06/zIXn6M.jpg","originalImgUrl":"//pic3.40017.cn/scenery/comment/2015/10/05/06/zIXn6M.jpg","smallImgUrl":"//pic3.40017.cn/scenery/comment/2015/10/05/06/zIXn6M_150x150_00.jpg"},{"imgUrl":"//pic3.40017.cn/scenery/comment/2015/10/05/06/TPB13P.jpg","originalImgUrl":"//pic3.40017.cn/scenery/comment/2015/10/05/06/TPB13P.jpg","smallImgUrl":"//pic3.40017.cn/scenery/comment/2015/10/05/06/TPB13P_150x150_00.jpg"},{"imgUrl":"//pic3.40017.cn/scenery/comment/2015/10/05/06/HkiF1D.jpg","originalImgUrl":"//pic3.40017.cn/scenery/comment/2015/10/05/06/HkiF1D.jpg","smallImgUrl":"//pic3.40017.cn/scenery/comment/2015/10/05/06/HkiF1D_150x150_00.jpg"},{"imgUrl":"//pic3.40017.cn/scenery/comment/2015/10/05/06/gqQyNg.jpg","originalImgUrl":"//pic3.40017.cn/scenery/comment/2015/10/05/06/gqQyNg.jpg","smallImgUrl":"//pic3.40017.cn/scenery/comment/2015/10/05/06/gqQyNg_150x150_00.jpg"},{"imgUrl":"//pic3.40017.cn/scenery/comment/2015/10/05/06/UmSVLg.jpg","originalImgUrl":"//pic3.40017.cn/scenery/comment/2015/10/05/06/UmSVLg.jpg","smallImgUrl":"//pic3.40017.cn/scenery/comment/2015/10/05/06/UmSVLg_150x150_00.jpg"},{"imgUrl":"//pic3.40017.cn/scenery/comment/2015/10/05/06/8Syyxh.jpg","originalImgUrl":"//pic3.40017.cn/scenery/comment/2015/10/05/06/8Syyxh.jpg","smallImgUrl":"//pic3.40017.cn/scenery/comment/2015/10/05/06/8Syyxh_150x150_00.jpg"}],"subList":[],"dpImpressionList":[],"DPPlusStatus":0,"DPLocation":""},{"commentType":"1","dpContent":"景区还在扩建，可能是天冷了显得有些萧条。里面的古建筑很不错很有特色，晁家庄很有看点，总体来说还不错，适合老人孩子一起去玩，最好是春秋天去","dpDate":"2017-12-27","dpGuid":"607993b7-716f-464c-b163-78f0add62439","dpId":"607993b7-716f-464c-b163-78f0add62439","DPItemId":"25794","DPItemName":"水浒好汉城","DPSite":"1","dpTripMode":"0","dpTripPurpose":"","DPUserLevel":"1","dpUserName":"同程会员_9A408602D69","highLightColor":"","homeId":"","isElite":"0","isMyComments":"","isPraised":"0","lineAccess":"好评","markColor":"","memberGradeUrl":"","memberHeaderImgUrl":"https://pic5.40017.cn/i/ori/1dhWb8X8neg.jpg","mobile":"","productPriceDesc":"","servicePoint":"1","zanCount":"0","csReplyList":null,"dpImgUrl":[{"imgUrl":"//pic5.40017.cn/01/001/4a/b5/rBLkBVpDctiAOt_DAAPQxgCdEB0571.jpg","originalImgUrl":"//pic5.40017.cn/01/001/4a/b5/rBLkBVpDctiAOt_DAAPQxgCdEB0571.jpg","smallImgUrl":"//pic5.40017.cn/01/001/4a/b5/rBLkBVpDctiAOt_DAAPQxgCdEB0571_150x150_00.jpg"},{"imgUrl":"//pic5.40017.cn/02/001/4a/a9/rBLkCFpDctmANqu9AAJ5GerdLpc235.jpg","originalImgUrl":"//pic5.40017.cn/02/001/4a/a9/rBLkCFpDctmANqu9AAJ5GerdLpc235.jpg","smallImgUrl":"//pic5.40017.cn/02/001/4a/a9/rBLkCFpDctmANqu9AAJ5GerdLpc235_150x150_00.jpg"},{"imgUrl":"//pic5.40017.cn/01/000/4a/41/rBANC1pDctqAGN2HAALTd3JeGv4655.jpg","originalImgUrl":"//pic5.40017.cn/01/000/4a/41/rBANC1pDctqAGN2HAALTd3JeGv4655.jpg","smallImgUrl":"//pic5.40017.cn/01/000/4a/41/rBANC1pDctqAGN2HAALTd3JeGv4655_150x150_00.jpg"},{"imgUrl":"//pic5.40017.cn/01/000/4a/41/rBANC1pDctuAdv3SAAPYug6pzfE121.jpg","originalImgUrl":"//pic5.40017.cn/01/000/4a/41/rBANC1pDctuAdv3SAAPYug6pzfE121.jpg","smallImgUrl":"//pic5.40017.cn/01/000/4a/41/rBANC1pDctuAdv3SAAPYug6pzfE121_150x150_00.jpg"},{"imgUrl":"//pic5.40017.cn/01/001/4a/41/rBANC1pDctyAcCeBAAOecBtPWOM255.jpg","originalImgUrl":"//pic5.40017.cn/01/001/4a/41/rBANC1pDctyAcCeBAAOecBtPWOM255.jpg","smallImgUrl":"//pic5.40017.cn/01/001/4a/41/rBANC1pDctyAcCeBAAOecBtPWOM255_150x150_00.jpg"}],"subList":[],"dpImpressionList":[],"DPPlusStatus":0,"DPLocation":""},{"commentType":"1","dpContent":"带着老人和孩子一起去的，整体环境还不错，和开封的包公祠差不多，老人比较满意。不足的地方就是从梁山去郓城的道路在修路，封闭了，中间返回改走高速后，下路又遇到修路修桥。耽搁了近两个小时，本来计划三点半左右到景点，结果到了五点多才到，景点里人已经很少了，也没有什么表演了。","dpDate":"2017-05-03","dpGuid":"68509ba9-f532-4a7d-9994-2f3be6f385ab","dpId":"68509ba9-f532-4a7d-9994-2f3be6f385ab","DPItemId":"25794","DPItemName":"水浒好汉城","DPSite":"1","dpTripMode":"0","dpTripPurpose":"","DPUserLevel":"3","dpUserName":"Aaron Gao","highLightColor":"","homeId":"","isElite":"0","isMyComments":"","isPraised":"0","lineAccess":"好评","markColor":"","memberGradeUrl":"","memberHeaderImgUrl":"//pic3.40017.cn/member/face/2016/08/12/00/4oHfT1.jpg","mobile":"","productPriceDesc":"","servicePoint":"1","zanCount":"0","csReplyList":null,"dpImgUrl":[{"imgUrl":"//pic5.40017.cn/01/000/ca/64/rBLkBVkJlROAJ766AAgAAOVRMH8616.jpg","originalImgUrl":"//pic5.40017.cn/01/000/ca/64/rBLkBVkJlROAJ766AAgAAOVRMH8616.jpg","smallImgUrl":"//pic5.40017.cn/01/000/ca/64/rBLkBVkJlROAJ766AAgAAOVRMH8616_150x150_00.jpg"},{"imgUrl":"//pic5.40017.cn/02/000/ca/3d/rBANDFkJlRSAMMmZAAgAADfBA6w040.jpg","originalImgUrl":"//pic5.40017.cn/02/000/ca/3d/rBANDFkJlRSAMMmZAAgAADfBA6w040.jpg","smallImgUrl":"//pic5.40017.cn/02/000/ca/3d/rBANDFkJlRSAMMmZAAgAADfBA6w040_150x150_00.jpg"},{"imgUrl":"//pic5.40017.cn/01/001/ca/64/rBLkBlkJlRaAcyoDAAgAACRS478078.jpg","originalImgUrl":"//pic5.40017.cn/01/001/ca/64/rBLkBlkJlRaAcyoDAAgAACRS478078.jpg","smallImgUrl":"//pic5.40017.cn/01/001/ca/64/rBLkBlkJlRaAcyoDAAgAACRS478078_150x150_00.jpg"},{"imgUrl":"//pic5.40017.cn/02/000/ca/3d/rBANDFkJlReAaXgXAAQAAA9sHtI046.jpg","originalImgUrl":"//pic5.40017.cn/02/000/ca/3d/rBANDFkJlReAaXgXAAQAAA9sHtI046.jpg","smallImgUrl":"//pic5.40017.cn/02/000/ca/3d/rBANDFkJlReAaXgXAAQAAA9sHtI046_150x150_00.jpg"},{"imgUrl":"//pic5.40017.cn/01/001/ca/64/rBLkBVkJlRmAV49OAAgAAGkuvI8033.jpg","originalImgUrl":"//pic5.40017.cn/01/001/ca/64/rBLkBVkJlRmAV49OAAgAAGkuvI8033.jpg","smallImgUrl":"//pic5.40017.cn/01/001/ca/64/rBLkBVkJlRmAV49OAAgAAGkuvI8033_150x150_00.jpg"},{"imgUrl":"//pic5.40017.cn/01/001/ca/64/rBLkBlkJlRmATUajAAgAAC3EG3I428.jpg","originalImgUrl":"//pic5.40017.cn/01/001/ca/64/rBLkBlkJlRmATUajAAgAAC3EG3I428.jpg","smallImgUrl":"//pic5.40017.cn/01/001/ca/64/rBLkBlkJlRmATUajAAgAAC3EG3I428_150x150_00.jpg"}],"subList":[],"dpImpressionList":[],"DPPlusStatus":0,"DPLocation":""},{"commentType":"1","dpContent":"非常方便，不用取票，直接刷二维码进入。景区还可以吧，比水浒影视城好看，有一点不太好，就是演出的时候现场秩序维持的不好，观众都进入现场了，影响了演员演出和观众观看。","dpDate":"2018-04-07","dpGuid":"2814d96e-67bf-4f1a-a6e7-79a436ded525","dpId":"2814d96e-67bf-4f1a-a6e7-79a436ded525","DPItemId":"25794","DPItemName":"水浒好汉城","DPSite":"1","dpTripMode":"0","dpTripPurpose":"","DPUserLevel":"1","dpUserName":"峰会路转","highLightColor":"","homeId":"","isElite":"0","isMyComments":"","isPraised":"0","lineAccess":"好评","markColor":"","memberGradeUrl":"","memberHeaderImgUrl":"https://pic5.40017.cn/i/ori/1dhWb8X8neg.jpg","mobile":"","productPriceDesc":"","servicePoint":"1","zanCount":"3","csReplyList":[{"replyContent":"您好，感谢您的评价。我们安排工作人员注意演出现场秩序的维持，尽最大努力给游客舒适满意的演出效果，让游客高兴而来，满意而归。水浒好汉城随时欢迎您。"}],"dpImgUrl":[{"imgUrl":"//pic5.40017.cn/01/000/93/d4/rBANC1rIKCCAZL3pAAKJ11qFwJQ140.jpg","originalImgUrl":"//pic5.40017.cn/01/000/93/d4/rBANC1rIKCCAZL3pAAKJ11qFwJQ140.jpg","smallImgUrl":"//pic5.40017.cn/01/000/93/d4/rBANC1rIKCCAZL3pAAKJ11qFwJQ140_150x150_00.jpg"},{"imgUrl":"//pic5.40017.cn/02/001/94/50/rBLkCVrIKCGAMWM0AAJpvnZhklA323.jpg","originalImgUrl":"//pic5.40017.cn/02/001/94/50/rBLkCVrIKCGAMWM0AAJpvnZhklA323.jpg","smallImgUrl":"//pic5.40017.cn/02/001/94/50/rBLkCVrIKCGAMWM0AAJpvnZhklA323_150x150_00.jpg"},{"imgUrl":"//pic5.40017.cn/01/000/94/49/rBLkBVrIKCGAIdcQAAKHcVbzWu4237.jpg","originalImgUrl":"//pic5.40017.cn/01/000/94/49/rBLkBVrIKCGAIdcQAAKHcVbzWu4237.jpg","smallImgUrl":"//pic5.40017.cn/01/000/94/49/rBLkBVrIKCGAIdcQAAKHcVbzWu4237_150x150_00.jpg"},{"imgUrl":"//pic5.40017.cn/01/001/94/49/rBLkBlrIKCKASZTEAAJ2_dZa1I0883.jpg","originalImgUrl":"//pic5.40017.cn/01/001/94/49/rBLkBlrIKCKASZTEAAJ2_dZa1I0883.jpg","smallImgUrl":"//pic5.40017.cn/01/001/94/49/rBLkBlrIKCKASZTEAAJ2_dZa1I0883_150x150_00.jpg"},{"imgUrl":"//pic5.40017.cn/02/000/94/50/rBLkCFrIKCOAHIZtAAKGv2wJmk8391.jpg","originalImgUrl":"//pic5.40017.cn/02/000/94/50/rBLkCFrIKCOAHIZtAAKGv2wJmk8391.jpg","smallImgUrl":"//pic5.40017.cn/02/000/94/50/rBLkCFrIKCOAHIZtAAKGv2wJmk8391_150x150_00.jpg"},{"imgUrl":"//pic5.40017.cn/02/000/93/c5/rBANDFrIKCOAM0CuAAJ0QfiDKME088.jpg","originalImgUrl":"//pic5.40017.cn/02/000/93/c5/rBANDFrIKCOAM0CuAAJ0QfiDKME088.jpg","smallImgUrl":"//pic5.40017.cn/02/000/93/c5/rBANDFrIKCOAM0CuAAJ0QfiDKME088_150x150_00.jpg"},{"imgUrl":"//pic5.40017.cn/01/000/94/49/rBLkBlrIKCSAdiCMAAMu7nDZN0U750.jpg","originalImgUrl":"//pic5.40017.cn/01/000/94/49/rBLkBlrIKCSAdiCMAAMu7nDZN0U750.jpg","smallImgUrl":"//pic5.40017.cn/01/000/94/49/rBLkBlrIKCSAdiCMAAMu7nDZN0U750_150x150_00.jpg"},{"imgUrl":"//pic5.40017.cn/02/000/94/50/rBLkCVrIKCSAQ6EwAALbHrrvGYU938.jpg","originalImgUrl":"//pic5.40017.cn/02/000/94/50/rBLkCVrIKCSAQ6EwAALbHrrvGYU938.jpg","smallImgUrl":"//pic5.40017.cn/02/000/94/50/rBLkCVrIKCSAQ6EwAALbHrrvGYU938_150x150_00.jpg"},{"imgUrl":"//pic5.40017.cn/02/001/94/50/rBLkCFrIKCWAQvx0AANmYzb8Ju4483.jpg","originalImgUrl":"//pic5.40017.cn/02/001/94/50/rBLkCFrIKCWAQvx0AANmYzb8Ju4483.jpg","smallImgUrl":"//pic5.40017.cn/02/001/94/50/rBLkCFrIKCWAQvx0AANmYzb8Ju4483_150x150_00.jpg"},{"imgUrl":"//pic5.40017.cn/01/000/94/49/rBLkBlrIKCaAdTTUAAM7n8S17_M573.jpg","originalImgUrl":"//pic5.40017.cn/01/000/94/49/rBLkBlrIKCaAdTTUAAM7n8S17_M573.jpg","smallImgUrl":"//pic5.40017.cn/01/000/94/49/rBLkBlrIKCaAdTTUAAM7n8S17_M573_150x150_00.jpg"}],"subList":[],"dpImpressionList":[],"DPPlusStatus":0,"DPLocation":""},{"commentType":"1","dpContent":"值得一去，就是好多演出错过了，风景还不错，里面的小吃和玩具偏贵，成人票60，学生票半价，1米4以下免票还很不错！总之水浒文化还是比较浓厚！","dpDate":"2019-05-03","dpGuid":"947382c8-5b63-44fd-b289-ba35e2b38d0a","dpId":"947382c8-5b63-44fd-b289-ba35e2b38d0a","DPItemId":"25794","DPItemName":"水浒好汉城","DPSite":"1","dpTripMode":"0","dpTripPurpose":"","DPUserLevel":"1","dpUserName":"爱逗蛐蛐","highLightColor":"","homeId":"","isElite":"0","isMyComments":"","isPraised":"0","lineAccess":"好评","markColor":"","memberGradeUrl":"","memberHeaderImgUrl":"https://pic5.40017.cn/i/ori/1dhW3XOpwZ2.jpg","mobile":"","productPriceDesc":"","servicePoint":"1","zanCount":"2","csReplyList":[{"replyContent":"感谢您的评价。水浒一百单八将七十二名在郓城，郓城是好汉之乡，水浒好汉城景区是水浒故里之一——水浒英雄宋江的老家，有许多水浒故事发生在这。景区特色演出有《李员外招婿》《智取生辰冈》《李逵坐衙》《状元大刀》等，欢迎您下次游览水浒好汉城景区。"}],"dpImgUrl":[{"imgUrl":"//pic5.40017.cn/03/000/b9/d8/rB5oQFzLjK2AVk3gAARmW5Ifrkw527.jpg","originalImgUrl":"//pic5.40017.cn/03/000/b9/d8/rB5oQFzLjK2AVk3gAARmW5Ifrkw527.jpg","smallImgUrl":"//pic5.40017.cn/03/000/b9/d8/rB5oQFzLjK2AVk3gAARmW5Ifrkw527_150x150_00.jpg"},{"imgUrl":"//pic5.40017.cn/03/000/b9/da/rB5oQFzLjK-AF-DGAAVCng9H0hQ319.jpg","originalImgUrl":"//pic5.40017.cn/03/000/b9/da/rB5oQFzLjK-AF-DGAAVCng9H0hQ319.jpg","smallImgUrl":"//pic5.40017.cn/03/000/b9/da/rB5oQFzLjK-AF-DGAAVCng9H0hQ319_150x150_00.jpg"},{"imgUrl":"//pic5.40017.cn/03/000/b9/db/rB5oQFzLjLCAKGKqAAO5vRLEHBk645.jpg","originalImgUrl":"//pic5.40017.cn/03/000/b9/db/rB5oQFzLjLCAKGKqAAO5vRLEHBk645.jpg","smallImgUrl":"//pic5.40017.cn/03/000/b9/db/rB5oQFzLjLCAKGKqAAO5vRLEHBk645_150x150_00.jpg"},{"imgUrl":"//pic5.40017.cn/03/000/4a/bc/rBANB1zLjLKAbZYkAARed_3XBG8309.jpg","originalImgUrl":"//pic5.40017.cn/03/000/4a/bc/rBANB1zLjLKAbZYkAARed_3XBG8309.jpg","smallImgUrl":"//pic5.40017.cn/03/000/4a/bc/rBANB1zLjLKAbZYkAARed_3XBG8309_150x150_00.jpg"},{"imgUrl":"//pic5.40017.cn/03/000/b9/de/rB5oQFzLjLOAcbkCAARXRdXcXlI094.jpg","originalImgUrl":"//pic5.40017.cn/03/000/b9/de/rB5oQFzLjLOAcbkCAARXRdXcXlI094.jpg","smallImgUrl":"//pic5.40017.cn/03/000/b9/de/rB5oQFzLjLOAcbkCAARXRdXcXlI094_150x150_00.jpg"},{"imgUrl":"//pic5.40017.cn/03/000/b9/df/rB5oQFzLjLSALKW0AAQtVO67M-8993.jpg","originalImgUrl":"//pic5.40017.cn/03/000/b9/df/rB5oQFzLjLSALKW0AAQtVO67M-8993.jpg","smallImgUrl":"//pic5.40017.cn/03/000/b9/df/rB5oQFzLjLSALKW0AAQtVO67M-8993_150x150_00.jpg"},{"imgUrl":"//pic5.40017.cn/03/000/b9/e1/rB5oQFzLjLaANzimAARHkw3x55Y845.jpg","originalImgUrl":"//pic5.40017.cn/03/000/b9/e1/rB5oQFzLjLaANzimAARHkw3x55Y845.jpg","smallImgUrl":"//pic5.40017.cn/03/000/b9/e1/rB5oQFzLjLaANzimAARHkw3x55Y845_150x150_00.jpg"},{"imgUrl":"//pic5.40017.cn/03/000/b9/e3/rB5oQFzLjLiAMiU0AAMbpCKiUPw699.jpg","originalImgUrl":"//pic5.40017.cn/03/000/b9/e3/rB5oQFzLjLiAMiU0AAMbpCKiUPw699.jpg","smallImgUrl":"//pic5.40017.cn/03/000/b9/e3/rB5oQFzLjLiAMiU0AAMbpCKiUPw699_150x150_00.jpg"},{"imgUrl":"//pic5.40017.cn/03/000/4a/c4/rBANB1zLjLqAAs3UAALj6m50eg4356.jpg","originalImgUrl":"//pic5.40017.cn/03/000/4a/c4/rBANB1zLjLqAAs3UAALj6m50eg4356.jpg","smallImgUrl":"//pic5.40017.cn/03/000/4a/c4/rBANB1zLjLqAAs3UAALj6m50eg4356_150x150_00.jpg"}],"subList":[],"dpImpressionList":[],"DPPlusStatus":3,"DPLocation":""},{"commentType":"1","dpContent":"比想象的好，取票也很方便。能看得出来，当初的设计和建造都很有心思，游客游览也很有参与感，问题是景点的管理太差劲了，卫生脏乱差，很多地方损坏也没有及时维修，这么下去，可是维持不了几年的，白瞎了这么好的地方。","dpDate":"2016-02-15","dpGuid":"c2be47ab-27b7-408f-8e9c-3c1cbe8122e4","dpId":"c2be47ab-27b7-408f-8e9c-3c1cbe8122e4","DPItemId":"25794","DPItemName":"水浒好汉城","DPSite":"1","dpTripMode":"0","dpTripPurpose":"","DPUserLevel":"1","dpUserName":"130****2410","highLightColor":"","homeId":"","isElite":"0","isMyComments":"","isPraised":"0","lineAccess":"好评","markColor":"","memberGradeUrl":"","memberHeaderImgUrl":"//pic3.40017.cn/member/face/2015/08/31/14/jNDStn.png","mobile":"","productPriceDesc":"","servicePoint":"1","zanCount":"2","csReplyList":null,"dpImgUrl":[{"imgUrl":"//pic3.40017.cn/scenery/comment/2016/02/15/23/pebHmO.jpg","originalImgUrl":"//pic3.40017.cn/scenery/comment/2016/02/15/23/pebHmO.jpg","smallImgUrl":"//pic3.40017.cn/scenery/comment/2016/02/15/23/pebHmO_150x150_00.jpg"},{"imgUrl":"//pic3.40017.cn/scenery/comment/2016/02/15/23/9QLHv9.jpg","originalImgUrl":"//pic3.40017.cn/scenery/comment/2016/02/15/23/9QLHv9.jpg","smallImgUrl":"//pic3.40017.cn/scenery/comment/2016/02/15/23/9QLHv9_150x150_00.jpg"},{"imgUrl":"//pic3.40017.cn/scenery/comment/2016/02/15/23/fmdyUP.jpg","originalImgUrl":"//pic3.40017.cn/scenery/comment/2016/02/15/23/fmdyUP.jpg","smallImgUrl":"//pic3.40017.cn/scenery/comment/2016/02/15/23/fmdyUP_150x150_00.jpg"},{"imgUrl":"//pic3.40017.cn/scenery/comment/2016/02/15/23/BswoEy.jpg","originalImgUrl":"//pic3.40017.cn/scenery/comment/2016/02/15/23/BswoEy.jpg","smallImgUrl":"//pic3.40017.cn/scenery/comment/2016/02/15/23/BswoEy_150x150_00.jpg"}],"subList":[],"dpImpressionList":[],"DPPlusStatus":0,"DPLocation":""},{"commentType":"1","dpContent":"总体还不错，景区面积不是很大，但里面的费用没有二次费用，只有大门票就可以。","dpDate":"2018-10-05","dpGuid":"6976795a-e1aa-4bae-a5b1-6f594aae49dd","dpId":"6976795a-e1aa-4bae-a5b1-6f594aae49dd","DPItemId":"25794","DPItemName":"水浒好汉城","DPSite":"1","dpTripMode":"0","dpTripPurpose":"","DPUserLevel":"4","dpUserName":"同程会员_04F9B7930CE","highLightColor":"","homeId":"","isElite":"0","isMyComments":"","isPraised":"0","lineAccess":"好评","markColor":"","memberGradeUrl":"","memberHeaderImgUrl":"//pic5.40017.cn/01/000/13/f7/rBLkBVvNR9eAGeEyAAB0oRTooU8399.jpg","mobile":"","productPriceDesc":"","servicePoint":"1","zanCount":"3","csReplyList":null,"dpImgUrl":[{"imgUrl":"//pic5.40017.cn/03/000/43/31/rBANB1u2zHqADGzoAARSASdmqM0872.jpg","originalImgUrl":"//pic5.40017.cn/03/000/43/31/rBANB1u2zHqADGzoAARSASdmqM0872.jpg","smallImgUrl":"//pic5.40017.cn/03/000/43/31/rBANB1u2zHqADGzoAARSASdmqM0872_150x150_00.jpg"},{"imgUrl":"//pic5.40017.cn/01/001/d2/cd/rBANC1u2zH6AVS71AAZ4j9PILs0028.jpg","originalImgUrl":"//pic5.40017.cn/01/001/d2/cd/rBANC1u2zH6AVS71AAZ4j9PILs0028.jpg","smallImgUrl":"//pic5.40017.cn/01/001/d2/cd/rBANC1u2zH6AVS71AAZ4j9PILs0028_150x150_00.jpg"},{"imgUrl":"//pic5.40017.cn/02/000/d2/5e/rBLkCVu2zICAR0_nAAR6lggVXKc691.jpg","originalImgUrl":"//pic5.40017.cn/02/000/d2/5e/rBLkCVu2zICAR0_nAAR6lggVXKc691.jpg","smallImgUrl":"//pic5.40017.cn/02/000/d2/5e/rBLkCVu2zICAR0_nAAR6lggVXKc691_150x150_00.jpg"}],"subList":[],"dpImpressionList":[],"DPPlusStatus":0,"DPLocation":""}],"isShowConinsicon":0,"rulesContent":"","dpConinRemark":"","isCanEnter":0,"isCanDianPingBefore":0,"externalUrl":"","serviceScoreAvgList":[{"score":"10","serviceName":"同程服务"},{"score":"10","serviceName":"产品便捷"},{"score":"10","serviceName":"性价比"},{"score":"10","serviceName":"景区体验"}],"dpTagList":[{"tagColor":"","tagId":"1","tagName":"全部(539)","tagNum":"539","tagType":"","tagBorderColor":""},{"tagColor":"","tagId":"6","tagName":"最新(539)","tagNum":"539","tagType":"","tagBorderColor":""},{"tagColor":"","tagId":"2","tagName":"好评(448)","tagNum":"448","tagType":"","tagBorderColor":""},{"tagColor":"","tagId":"3","tagName":"中评(81)","tagNum":"81","tagType":"","tagBorderColor":""},{"tagColor":"","tagId":"4","tagName":"差评(10)","tagNum":"10","tagType":"","tagBorderColor":""},{"tagColor":"","tagId":"5","tagName":"有图(109)","tagNum":"109","tagType":"","tagBorderColor":""},{"tagColor":"","tagId":"15","tagName":"整体不错(37)","tagNum":"37","tagType":"","tagBorderColor":""},{"tagColor":"","tagId":"96","tagName":"设施齐全(22)","tagNum":"22","tagType":"","tagBorderColor":""},{"tagColor":"","tagId":"65","tagName":"环境好(8)","tagNum":"8","tagType":"","tagBorderColor":""},{"tagColor":"","tagId":"317","tagName":"风光好(7)","tagNum":"7","tagType":"","tagBorderColor":""},{"tagColor":"","tagId":"266","tagName":"地方不错(3)","tagNum":"3","tagType":"","tagBorderColor":""},{"tagColor":"","tagId":"111","tagName":"景色壮观(1)","tagNum":"1","tagType":"","tagBorderColor":""},{"tagColor":"","tagId":"39","tagName":"门票贵(7)","tagNum":"7","tagType":"","tagBorderColor":""},{"tagColor":"","tagId":"95","tagName":"设施旧(1)","tagNum":"1","tagType":"","tagBorderColor":""}],"dianpingInfo":[]}