{"isSuccess":1,"errorMsg":"","isCache":0,"pageInfo":{"page":13,"pageSize":10,"totalPage":54,"totalCount":539},"degreeLevel":"98","starNum":"4.2","totalNum":"539","goodNum":448,"midNum":81,"badNum":10,"hasImgNum":109,"dpList":[{"commentType":"1","dpContent":"门票价格实惠，景点历史文化深厚，值得参观。水浒好汉108将，72名在郓城，每个历史人物在郓城都能找到历史背景，在水浒好汉城可以重温历史典故，回顾历史，品味历史。","dpDate":"2016-02-15","dpGuid":"fe1466a4-ae00-413d-9b46-14927e20a887","dpId":"fe1466a4-ae00-413d-9b46-14927e20a887","DPItemId":"25794","DPItemName":"水浒好汉城","DPSite":"1","dpTripMode":"0","dpTripPurpose":"","DPUserLevel":"1","dpUserName":"137****6153","highLightColor":"","homeId":"","isElite":"0","isMyComments":"","isPraised":"0","lineAccess":"好评","markColor":"","memberGradeUrl":"","memberHeaderImgUrl":"//pic3.40017.cn/member/face/2015/08/27/17/sHIVcY.png","mobile":"","productPriceDesc":"","servicePoint":"1","zanCount":"0","csReplyList":null,"dpImgUrl":[],"subList":[],"dpImpressionList":[],"DPPlusStatus":0,"DPLocation":""},{"commentType":"1","dpContent":"总体来讲还不错。由于中午到的，错过了学生表演。大部分建筑都是仿的，导游讲解挺好，没有导游的话，基本上就没什么意思了，所以像这种名胜古迹类的一定要找个导游。","dpDate":"2014-10-02","dpGuid":"t-bcc9d45c-26e7-4f2e-b791-c3d0c5fc5fe6","dpId":"t-bcc9d45c-26e7-4f2e-b791-c3d0c5fc5fe6","DPItemId":"25794","DPItemName":"水浒好汉城","DPSite":"1","dpTripMode":"1","dpTripPurpose":"3,","DPUserLevel":"2","dpUserName":"139*****707","highLightColor":"","homeId":"","isElite":"0","isMyComments":"","isPraised":"0","lineAccess":"好评","markColor":"","memberGradeUrl":"","memberHeaderImgUrl":"//pic5.40017.cn/i/ori/PELe6f5TBC.jpg","mobile":"","productPriceDesc":"","servicePoint":"1","zanCount":"0","csReplyList":null,"dpImgUrl":[],"subList":[],"dpImpressionList":[],"DPPlusStatus":0,"DPLocation":""},{"commentType":"1","dpContent":"八点订的门票，到十点多了，景区还没收到预订传真，等了好长时间，服务还好，景区先把票卖给了，时效性需要同步","dpDate":"2014-02-11","dpGuid":"t-192bee74-7a28-46cb-81a6-2d8f887912fb","dpId":"t-192bee74-7a28-46cb-81a6-2d8f887912fb","DPItemId":"25794","DPItemName":"水浒好汉城","DPSite":"1","dpTripMode":"0","dpTripPurpose":"8,","DPUserLevel":"0","dpUserName":"189*****010","highLightColor":"","homeId":"","isElite":"0","isMyComments":"","isPraised":"0","lineAccess":"好评","markColor":"","memberGradeUrl":"","memberHeaderImgUrl":"//pic5.40017.cn/i/ori/PELe6f5TBC.jpg","mobile":"","productPriceDesc":"","servicePoint":"1","zanCount":"0","csReplyList":null,"dpImgUrl":[],"subList":[],"dpImpressionList":[],"DPPlusStatus":0,"DPLocation":""},{"commentType":"1","dpContent":"很好玩的去处，里面还有几场精彩的演出，而且还是通票，买了门票进去所有地方都可以玩了。全满分好评 下次还来","dpDate":"2014-09-26","dpGuid":"t-bcab3d68-9256-4340-9c52-4a465d0ffca5","dpId":"t-bcab3d68-9256-4340-9c52-4a465d0ffca5","DPItemId":"25794","DPItemName":"水浒好汉城","DPSite":"1","dpTripMode":"1","dpTripPurpose":"4,","DPUserLevel":"2","dpUserName":"155*****895","highLightColor":"","homeId":"","isElite":"0","isMyComments":"","isPraised":"0","lineAccess":"好评","markColor":"","memberGradeUrl":"","memberHeaderImgUrl":"2015/02/04/7/201502040940189634890.jpg","mobile":"","productPriceDesc":"","servicePoint":"1","zanCount":"0","csReplyList":null,"dpImgUrl":[],"subList":[],"dpImpressionList":[],"DPPlusStatus":0,"DPLocation":""},{"commentType":"1","dpContent":"订票取票都方便。从武术学校入园，看到学生上操。园内建筑精致，还在建设，看到很多老料，这造价不低。晁盖他们家迷宫一样。孙二娘包子不难吃，就是卖得太快了。情景剧的演员很随和，李逵挺可爱。下次来孙二娘客栈八成可以入住体验了。","dpDate":"2014-10-06","dpGuid":"t-63f5af31-4625-46a1-a532-b8d6814ca9cf","dpId":"t-63f5af31-4625-46a1-a532-b8d6814ca9cf","DPItemId":"25794","DPItemName":"水浒好汉城","DPSite":"1","dpTripMode":"1","dpTripPurpose":"3,","DPUserLevel":"1","dpUserName":"189*****100","highLightColor":"","homeId":"","isElite":"0","isMyComments":"","isPraised":"0","lineAccess":"好评","markColor":"","memberGradeUrl":"","memberHeaderImgUrl":"//pic5.40017.cn/i/ori/PELe6f5TBC.jpg","mobile":"","productPriceDesc":"","servicePoint":"1","zanCount":"0","csReplyList":null,"dpImgUrl":[],"subList":[],"dpImpressionList":[],"DPPlusStatus":0,"DPLocation":""},{"commentType":"2","dpContent":"是去的前几天定的票 票价是21 然后当天去了以后在车上才收到短信说涨到了35 本来51涨价也是可以理解的 但是定好的是21以后又涨价就觉着有点上当了的感觉不过值是挺值的 里面很好 有的部分还在修建 以后肯定还会更好的","dpDate":"2014-05-01","dpGuid":"t-cc3c6c80-4747-41f3-859f-e5480e449815","dpId":"t-cc3c6c80-4747-41f3-859f-e5480e449815","DPItemId":"25794","DPItemName":"水浒好汉城","DPSite":"2","dpTripMode":"3","dpTripPurpose":"3,","DPUserLevel":"0","dpUserName":"183*****415","highLightColor":"","homeId":"","isElite":"0","isMyComments":"","isPraised":"0","lineAccess":"好评","markColor":"","memberGradeUrl":"","memberHeaderImgUrl":"//pic5.40017.cn/i/ori/PELe6f5TBC.jpg","mobile":"","productPriceDesc":"","servicePoint":"1","zanCount":"0","csReplyList":null,"dpImgUrl":[],"subList":[],"dpImpressionList":[],"DPPlusStatus":0,"DPLocation":""},{"commentType":"2","dpContent":"   我是郓城人，知道水浒好汉城但没去过，这次和同事一块去的，才开始还以为不大会很一般呢，去了之后才知道不虚此行。  里面古建筑的韵味十分浓厚，关键是里面的人也特热情，真像回到了家一样，玩了那么多地，说实在话，没有这如此让人感到亲切呢。  ","dpDate":"2013-04-26","dpGuid":"t-aa52637c-5627-40f9-afd3-0ef0db199a25","dpId":"t-aa52637c-5627-40f9-afd3-0ef0db199a25","DPItemId":"25794","DPItemName":"水浒好汉城","DPSite":"2","dpTripMode":"0","dpTripPurpose":"7,","DPUserLevel":"0","dpUserName":"158*****770","highLightColor":"","homeId":"","isElite":"0","isMyComments":"","isPraised":"0","lineAccess":"好评","markColor":"","memberGradeUrl":"","memberHeaderImgUrl":"//pic5.40017.cn/i/ori/PELe6f5TBC.jpg","mobile":"","productPriceDesc":"","servicePoint":"1","zanCount":"0","csReplyList":null,"dpImgUrl":[],"subList":[],"dpImpressionList":[],"DPPlusStatus":0,"DPLocation":""},{"commentType":"1","dpContent":"景点不错，只是里面正在建设，几个地方进不去，里面房子不少，内容还有待丰富，门票说是现场60，网上40,其实现场是50，有点夸大优惠程度。","dpDate":"2016-07-14","dpGuid":"7914de2d-70df-4801-8191-3a2535bd40e2","dpId":"7914de2d-70df-4801-8191-3a2535bd40e2","DPItemId":"25794","DPItemName":"水浒好汉城","DPSite":"1","dpTripMode":"0","dpTripPurpose":"","DPUserLevel":"1","dpUserName":"ycw武","highLightColor":"","homeId":"","isElite":"0","isMyComments":"","isPraised":"0","lineAccess":"中评","markColor":"","memberGradeUrl":"","memberHeaderImgUrl":"https://pic5.40017.cn/i/ori/1dhWb8X8neg.jpg","mobile":"","productPriceDesc":"","servicePoint":"2","zanCount":"0","csReplyList":null,"dpImgUrl":[],"subList":[],"dpImpressionList":[],"DPPlusStatus":0,"DPLocation":""},{"commentType":"1","dpContent":"天气不是太好，但是水浒故事深入人心啊，来此地可以感到英雄情怀，景点不因天气而正常节目表演，感觉不错。整个园子就是人工打造的，每一处都有故事，可以做休闲之地。","dpDate":"2016-02-13","dpGuid":"ab3d07f7-96df-4bc8-aa89-f0132d4b92b1","dpId":"ab3d07f7-96df-4bc8-aa89-f0132d4b92b1","DPItemId":"25794","DPItemName":"水浒好汉城","DPSite":"1","dpTripMode":"0","dpTripPurpose":"","DPUserLevel":"1","dpUserName":"187****1719","highLightColor":"","homeId":"","isElite":"0","isMyComments":"","isPraised":"0","lineAccess":"好评","markColor":"","memberGradeUrl":"","memberHeaderImgUrl":"//pic3.40017.cn/member/face/2015/08/27/17/sHIVcY.png","mobile":"","productPriceDesc":"","servicePoint":"1","zanCount":"0","csReplyList":null,"dpImgUrl":[],"subList":[],"dpImpressionList":[],"DPPlusStatus":0,"DPLocation":""},{"commentType":"1","dpContent":"去之前没抱太大希望，不过去了之后感觉不错。建筑古色古香，很有特色。还看了情景剧表演和现场抛绣球招亲！还有就是有个地下迷宫和3d画展很有特点，儿子都不愿出来。最后还观看了宋江武校学生的武术表演，很精彩。等三期工程建好后还会来！","dpDate":"2015-05-03","dpGuid":"t-75e522da-3480-4f86-b285-d2456727ecaf","dpId":"t-75e522da-3480-4f86-b285-d2456727ecaf","DPItemId":"25794","DPItemName":"水浒好汉城","DPSite":"1","dpTripMode":"0","dpTripPurpose":"4,","DPUserLevel":"1","dpUserName":"A33F17F9D7C22776","highLightColor":"","homeId":"","isElite":"0","isMyComments":"","isPraised":"0","lineAccess":"好评","markColor":"","memberGradeUrl":"","memberHeaderImgUrl":"//pic3.40017.cn/member/face/2017/12/05/16/tcdefault.png","mobile":"","productPriceDesc":"","servicePoint":"1","zanCount":"0","csReplyList":null,"dpImgUrl":[],"subList":[],"dpImpressionList":[],"DPPlusStatus":0,"DPLocation":""}],"isShowConinsicon":0,"rulesContent":"","dpConinRemark":"","isCanEnter":0,"isCanDianPingBefore":0,"externalUrl":"","serviceScoreAvgList":[{"score":"10","serviceName":"同程服务"},{"score":"10","serviceName":"产品便捷"},{"score":"10","serviceName":"性价比"},{"score":"10","serviceName":"景区体验"}],"dpTagList":[{"tagColor":"","tagId":"1","tagName":"全部(539)","tagNum":"539","tagType":"","tagBorderColor":""},{"tagColor":"","tagId":"6","tagName":"最新(539)","tagNum":"539","tagType":"","tagBorderColor":""},{"tagColor":"","tagId":"2","tagName":"好评(448)","tagNum":"448","tagType":"","tagBorderColor":""},{"tagColor":"","tagId":"3","tagName":"中评(81)","tagNum":"81","tagType":"","tagBorderColor":""},{"tagColor":"","tagId":"4","tagName":"差评(10)","tagNum":"10","tagType":"","tagBorderColor":""},{"tagColor":"","tagId":"5","tagName":"有图(109)","tagNum":"109","tagType":"","tagBorderColor":""},{"tagColor":"","tagId":"15","tagName":"整体不错(37)","tagNum":"37","tagType":"","tagBorderColor":""},{"tagColor":"","tagId":"96","tagName":"设施齐全(22)","tagNum":"22","tagType":"","tagBorderColor":""},{"tagColor":"","tagId":"65","tagName":"环境好(8)","tagNum":"8","tagType":"","tagBorderColor":""},{"tagColor":"","tagId":"317","tagName":"风光好(7)","tagNum":"7","tagType":"","tagBorderColor":""},{"tagColor":"","tagId":"266","tagName":"地方不错(3)","tagNum":"3","tagType":"","tagBorderColor":""},{"tagColor":"","tagId":"111","tagName":"景色壮观(1)","tagNum":"1","tagType":"","tagBorderColor":""},{"tagColor":"","tagId":"39","tagName":"门票贵(7)","tagNum":"7","tagType":"","tagBorderColor":""},{"tagColor":"","tagId":"95","tagName":"设施旧(1)","tagNum":"1","tagType":"","tagBorderColor":""}],"dianpingInfo":[]}