{"isSuccess":1,"errorMsg":"","isCache":0,"pageInfo":{"page":29,"pageSize":10,"totalPage":54,"totalCount":539},"degreeLevel":"98","starNum":"4.2","totalNum":"539","goodNum":448,"midNum":81,"badNum":10,"hasImgNum":109,"dpList":[{"commentType":"6","dpContent":"入园换票很方便，是一个很棒的游玩体验","dpDate":"2021-08-07","dpGuid":"98e59f40-50f3-4a5b-b1cf-07658c0000f0","dpId":"98e59f40-50f3-4a5b-b1cf-07658c0000f0","DPItemId":"25794","DPItemName":"水浒好汉城","DPSite":"6","dpTripMode":"0","dpTripPurpose":"","DPUserLevel":"2","dpUserName":"0DFF7A3BDB3549E0","highLightColor":"","homeId":"","isElite":"0","isMyComments":"","isPraised":"0","lineAccess":"好评","markColor":"","memberGradeUrl":"","memberHeaderImgUrl":"https://pic5.40017.cn/i/ori/1difaMet93G.jpg","mobile":"","productPriceDesc":"","servicePoint":"1","zanCount":"0","csReplyList":null,"dpImgUrl":[],"subList":[],"dpImpressionList":[],"DPPlusStatus":0,"DPLocation":""},{"commentType":"1","dpContent":"去的时候已经下午4点多了，人还不算少，","dpDate":"2015-09-12","dpGuid":"3ec1e4b2-a8a7-4b05-9efd-66200141eab4","dpId":"3ec1e4b2-a8a7-4b05-9efd-66200141eab4","DPItemId":"25794","DPItemName":"水浒好汉城","DPSite":"1","dpTripMode":"0","dpTripPurpose":"","DPUserLevel":"1","dpUserName":"151****8500","highLightColor":"","homeId":"","isElite":"0","isMyComments":"","isPraised":"0","lineAccess":"好评","markColor":"","memberGradeUrl":"","memberHeaderImgUrl":"//upload.17u.com/uploadfile/2005/11/08/2/boy.gif","mobile":"","productPriceDesc":"","servicePoint":"1","zanCount":"0","csReplyList":null,"dpImgUrl":[{"imgUrl":"//pic3.40017.cn/scenery/comment/2015/09/12/09/CtyMWl.jpg","originalImgUrl":"//pic3.40017.cn/scenery/comment/2015/09/12/09/CtyMWl.jpg","smallImgUrl":"//pic3.40017.cn/scenery/comment/2015/09/12/09/CtyMWl_150x150_00.jpg"},{"imgUrl":"//pic3.40017.cn/scenery/comment/2015/09/12/09/mGDTW6.jpg","originalImgUrl":"//pic3.40017.cn/scenery/comment/2015/09/12/09/mGDTW6.jpg","smallImgUrl":"//pic3.40017.cn/scenery/comment/2015/09/12/09/mGDTW6_150x150_00.jpg"}],"subList":[],"dpImpressionList":[],"DPPlusStatus":0,"DPLocation":""},{"commentType":"1","dpContent":"不错，没事的时候可以去看一看！","dpDate":"2016-05-02","dpGuid":"45be55de-44b2-4cfa-b498-97d2723c2cae","dpId":"45be55de-44b2-4cfa-b498-97d2723c2cae","DPItemId":"25794","DPItemName":"水浒好汉城","DPSite":"1","dpTripMode":"0","dpTripPurpose":"","DPUserLevel":"1","dpUserName":"158****2570","highLightColor":"","homeId":"","isElite":"0","isMyComments":"","isPraised":"0","lineAccess":"好评","markColor":"","memberGradeUrl":"","memberHeaderImgUrl":"//pic3.40017.cn/member/face/2015/08/27/17/sHIVcY.png","mobile":"","productPriceDesc":"","servicePoint":"1","zanCount":"0","csReplyList":null,"dpImgUrl":[{"imgUrl":"//pic4.40017.cn/scenery/comment/2016/05/02/16/HQLU0M.jpg","originalImgUrl":"//pic4.40017.cn/scenery/comment/2016/05/02/16/HQLU0M.jpg","smallImgUrl":"//pic4.40017.cn/scenery/comment/2016/05/02/16/HQLU0M_150x150_00.jpg"},{"imgUrl":"//pic4.40017.cn/scenery/comment/2016/05/02/16/QMC7Ph.jpg","originalImgUrl":"//pic4.40017.cn/scenery/comment/2016/05/02/16/QMC7Ph.jpg","smallImgUrl":"//pic4.40017.cn/scenery/comment/2016/05/02/16/QMC7Ph_150x150_00.jpg"}],"subList":[],"dpImpressionList":[],"DPPlusStatus":0,"DPLocation":""},{"commentType":"1","dpContent":"去游玩了，景色不错，服务也不错。","dpDate":"2013-02-28","dpGuid":"t-da4dd8e7-cd8a-407d-99ad-144b15fc0d36","dpId":"t-da4dd8e7-cd8a-407d-99ad-144b15fc0d36","DPItemId":"25794","DPItemName":"水浒好汉城","DPSite":"1","dpTripMode":"0","dpTripPurpose":"11,","DPUserLevel":"0","dpUserName":"159*****001","highLightColor":"","homeId":"","isElite":"0","isMyComments":"","isPraised":"0","lineAccess":"好评","markColor":"","memberGradeUrl":"","memberHeaderImgUrl":"//pic5.40017.cn/i/ori/PELe6f5TBC.jpg","mobile":"","productPriceDesc":"","servicePoint":"1","zanCount":"0","csReplyList":null,"dpImgUrl":[],"subList":[],"dpImpressionList":[],"DPPlusStatus":0,"DPLocation":""},{"commentType":"2","dpContent":"景区还不错，太小，在建设中，管理不完善","dpDate":"2011-10-09","dpGuid":"t-24d85cc0-ae2d-41ed-ba72-ad36d249ff64","dpId":"t-24d85cc0-ae2d-41ed-ba72-ad36d249ff64","DPItemId":"25794","DPItemName":"水浒好汉城","DPSite":"2","dpTripMode":"0","dpTripPurpose":"4,","DPUserLevel":"1","dpUserName":"139*****551","highLightColor":"","homeId":"","isElite":"0","isMyComments":"","isPraised":"0","lineAccess":"中评","markColor":"","memberGradeUrl":"","memberHeaderImgUrl":"//pic5.40017.cn/i/ori/PELe6f5TBC.jpg","mobile":"","productPriceDesc":"","servicePoint":"2","zanCount":"0","csReplyList":null,"dpImgUrl":[],"subList":[],"dpImpressionList":[],"DPPlusStatus":0,"DPLocation":""},{"commentType":"1","dpContent":"景点不错，值得推荐。","dpDate":"2016-05-04","dpGuid":"9fb417c1-d03a-4414-9902-8cecf8b02a53","dpId":"9fb417c1-d03a-4414-9902-8cecf8b02a53","DPItemId":"25794","DPItemName":"水浒好汉城","DPSite":"1","dpTripMode":"0","dpTripPurpose":"","DPUserLevel":"1","dpUserName":"150****3026","highLightColor":"","homeId":"","isElite":"0","isMyComments":"","isPraised":"0","lineAccess":"好评","markColor":"","memberGradeUrl":"","memberHeaderImgUrl":"//pic3.40017.cn/member/face/2015/08/31/14/jNDStn.png","mobile":"","productPriceDesc":"","servicePoint":"1","zanCount":"0","csReplyList":null,"dpImgUrl":[],"subList":[],"dpImpressionList":[],"DPPlusStatus":0,"DPLocation":""},{"commentType":"1","dpContent":"旅途整体感觉一般，景点值得推荐给朋友","dpDate":"2014-09-02","dpGuid":"t-d6076ecf-c458-40b2-a419-3adcb9032bfe","dpId":"t-d6076ecf-c458-40b2-a419-3adcb9032bfe","DPItemId":"25794","DPItemName":"水浒好汉城","DPSite":"1","dpTripMode":"1","dpTripPurpose":"3,","DPUserLevel":"1","dpUserName":"186*****037","highLightColor":"","homeId":"","isElite":"0","isMyComments":"","isPraised":"0","lineAccess":"中评","markColor":"","memberGradeUrl":"","memberHeaderImgUrl":"//pic5.40017.cn/i/ori/PELe6f5TBC.jpg","mobile":"","productPriceDesc":"","servicePoint":"2","zanCount":"0","csReplyList":null,"dpImgUrl":[],"subList":[],"dpImpressionList":[],"DPPlusStatus":0,"DPLocation":""},{"commentType":"1","dpContent":"旅途整体感觉一般，景点值得推荐给朋友","dpDate":"2014-10-04","dpGuid":"t-deca8568-02ff-4ac1-be3f-cfbdf72367f2","dpId":"t-deca8568-02ff-4ac1-be3f-cfbdf72367f2","DPItemId":"25794","DPItemName":"水浒好汉城","DPSite":"1","dpTripMode":"1","dpTripPurpose":"3,","DPUserLevel":"2","dpUserName":"138*****100","highLightColor":"","homeId":"","isElite":"0","isMyComments":"","isPraised":"0","lineAccess":"中评","markColor":"","memberGradeUrl":"","memberHeaderImgUrl":"//pic5.40017.cn/i/ori/PELe6f5TBC.jpg","mobile":"","productPriceDesc":"","servicePoint":"2","zanCount":"0","csReplyList":null,"dpImgUrl":[],"subList":[],"dpImpressionList":[],"DPPlusStatus":0,"DPLocation":""},{"commentType":"1","dpContent":"水浒好汉城，人挺多的，景色还不错。","dpDate":"2015-10-13","dpGuid":"c9a9785e-4312-44ef-a636-8dcae243ac5e","dpId":"c9a9785e-4312-44ef-a636-8dcae243ac5e","DPItemId":"25794","DPItemName":"水浒好汉城","DPSite":"1","dpTripMode":"0","dpTripPurpose":"","DPUserLevel":"2","dpUserName":"135****0671","highLightColor":"","homeId":"","isElite":"0","isMyComments":"","isPraised":"0","lineAccess":"好评","markColor":"","memberGradeUrl":"","memberHeaderImgUrl":"//pic3.40017.cn/member/face/2015/08/06/00/RYuWBT.jpg","mobile":"","productPriceDesc":"","servicePoint":"1","zanCount":"0","csReplyList":null,"dpImgUrl":[],"subList":[],"dpImpressionList":[],"DPPlusStatus":0,"DPLocation":""},{"commentType":"1","dpContent":"景区需要改进的地方真是不少，期待中……","dpDate":"2016-10-08","dpGuid":"78f355f0-65f3-4e85-af03-ca8c9f3a1d35","dpId":"78f355f0-65f3-4e85-af03-ca8c9f3a1d35","DPItemId":"25794","DPItemName":"水浒好汉城","DPSite":"1","dpTripMode":"0","dpTripPurpose":"","DPUserLevel":"2","dpUserName":"同程会员_B028923321F","highLightColor":"","homeId":"","isElite":"0","isMyComments":"","isPraised":"0","lineAccess":"中评","markColor":"","memberGradeUrl":"","memberHeaderImgUrl":"https://pic5.40017.cn/i/ori/1dhWb8X8neg.jpg","mobile":"","productPriceDesc":"","servicePoint":"2","zanCount":"1","csReplyList":null,"dpImgUrl":[],"subList":[],"dpImpressionList":[],"DPPlusStatus":0,"DPLocation":""}],"isShowConinsicon":0,"rulesContent":"","dpConinRemark":"","isCanEnter":0,"isCanDianPingBefore":0,"externalUrl":"","serviceScoreAvgList":[{"score":"10","serviceName":"同程服务"},{"score":"10","serviceName":"产品便捷"},{"score":"10","serviceName":"性价比"},{"score":"10","serviceName":"景区体验"}],"dpTagList":[{"tagColor":"","tagId":"1","tagName":"全部(539)","tagNum":"539","tagType":"","tagBorderColor":""},{"tagColor":"","tagId":"6","tagName":"最新(539)","tagNum":"539","tagType":"","tagBorderColor":""},{"tagColor":"","tagId":"2","tagName":"好评(448)","tagNum":"448","tagType":"","tagBorderColor":""},{"tagColor":"","tagId":"3","tagName":"中评(81)","tagNum":"81","tagType":"","tagBorderColor":""},{"tagColor":"","tagId":"4","tagName":"差评(10)","tagNum":"10","tagType":"","tagBorderColor":""},{"tagColor":"","tagId":"5","tagName":"有图(109)","tagNum":"109","tagType":"","tagBorderColor":""},{"tagColor":"","tagId":"15","tagName":"整体不错(37)","tagNum":"37","tagType":"","tagBorderColor":""},{"tagColor":"","tagId":"96","tagName":"设施齐全(22)","tagNum":"22","tagType":"","tagBorderColor":""},{"tagColor":"","tagId":"65","tagName":"环境好(8)","tagNum":"8","tagType":"","tagBorderColor":""},{"tagColor":"","tagId":"317","tagName":"风光好(7)","tagNum":"7","tagType":"","tagBorderColor":""},{"tagColor":"","tagId":"266","tagName":"地方不错(3)","tagNum":"3","tagType":"","tagBorderColor":""},{"tagColor":"","tagId":"111","tagName":"景色壮观(1)","tagNum":"1","tagType":"","tagBorderColor":""},{"tagColor":"","tagId":"39","tagName":"门票贵(7)","tagNum":"7","tagType":"","tagBorderColor":""},{"tagColor":"","tagId":"95","tagName":"设施旧(1)","tagNum":"1","tagType":"","tagBorderColor":""}],"dianpingInfo":[]}