{"isSuccess":1,"errorMsg":"","isCache":0,"pageInfo":{"page":22,"pageSize":10,"totalPage":54,"totalCount":539},"degreeLevel":"98","starNum":"4.2","totalNum":"539","goodNum":448,"midNum":81,"badNum":10,"hasImgNum":109,"dpList":[{"commentType":"1","dpContent":"很给力的网站，古香古色的景区，有种进入古代生活的感觉。","dpDate":"2015-08-04","dpGuid":"t-64881778-aca0-40a9-94b7-34282a53e31e","dpId":"t-64881778-aca0-40a9-94b7-34282a53e31e","DPItemId":"25794","DPItemName":"水浒好汉城","DPSite":"1","dpTripMode":"0","dpTripPurpose":"8,","DPUserLevel":"0","dpUserName":"188*****678","highLightColor":"","homeId":"","isElite":"0","isMyComments":"","isPraised":"0","lineAccess":"好评","markColor":"","memberGradeUrl":"","memberHeaderImgUrl":"//pic5.40017.cn/i/ori/PELe6f5TBC.jpg","mobile":"","productPriceDesc":"","servicePoint":"1","zanCount":"0","csReplyList":null,"dpImgUrl":[],"subList":[],"dpImpressionList":[],"DPPlusStatus":0,"DPLocation":""},{"commentType":"1","dpContent":"很漂亮，规划收挺大。都是老房子，环境很好，人不是太多。","dpDate":"2016-03-18","dpGuid":"2d7fe016-68af-45fd-a9c9-fb3c91edc854","dpId":"2d7fe016-68af-45fd-a9c9-fb3c91edc854","DPItemId":"25794","DPItemName":"水浒好汉城","DPSite":"1","dpTripMode":"0","dpTripPurpose":"","DPUserLevel":"1","dpUserName":"184****6677","highLightColor":"","homeId":"","isElite":"0","isMyComments":"","isPraised":"0","lineAccess":"好评","markColor":"","memberGradeUrl":"","memberHeaderImgUrl":"//pic3.40017.cn/member/face/2015/08/31/14/jNDStn.png","mobile":"","productPriceDesc":"","servicePoint":"1","zanCount":"0","csReplyList":null,"dpImgUrl":[],"subList":[],"dpImpressionList":[],"DPPlusStatus":0,"DPLocation":""},{"commentType":"1","dpContent":"景区风景还可以吧？因为下雨，所以人不多。那个迷宫还可以。","dpDate":"2015-04-24","dpGuid":"t-4f25020d-4b16-402c-a1fd-7e64057ae43e","dpId":"t-4f25020d-4b16-402c-a1fd-7e64057ae43e","DPItemId":"25794","DPItemName":"水浒好汉城","DPSite":"1","dpTripMode":"0","dpTripPurpose":"0,","DPUserLevel":"1","dpUserName":"jadore110","highLightColor":"","homeId":"","isElite":"0","isMyComments":"","isPraised":"0","lineAccess":"好评","markColor":"","memberGradeUrl":"","memberHeaderImgUrl":"//pic3.40017.cn/member/face/2017/12/05/16/tcdefault.png","mobile":"","productPriceDesc":"","servicePoint":"1","zanCount":"0","csReplyList":null,"dpImgUrl":[],"subList":[],"dpImpressionList":[],"DPPlusStatus":0,"DPLocation":""},{"commentType":"1","dpContent":"还在装修中，蹭了个导游，全部游玩大概2小时。","dpDate":"2014-05-21","dpGuid":"t-8435e9ed-e720-42de-9ef1-61a59d39f9a8","dpId":"t-8435e9ed-e720-42de-9ef1-61a59d39f9a8","DPItemId":"25794","DPItemName":"水浒好汉城","DPSite":"1","dpTripMode":"1","dpTripPurpose":"3,","DPUserLevel":"2","dpUserName":"180*****166","highLightColor":"","homeId":"","isElite":"0","isMyComments":"","isPraised":"0","lineAccess":"好评","markColor":"","memberGradeUrl":"","memberHeaderImgUrl":"//pic5.40017.cn/i/ori/PELe6f5TBC.jpg","mobile":"","productPriceDesc":"","servicePoint":"1","zanCount":"0","csReplyList":null,"dpImgUrl":[],"subList":[],"dpImpressionList":[],"DPPlusStatus":0,"DPLocation":""},{"commentType":"1","dpContent":"景色也挺多的，就是都是新修的，里面有个3d画展很不错噢","dpDate":"2015-02-26","dpGuid":"t-d3516681-b83f-4207-af13-3d28f618bdba","dpId":"t-d3516681-b83f-4207-af13-3d28f618bdba","DPItemId":"25794","DPItemName":"水浒好汉城","DPSite":"1","dpTripMode":"0","dpTripPurpose":"4,","DPUserLevel":"2","dpUserName":"聪妮","highLightColor":"","homeId":"","isElite":"0","isMyComments":"","isPraised":"0","lineAccess":"好评","markColor":"","memberGradeUrl":"","memberHeaderImgUrl":"//pic3.40017.cn/member/face/2017/12/05/16/tcdefault.png","mobile":"","productPriceDesc":"","servicePoint":"1","zanCount":"0","csReplyList":null,"dpImgUrl":[],"subList":[],"dpImpressionList":[],"DPPlusStatus":0,"DPLocation":""},{"commentType":"1","dpContent":"去了一大帮人，够组团了，让导游给讲解一下还是很好滴。。。。","dpDate":"2015-10-04","dpGuid":"fd875444-3457-445f-ba9f-bd1060f4ff30","dpId":"fd875444-3457-445f-ba9f-bd1060f4ff30","DPItemId":"25794","DPItemName":"水浒好汉城","DPSite":"1","dpTripMode":"0","dpTripPurpose":"","DPUserLevel":"1","dpUserName":"186****4876","highLightColor":"","homeId":"","isElite":"0","isMyComments":"","isPraised":"0","lineAccess":"好评","markColor":"","memberGradeUrl":"","memberHeaderImgUrl":"//pic3.40017.cn/member/face/2015/08/27/17/sHIVcY.png","mobile":"","productPriceDesc":"","servicePoint":"1","zanCount":"0","csReplyList":null,"dpImgUrl":[],"subList":[],"dpImpressionList":[],"DPPlusStatus":0,"DPLocation":""},{"commentType":"1","dpContent":"这次水浒城之行非常愉快，现场观看了武术表演，感受到了博大精深的水浒文化","dpDate":"2015-09-12","dpGuid":"83121284-6384-49ec-b586-63c630d190c4","dpId":"83121284-6384-49ec-b586-63c630d190c4","DPItemId":"25794","DPItemName":"水浒好汉城","DPSite":"1","dpTripMode":"0","dpTripPurpose":"","DPUserLevel":"1","dpUserName":"151****8500","highLightColor":"","homeId":"","isElite":"0","isMyComments":"","isPraised":"0","lineAccess":"好评","markColor":"","memberGradeUrl":"","memberHeaderImgUrl":"//upload.17u.com/uploadfile/2005/11/08/2/boy.gif","mobile":"","productPriceDesc":"","servicePoint":"1","zanCount":"0","csReplyList":null,"dpImgUrl":[],"subList":[],"dpImpressionList":[],"DPPlusStatus":0,"DPLocation":""},{"commentType":"1","dpContent":"地方很大，表演很精彩，同程订的优惠票，很开心的旅行。","dpDate":"2015-06-21","dpGuid":"t-83d8fcff-27f4-4388-bb34-84bf0f6c0eba","dpId":"t-83d8fcff-27f4-4388-bb34-84bf0f6c0eba","DPItemId":"25794","DPItemName":"水浒好汉城","DPSite":"1","dpTripMode":"0","dpTripPurpose":"0,","DPUserLevel":"2","dpUserName":"18952dxjyct","highLightColor":"","homeId":"","isElite":"0","isMyComments":"","isPraised":"0","lineAccess":"好评","markColor":"","memberGradeUrl":"","memberHeaderImgUrl":"//pic3.40017.cn/member/face/2017/12/05/16/tcdefault.png","mobile":"","productPriceDesc":"","servicePoint":"1","zanCount":"0","csReplyList":null,"dpImgUrl":[],"subList":[],"dpImpressionList":[],"DPPlusStatus":0,"DPLocation":""},{"commentType":"1","dpContent":"古香之气，女儿说木头味特古香，好汉的生活水平挺好。","dpDate":"2015-06-21","dpGuid":"t-8d32fe67-b9ad-4134-bc0e-9f2b2f974dba","dpId":"t-8d32fe67-b9ad-4134-bc0e-9f2b2f974dba","DPItemId":"25794","DPItemName":"水浒好汉城","DPSite":"1","dpTripMode":"0","dpTripPurpose":"4,","DPUserLevel":"1","dpUserName":"钓鱼大侠","highLightColor":"","homeId":"","isElite":"0","isMyComments":"","isPraised":"0","lineAccess":"好评","markColor":"","memberGradeUrl":"","memberHeaderImgUrl":"//pic3.40017.cn/member/face/2017/12/05/16/tcdefault.png","mobile":"","productPriceDesc":"","servicePoint":"1","zanCount":"0","csReplyList":null,"dpImgUrl":[],"subList":[],"dpImpressionList":[],"DPPlusStatus":0,"DPLocation":""},{"commentType":"1","dpContent":"风格古朴，让人想到水浒英雄的生活，还看到了真人表演，非常不错。","dpDate":"2015-09-20","dpGuid":"879a70f7-32bb-469d-a47b-57b0b276232c","dpId":"879a70f7-32bb-469d-a47b-57b0b276232c","DPItemId":"25794","DPItemName":"水浒好汉城","DPSite":"1","dpTripMode":"0","dpTripPurpose":"","DPUserLevel":"2","dpUserName":"138****3230","highLightColor":"","homeId":"","isElite":"0","isMyComments":"","isPraised":"0","lineAccess":"好评","markColor":"","memberGradeUrl":"","memberHeaderImgUrl":"//pic3.40017.cn/member/face/2015/08/27/17/sHIVcY.png","mobile":"","productPriceDesc":"","servicePoint":"1","zanCount":"0","csReplyList":null,"dpImgUrl":[],"subList":[],"dpImpressionList":[],"DPPlusStatus":0,"DPLocation":""}],"isShowConinsicon":0,"rulesContent":"","dpConinRemark":"","isCanEnter":0,"isCanDianPingBefore":0,"externalUrl":"","serviceScoreAvgList":[{"score":"10","serviceName":"同程服务"},{"score":"10","serviceName":"产品便捷"},{"score":"10","serviceName":"性价比"},{"score":"10","serviceName":"景区体验"}],"dpTagList":[{"tagColor":"","tagId":"1","tagName":"全部(539)","tagNum":"539","tagType":"","tagBorderColor":""},{"tagColor":"","tagId":"6","tagName":"最新(539)","tagNum":"539","tagType":"","tagBorderColor":""},{"tagColor":"","tagId":"2","tagName":"好评(448)","tagNum":"448","tagType":"","tagBorderColor":""},{"tagColor":"","tagId":"3","tagName":"中评(81)","tagNum":"81","tagType":"","tagBorderColor":""},{"tagColor":"","tagId":"4","tagName":"差评(10)","tagNum":"10","tagType":"","tagBorderColor":""},{"tagColor":"","tagId":"5","tagName":"有图(109)","tagNum":"109","tagType":"","tagBorderColor":""},{"tagColor":"","tagId":"15","tagName":"整体不错(37)","tagNum":"37","tagType":"","tagBorderColor":""},{"tagColor":"","tagId":"96","tagName":"设施齐全(22)","tagNum":"22","tagType":"","tagBorderColor":""},{"tagColor":"","tagId":"65","tagName":"环境好(8)","tagNum":"8","tagType":"","tagBorderColor":""},{"tagColor":"","tagId":"317","tagName":"风光好(7)","tagNum":"7","tagType":"","tagBorderColor":""},{"tagColor":"","tagId":"266","tagName":"地方不错(3)","tagNum":"3","tagType":"","tagBorderColor":""},{"tagColor":"","tagId":"111","tagName":"景色壮观(1)","tagNum":"1","tagType":"","tagBorderColor":""},{"tagColor":"","tagId":"39","tagName":"门票贵(7)","tagNum":"7","tagType":"","tagBorderColor":""},{"tagColor":"","tagId":"95","tagName":"设施旧(1)","tagNum":"1","tagType":"","tagBorderColor":""}],"dianpingInfo":[]}