{"isSuccess":1,"errorMsg":"","isCache":0,"pageInfo":{"page":20,"pageSize":10,"totalPage":54,"totalCount":539},"degreeLevel":"98","starNum":"4.2","totalNum":"539","goodNum":448,"midNum":81,"badNum":10,"hasImgNum":109,"dpList":[{"commentType":"1","dpContent":"很小一个地方，一会儿就转完了，也没有传说中的表演。很多地方都在修。意义不大。","dpDate":"2015-06-15","dpGuid":"t-5ece7161-c21d-4196-b53d-62bbc6933904","dpId":"t-5ece7161-c21d-4196-b53d-62bbc6933904","DPItemId":"25794","DPItemName":"水浒好汉城","DPSite":"1","dpTripMode":"0","dpTripPurpose":"0,","DPUserLevel":"1","dpUserName":"04E0F5CC4DAB7FC1","highLightColor":"","homeId":"","isElite":"0","isMyComments":"","isPraised":"0","lineAccess":"好评","markColor":"","memberGradeUrl":"","memberHeaderImgUrl":"//pic3.40017.cn/member/face/2017/12/05/16/tcdefault.png","mobile":"","productPriceDesc":"","servicePoint":"1","zanCount":"0","csReplyList":null,"dpImgUrl":[],"subList":[],"dpImpressionList":[],"DPPlusStatus":0,"DPLocation":""},{"commentType":"1","dpContent":"一些还没建好的仿古建筑，挂着恶俗的水浒酒的红灯笼。土洋结合的产物，不值得一去","dpDate":"2014-04-05","dpGuid":"t-3c599777-9571-4cca-adbe-dfd05c858384","dpId":"t-3c599777-9571-4cca-adbe-dfd05c858384","DPItemId":"25794","DPItemName":"水浒好汉城","DPSite":"1","dpTripMode":"1","dpTripPurpose":"3,","DPUserLevel":"3","dpUserName":"186*****299","highLightColor":"","homeId":"","isElite":"0","isMyComments":"","isPraised":"0","lineAccess":"好评","markColor":"","memberGradeUrl":"","memberHeaderImgUrl":"//pic5.40017.cn/i/ori/PELe6f5TBC.jpg","mobile":"","productPriceDesc":"","servicePoint":"1","zanCount":"0","csReplyList":null,"dpImgUrl":[],"subList":[],"dpImpressionList":[],"DPPlusStatus":0,"DPLocation":""},{"commentType":"1","dpContent":"今天天气不错，带着一家老小参观一下好汉城！景色宜人，建筑雄伟！富有历史回味，挺好的，值得光临！","dpDate":"2017-02-26","dpGuid":"ae739746-6a12-4a78-b2d9-f0ea1ae28bdb","dpId":"ae739746-6a12-4a78-b2d9-f0ea1ae28bdb","DPItemId":"25794","DPItemName":"水浒好汉城","DPSite":"1","dpTripMode":"0","dpTripPurpose":"","DPUserLevel":"1","dpUserName":"小垒、","highLightColor":"","homeId":"","isElite":"0","isMyComments":"","isPraised":"0","lineAccess":"好评","markColor":"","memberGradeUrl":"","memberHeaderImgUrl":"//pic3.40017.cn/member/face/2017/02/24/15/Cxvx3p.jpg","mobile":"","productPriceDesc":"","servicePoint":"1","zanCount":"0","csReplyList":null,"dpImgUrl":[],"subList":[],"dpImpressionList":[],"DPPlusStatus":0,"DPLocation":""},{"commentType":"1","dpContent":"很实惠，到游客中心给开单子，拿单子就能进去，下雨居然还能看到演出，很好","dpDate":"2016-10-07","dpGuid":"3b86416e-3a18-4331-b8a9-4dd294d6373b","dpId":"3b86416e-3a18-4331-b8a9-4dd294d6373b","DPItemId":"25794","DPItemName":"水浒好汉城","DPSite":"1","dpTripMode":"0","dpTripPurpose":"","DPUserLevel":"1","dpUserName":"同程会员_8FFA90D1292","highLightColor":"","homeId":"","isElite":"0","isMyComments":"","isPraised":"0","lineAccess":"好评","markColor":"","memberGradeUrl":"","memberHeaderImgUrl":"https://pic5.40017.cn/i/ori/1difaMet93G.jpg","mobile":"","productPriceDesc":"","servicePoint":"1","zanCount":"0","csReplyList":null,"dpImgUrl":[],"subList":[],"dpImpressionList":[],"DPPlusStatus":0,"DPLocation":""},{"commentType":"1","dpContent":"去的有点晚，很多地方都关门了，所以等到晚上看灯了。晚上门票25，早知道不买白天的了","dpDate":"2016-10-06","dpGuid":"75605a1a-177b-42d5-ab39-9581f95c4b93","dpId":"75605a1a-177b-42d5-ab39-9581f95c4b93","DPItemId":"25794","DPItemName":"水浒好汉城","DPSite":"1","dpTripMode":"0","dpTripPurpose":"","DPUserLevel":"1","dpUserName":"堕落无痕","highLightColor":"","homeId":"","isElite":"0","isMyComments":"","isPraised":"0","lineAccess":"中评","markColor":"","memberGradeUrl":"","memberHeaderImgUrl":"https://pic5.40017.cn/i/ori/1difaMet93G.jpg","mobile":"","productPriceDesc":"","servicePoint":"2","zanCount":"0","csReplyList":null,"dpImgUrl":[],"subList":[],"dpImpressionList":[],"DPPlusStatus":0,"DPLocation":""},{"commentType":"2","dpContent":"还行吧，我们去的不是时候，没有表演看，不过看古代的建筑也挺好的","dpDate":"2012-05-01","dpGuid":"t-04b20702-a682-45a5-9451-ff1413c6ff79","dpId":"t-04b20702-a682-45a5-9451-ff1413c6ff79","DPItemId":"25794","DPItemName":"水浒好汉城","DPSite":"2","dpTripMode":"0","dpTripPurpose":"3,","DPUserLevel":"1","dpUserName":"135*****938","highLightColor":"","homeId":"","isElite":"0","isMyComments":"","isPraised":"0","lineAccess":"好评","markColor":"","memberGradeUrl":"","memberHeaderImgUrl":"//pic5.40017.cn/i/ori/PELe6f5TBC.jpg","mobile":"","productPriceDesc":"","servicePoint":"1","zanCount":"0","csReplyList":null,"dpImgUrl":[],"subList":[],"dpImpressionList":[],"DPPlusStatus":0,"DPLocation":""},{"commentType":"2","dpContent":"还不错，周围没有什么其他的景点，水浒城整的来说还是挺精致的。","dpDate":"2015-02-02","dpGuid":"t-a9b34594-d73b-4de7-a2dc-c7c6a675ae5b","dpId":"t-a9b34594-d73b-4de7-a2dc-c7c6a675ae5b","DPItemId":"25794","DPItemName":"水浒好汉城","DPSite":"2","dpTripMode":"3","dpTripPurpose":"3,","DPUserLevel":"1","dpUserName":"150axqmg942","highLightColor":"","homeId":"","isElite":"0","isMyComments":"","isPraised":"0","lineAccess":"好评","markColor":"","memberGradeUrl":"","memberHeaderImgUrl":"//pic3.40017.cn/member/face/2017/12/05/16/tcdefault.png","mobile":"","productPriceDesc":"","servicePoint":"1","zanCount":"0","csReplyList":null,"dpImgUrl":[],"subList":[],"dpImpressionList":[],"DPPlusStatus":0,"DPLocation":""},{"commentType":"1","dpContent":"景点随时购票，直接刷二维码入园，方便。就是网上购票没有优惠。","dpDate":"2019-05-07","dpGuid":"92cd88c1-2f64-467b-832e-e2ed047556d1","dpId":"92cd88c1-2f64-467b-832e-e2ed047556d1","DPItemId":"25794","DPItemName":"水浒好汉城","DPSite":"1","dpTripMode":"0","dpTripPurpose":"","DPUserLevel":"1","dpUserName":"会员半缘君","highLightColor":"","homeId":"","isElite":"0","isMyComments":"","isPraised":"0","lineAccess":"好评","markColor":"","memberGradeUrl":"","memberHeaderImgUrl":"//pic5.40017.cn/02/001/eb/df/rBANDFp8MgCAGexwAAKRq_nfA4I174.jpg","mobile":"","productPriceDesc":"","servicePoint":"1","zanCount":"0","csReplyList":null,"dpImgUrl":[],"subList":[],"dpImpressionList":[],"DPPlusStatus":0,"DPLocation":""},{"commentType":"1","dpContent":"还可以，总的来说有待改进，入口在宋江武校里面，找了半天才找到","dpDate":"2014-10-08","dpGuid":"t-61c1ce74-f23a-446f-9bf2-9dba2f396497","dpId":"t-61c1ce74-f23a-446f-9bf2-9dba2f396497","DPItemId":"25794","DPItemName":"水浒好汉城","DPSite":"1","dpTripMode":"1","dpTripPurpose":"4,","DPUserLevel":"2","dpUserName":"137*****686","highLightColor":"","homeId":"","isElite":"0","isMyComments":"","isPraised":"0","lineAccess":"好评","markColor":"","memberGradeUrl":"","memberHeaderImgUrl":"//pic5.40017.cn/i/ori/PELe6f5TBC.jpg","mobile":"","productPriceDesc":"","servicePoint":"1","zanCount":"0","csReplyList":null,"dpImgUrl":[],"subList":[],"dpImpressionList":[],"DPPlusStatus":0,"DPLocation":""},{"commentType":"1","dpContent":"五一期间，表演节目的挺多的，总之还是挺好的。","dpDate":"2019-05-10","dpGuid":"4e060e79-1bee-49ec-8677-32460e3bf8ba","dpId":"4e060e79-1bee-49ec-8677-32460e3bf8ba","DPItemId":"25794","DPItemName":"水浒好汉城","DPSite":"1","dpTripMode":"0","dpTripPurpose":"","DPUserLevel":"1","dpUserName":"海纳百川2015","highLightColor":"","homeId":"","isElite":"0","isMyComments":"","isPraised":"0","lineAccess":"好评","markColor":"","memberGradeUrl":"","memberHeaderImgUrl":"https://pic5.40017.cn/i/ori/1dhWb8X8neg.jpg","mobile":"","productPriceDesc":"","servicePoint":"1","zanCount":"0","csReplyList":null,"dpImgUrl":[],"subList":[],"dpImpressionList":[],"DPPlusStatus":3,"DPLocation":""}],"isShowConinsicon":0,"rulesContent":"","dpConinRemark":"","isCanEnter":0,"isCanDianPingBefore":0,"externalUrl":"","serviceScoreAvgList":[{"score":"10","serviceName":"同程服务"},{"score":"10","serviceName":"产品便捷"},{"score":"10","serviceName":"性价比"},{"score":"10","serviceName":"景区体验"}],"dpTagList":[{"tagColor":"","tagId":"1","tagName":"全部(539)","tagNum":"539","tagType":"","tagBorderColor":""},{"tagColor":"","tagId":"6","tagName":"最新(539)","tagNum":"539","tagType":"","tagBorderColor":""},{"tagColor":"","tagId":"2","tagName":"好评(448)","tagNum":"448","tagType":"","tagBorderColor":""},{"tagColor":"","tagId":"3","tagName":"中评(81)","tagNum":"81","tagType":"","tagBorderColor":""},{"tagColor":"","tagId":"4","tagName":"差评(10)","tagNum":"10","tagType":"","tagBorderColor":""},{"tagColor":"","tagId":"5","tagName":"有图(109)","tagNum":"109","tagType":"","tagBorderColor":""},{"tagColor":"","tagId":"15","tagName":"整体不错(37)","tagNum":"37","tagType":"","tagBorderColor":""},{"tagColor":"","tagId":"96","tagName":"设施齐全(22)","tagNum":"22","tagType":"","tagBorderColor":""},{"tagColor":"","tagId":"65","tagName":"环境好(8)","tagNum":"8","tagType":"","tagBorderColor":""},{"tagColor":"","tagId":"317","tagName":"风光好(7)","tagNum":"7","tagType":"","tagBorderColor":""},{"tagColor":"","tagId":"266","tagName":"地方不错(3)","tagNum":"3","tagType":"","tagBorderColor":""},{"tagColor":"","tagId":"111","tagName":"景色壮观(1)","tagNum":"1","tagType":"","tagBorderColor":""},{"tagColor":"","tagId":"39","tagName":"门票贵(7)","tagNum":"7","tagType":"","tagBorderColor":""},{"tagColor":"","tagId":"95","tagName":"设施旧(1)","tagNum":"1","tagType":"","tagBorderColor":""}],"dianpingInfo":[]}