{"isSuccess":1,"errorMsg":"","isCache":0,"pageInfo":{"page":23,"pageSize":10,"totalPage":54,"totalCount":539},"degreeLevel":"98","starNum":"4.2","totalNum":"539","goodNum":448,"midNum":81,"badNum":10,"hasImgNum":109,"dpList":[{"commentType":"1","dpContent":"还真不错，正好赶上结婚的，真结婚的！","dpDate":"2016-10-04","dpGuid":"9477ef5a-d635-43c6-8d15-c975fccbd319","dpId":"9477ef5a-d635-43c6-8d15-c975fccbd319","DPItemId":"25794","DPItemName":"水浒好汉城","DPSite":"1","dpTripMode":"0","dpTripPurpose":"","DPUserLevel":"1","dpUserName":"同程会员_E3B1AABE712","highLightColor":"","homeId":"","isElite":"0","isMyComments":"","isPraised":"0","lineAccess":"好评","markColor":"","memberGradeUrl":"","memberHeaderImgUrl":"//pic5.40017.cn/02/001/6f/43/rBLkCVm6TQeAZRlVAANs7NGe_Ds142.jpg","mobile":"","productPriceDesc":"","servicePoint":"1","zanCount":"0","csReplyList":null,"dpImgUrl":[{"imgUrl":"//pic4.40017.cn/scenery/comment/2016/10/04/13/utP7da.jpg","originalImgUrl":"//pic4.40017.cn/scenery/comment/2016/10/04/13/utP7da.jpg","smallImgUrl":"//pic4.40017.cn/scenery/comment/2016/10/04/13/utP7da_150x150_00.jpg"},{"imgUrl":"//pic4.40017.cn/scenery/comment/2016/10/04/13/H8Pt1k.jpg","originalImgUrl":"//pic4.40017.cn/scenery/comment/2016/10/04/13/H8Pt1k.jpg","smallImgUrl":"//pic4.40017.cn/scenery/comment/2016/10/04/13/H8Pt1k_150x150_00.jpg"},{"imgUrl":"//pic4.40017.cn/scenery/comment/2016/10/04/13/wrqUfX.jpg","originalImgUrl":"//pic4.40017.cn/scenery/comment/2016/10/04/13/wrqUfX.jpg","smallImgUrl":"//pic4.40017.cn/scenery/comment/2016/10/04/13/wrqUfX_150x150_00.jpg"},{"imgUrl":"//pic4.40017.cn/scenery/comment/2016/10/04/13/PbVwNJ.jpg","originalImgUrl":"//pic4.40017.cn/scenery/comment/2016/10/04/13/PbVwNJ.jpg","smallImgUrl":"//pic4.40017.cn/scenery/comment/2016/10/04/13/PbVwNJ_150x150_00.jpg"}],"subList":[],"dpImpressionList":[],"DPPlusStatus":0,"DPLocation":""},{"commentType":"1","dpContent":"还行吧，人不多，2小时能逛的挺全乎","dpDate":"2018-07-07","dpGuid":"e870a671-e996-47d0-80a0-8958f8a1a127","dpId":"e870a671-e996-47d0-80a0-8958f8a1a127","DPItemId":"25794","DPItemName":"水浒好汉城","DPSite":"1","dpTripMode":"0","dpTripPurpose":"","DPUserLevel":"1","dpUserName":"hailan海澜","highLightColor":"","homeId":"","isElite":"0","isMyComments":"","isPraised":"0","lineAccess":"好评","markColor":"","memberGradeUrl":"","memberHeaderImgUrl":"//pic3.40017.cn/member/face/2016/08/12/04/LJPta5.jpg","mobile":"","productPriceDesc":"","servicePoint":"1","zanCount":"0","csReplyList":null,"dpImgUrl":[{"imgUrl":"//pic5.40017.cn/02/000/4b/0a/rBLkCVtAoSCAYy8RAALTXuYj5qI281.jpg","originalImgUrl":"//pic5.40017.cn/02/000/4b/0a/rBLkCVtAoSCAYy8RAALTXuYj5qI281.jpg","smallImgUrl":"//pic5.40017.cn/02/000/4b/0a/rBLkCVtAoSCAYy8RAALTXuYj5qI281_150x150_00.jpg"},{"imgUrl":"//pic5.40017.cn/02/000/4b/0a/rBLkCFtAoSWAQxyqAAMf_Z-5FI4785.jpg","originalImgUrl":"//pic5.40017.cn/02/000/4b/0a/rBLkCFtAoSWAQxyqAAMf_Z-5FI4785.jpg","smallImgUrl":"//pic5.40017.cn/02/000/4b/0a/rBLkCFtAoSWAQxyqAAMf_Z-5FI4785_150x150_00.jpg"},{"imgUrl":"//pic5.40017.cn/02/001/4b/0a/rBLkCFtAoSmADOiMAALwauY_vqk709.jpg","originalImgUrl":"//pic5.40017.cn/02/001/4b/0a/rBLkCFtAoSmADOiMAALwauY_vqk709.jpg","smallImgUrl":"//pic5.40017.cn/02/001/4b/0a/rBLkCFtAoSmADOiMAALwauY_vqk709_150x150_00.jpg"},{"imgUrl":"//pic5.40017.cn/01/000/4a/8e/rBANC1tAoS-ABXyMAAT57Kr1eHU381.jpg","originalImgUrl":"//pic5.40017.cn/01/000/4a/8e/rBANC1tAoS-ABXyMAAT57Kr1eHU381.jpg","smallImgUrl":"//pic5.40017.cn/01/000/4a/8e/rBANC1tAoS-ABXyMAAT57Kr1eHU381_150x150_00.jpg"}],"subList":[],"dpImpressionList":[],"DPPlusStatus":3,"DPLocation":""},{"commentType":"1","dpContent":"感受一下水浒好汉的故事罢了。","dpDate":"2016-04-05","dpGuid":"bec7be69-2570-4331-885a-0cfcd0e3f212","dpId":"bec7be69-2570-4331-885a-0cfcd0e3f212","DPItemId":"25794","DPItemName":"水浒好汉城","DPSite":"1","dpTripMode":"0","dpTripPurpose":"","DPUserLevel":"2","dpUserName":"139****4369","highLightColor":"","homeId":"","isElite":"0","isMyComments":"","isPraised":"0","lineAccess":"中评","markColor":"","memberGradeUrl":"","memberHeaderImgUrl":"//upload.17u.com/uploadfile/2015/01/18/7/201501180648377844528.jpg","mobile":"","productPriceDesc":"","servicePoint":"2","zanCount":"0","csReplyList":[{"replyContent":"程程感谢您的点评，景区一直在努力，从未停止过，我们一起携手创造更美好游玩品质，欢迎您继续监督哟。\t<br>"}],"dpImgUrl":[{"imgUrl":"//pic4.40017.cn/scenery/comment/2016/04/05/16/vPRSyO.jpg","originalImgUrl":"//pic4.40017.cn/scenery/comment/2016/04/05/16/vPRSyO.jpg","smallImgUrl":"//pic4.40017.cn/scenery/comment/2016/04/05/16/vPRSyO_150x150_00.jpg"},{"imgUrl":"//pic4.40017.cn/scenery/comment/2016/04/05/16/P8XHOO.jpg","originalImgUrl":"//pic4.40017.cn/scenery/comment/2016/04/05/16/P8XHOO.jpg","smallImgUrl":"//pic4.40017.cn/scenery/comment/2016/04/05/16/P8XHOO_150x150_00.jpg"},{"imgUrl":"//pic4.40017.cn/scenery/comment/2016/04/05/16/BBMa5h.jpg","originalImgUrl":"//pic4.40017.cn/scenery/comment/2016/04/05/16/BBMa5h.jpg","smallImgUrl":"//pic4.40017.cn/scenery/comment/2016/04/05/16/BBMa5h_150x150_00.jpg"}],"subList":[],"dpImpressionList":[],"DPPlusStatus":0,"DPLocation":""},{"commentType":"1","dpContent":"里面美极了值得去参观游玩","dpDate":"2017-11-16","dpGuid":"ac33b4fe-a815-42d7-be3f-bbf3b6540fa4","dpId":"ac33b4fe-a815-42d7-be3f-bbf3b6540fa4","DPItemId":"25794","DPItemName":"水浒好汉城","DPSite":"1","dpTripMode":"0","dpTripPurpose":"","DPUserLevel":"1","dpUserName":"zmr198588","highLightColor":"","homeId":"","isElite":"0","isMyComments":"","isPraised":"0","lineAccess":"好评","markColor":"","memberGradeUrl":"","memberHeaderImgUrl":"//pic3.40017.cn/member/face/2017/01/23/09/gL6NNW.jpg","mobile":"","productPriceDesc":"","servicePoint":"1","zanCount":"0","csReplyList":null,"dpImgUrl":[],"subList":[],"dpImpressionList":[],"DPPlusStatus":0,"DPLocation":""},{"commentType":"1","dpContent":"还行，同程订票很方便，里面有些地方正在维修！","dpDate":"2015-04-18","dpGuid":"t-fe62d839-53bf-422e-b84a-aeb0b1b18349","dpId":"t-fe62d839-53bf-422e-b84a-aeb0b1b18349","DPItemId":"25794","DPItemName":"水浒好汉城","DPSite":"1","dpTripMode":"0","dpTripPurpose":"0,","DPUserLevel":"2","dpUserName":"0BB6B7EBDE3447D9","highLightColor":"","homeId":"","isElite":"0","isMyComments":"","isPraised":"0","lineAccess":"好评","markColor":"","memberGradeUrl":"","memberHeaderImgUrl":"//pic3.40017.cn/member/face/2017/12/05/16/tcdefault.png","mobile":"","productPriceDesc":"","servicePoint":"1","zanCount":"0","csReplyList":null,"dpImgUrl":[{"imgUrl":"//pic3.40017.cn/scenery/comment/2015/04/18/20/Sq02QV.jpg","originalImgUrl":"//pic3.40017.cn/scenery/comment/2015/04/18/20/Sq02QV.jpg","smallImgUrl":"//pic3.40017.cn/scenery/comment/2015/04/18/20/Sq02QV_150x150_00.jpg"},{"imgUrl":"//pic3.40017.cn/scenery/comment/2015/04/18/20/HuxCFD.jpg","originalImgUrl":"//pic3.40017.cn/scenery/comment/2015/04/18/20/HuxCFD.jpg","smallImgUrl":"//pic3.40017.cn/scenery/comment/2015/04/18/20/HuxCFD_150x150_00.jpg"},{"imgUrl":"//pic3.40017.cn/scenery/comment/2015/04/18/20/RluE3y.jpg","originalImgUrl":"//pic3.40017.cn/scenery/comment/2015/04/18/20/RluE3y.jpg","smallImgUrl":"//pic3.40017.cn/scenery/comment/2015/04/18/20/RluE3y_150x150_00.jpg"},{"imgUrl":"//pic3.40017.cn/scenery/comment/2015/04/18/20/bKk0VY.jpg","originalImgUrl":"//pic3.40017.cn/scenery/comment/2015/04/18/20/bKk0VY.jpg","smallImgUrl":"//pic3.40017.cn/scenery/comment/2015/04/18/20/bKk0VY_150x150_00.jpg"},{"imgUrl":"//pic3.40017.cn/scenery/comment/2015/04/18/20/srVuMS.jpg","originalImgUrl":"//pic3.40017.cn/scenery/comment/2015/04/18/20/srVuMS.jpg","smallImgUrl":"//pic3.40017.cn/scenery/comment/2015/04/18/20/srVuMS_150x150_00.jpg"}],"subList":[],"dpImpressionList":[],"DPPlusStatus":0,"DPLocation":""},{"commentType":"1","dpContent":"总体很好，感觉和梁山不一样，很有文化气息","dpDate":"2016-05-22","dpGuid":"374aaa52-b5db-4eee-951d-bc44ee6956e7","dpId":"374aaa52-b5db-4eee-951d-bc44ee6956e7","DPItemId":"25794","DPItemName":"水浒好汉城","DPSite":"1","dpTripMode":"0","dpTripPurpose":"","DPUserLevel":"2","dpUserName":"185****1100","highLightColor":"","homeId":"","isElite":"0","isMyComments":"","isPraised":"0","lineAccess":"好评","markColor":"","memberGradeUrl":"","memberHeaderImgUrl":"//pic3.40017.cn/member/face/2015/08/27/17/sHIVcY.png","mobile":"","productPriceDesc":"","servicePoint":"1","zanCount":"0","csReplyList":null,"dpImgUrl":[{"imgUrl":"//pic4.40017.cn/scenery/comment/2016/05/22/20/npdq0O.jpg","originalImgUrl":"//pic4.40017.cn/scenery/comment/2016/05/22/20/npdq0O.jpg","smallImgUrl":"//pic4.40017.cn/scenery/comment/2016/05/22/20/npdq0O_150x150_00.jpg"},{"imgUrl":"//pic4.40017.cn/scenery/comment/2016/05/22/20/9jsKaJ.jpg","originalImgUrl":"//pic4.40017.cn/scenery/comment/2016/05/22/20/9jsKaJ.jpg","smallImgUrl":"//pic4.40017.cn/scenery/comment/2016/05/22/20/9jsKaJ_150x150_00.jpg"},{"imgUrl":"//pic4.40017.cn/scenery/comment/2016/05/22/20/Y33YTH.jpg","originalImgUrl":"//pic4.40017.cn/scenery/comment/2016/05/22/20/Y33YTH.jpg","smallImgUrl":"//pic4.40017.cn/scenery/comment/2016/05/22/20/Y33YTH_150x150_00.jpg"}],"subList":[],"dpImpressionList":[],"DPPlusStatus":0,"DPLocation":""},{"commentType":"1","dpContent":"还不错，比东平水浒影视城好多了","dpDate":"2015-09-30","dpGuid":"26ab7875-b859-434c-b559-e85c66138ec0","dpId":"26ab7875-b859-434c-b559-e85c66138ec0","DPItemId":"25794","DPItemName":"水浒好汉城","DPSite":"1","dpTripMode":"0","dpTripPurpose":"","DPUserLevel":"1","dpUserName":"155****3875","highLightColor":"","homeId":"","isElite":"0","isMyComments":"","isPraised":"0","lineAccess":"好评","markColor":"","memberGradeUrl":"","memberHeaderImgUrl":"//pic3.40017.cn/member/face/2015/08/27/17/sHIVcY.png","mobile":"","productPriceDesc":"","servicePoint":"1","zanCount":"0","csReplyList":null,"dpImgUrl":[{"imgUrl":"//pic3.40017.cn/scenery/comment/2015/09/30/06/rPSwPS.jpg","originalImgUrl":"//pic3.40017.cn/scenery/comment/2015/09/30/06/rPSwPS.jpg","smallImgUrl":"//pic3.40017.cn/scenery/comment/2015/09/30/06/rPSwPS_150x150_00.jpg"},{"imgUrl":"//pic3.40017.cn/scenery/comment/2015/09/30/06/ACq9lY.jpg","originalImgUrl":"//pic3.40017.cn/scenery/comment/2015/09/30/06/ACq9lY.jpg","smallImgUrl":"//pic3.40017.cn/scenery/comment/2015/09/30/06/ACq9lY_150x150_00.jpg"},{"imgUrl":"//pic3.40017.cn/scenery/comment/2015/09/30/06/51LPQY.jpg","originalImgUrl":"//pic3.40017.cn/scenery/comment/2015/09/30/06/51LPQY.jpg","smallImgUrl":"//pic3.40017.cn/scenery/comment/2015/09/30/06/51LPQY_150x150_00.jpg"},{"imgUrl":"//pic3.40017.cn/scenery/comment/2015/09/30/06/W28gpN.jpg","originalImgUrl":"//pic3.40017.cn/scenery/comment/2015/09/30/06/W28gpN.jpg","smallImgUrl":"//pic3.40017.cn/scenery/comment/2015/09/30/06/W28gpN_150x150_00.jpg"},{"imgUrl":"//pic3.40017.cn/scenery/comment/2015/09/30/06/18hNki.jpg","originalImgUrl":"//pic3.40017.cn/scenery/comment/2015/09/30/06/18hNki.jpg","smallImgUrl":"//pic3.40017.cn/scenery/comment/2015/09/30/06/18hNki_150x150_00.jpg"},{"imgUrl":"//pic3.40017.cn/scenery/comment/2015/09/30/06/gS4sXt.jpg","originalImgUrl":"//pic3.40017.cn/scenery/comment/2015/09/30/06/gS4sXt.jpg","smallImgUrl":"//pic3.40017.cn/scenery/comment/2015/09/30/06/gS4sXt_150x150_00.jpg"}],"subList":[],"dpImpressionList":[],"DPPlusStatus":0,"DPLocation":""},{"commentType":"1","dpContent":"人文景观，不错的地方","dpDate":"2015-07-11","dpGuid":"t-211e14de-cb00-4b2e-a1ba-90b6f9fac866","dpId":"t-211e14de-cb00-4b2e-a1ba-90b6f9fac866","DPItemId":"25794","DPItemName":"水浒好汉城","DPSite":"1","dpTripMode":"0","dpTripPurpose":"8,","DPUserLevel":"2","dpUserName":"139*****969","highLightColor":"","homeId":"","isElite":"0","isMyComments":"","isPraised":"0","lineAccess":"好评","markColor":"","memberGradeUrl":"","memberHeaderImgUrl":"//pic5.40017.cn/i/ori/PELe6f5TBC.jpg","mobile":"","productPriceDesc":"","servicePoint":"1","zanCount":"0","csReplyList":null,"dpImgUrl":[{"imgUrl":"//pic3.40017.cn/scenery/comment/2015/07/11/13/1GoZho.jpg","originalImgUrl":"//pic3.40017.cn/scenery/comment/2015/07/11/13/1GoZho.jpg","smallImgUrl":"//pic3.40017.cn/scenery/comment/2015/07/11/13/1GoZho_150x150_00.jpg"},{"imgUrl":"//pic3.40017.cn/scenery/comment/2015/07/11/13/COocSC.jpg","originalImgUrl":"//pic3.40017.cn/scenery/comment/2015/07/11/13/COocSC.jpg","smallImgUrl":"//pic3.40017.cn/scenery/comment/2015/07/11/13/COocSC_150x150_00.jpg"},{"imgUrl":"//pic3.40017.cn/scenery/comment/2015/07/11/13/CW51Qo.jpg","originalImgUrl":"//pic3.40017.cn/scenery/comment/2015/07/11/13/CW51Qo.jpg","smallImgUrl":"//pic3.40017.cn/scenery/comment/2015/07/11/13/CW51Qo_150x150_00.jpg"}],"subList":[],"dpImpressionList":[],"DPPlusStatus":0,"DPLocation":""},{"commentType":"1","dpContent":"不错，和对象一起去的，很有那种时代感","dpDate":"2017-11-08","dpGuid":"41ee0b35-9e48-49e1-9417-95598ed4c52d","dpId":"41ee0b35-9e48-49e1-9417-95598ed4c52d","DPItemId":"25794","DPItemName":"水浒好汉城","DPSite":"1","dpTripMode":"0","dpTripPurpose":"","DPUserLevel":"1","dpUserName":"记得yes i do","highLightColor":"","homeId":"","isElite":"0","isMyComments":"","isPraised":"0","lineAccess":"好评","markColor":"","memberGradeUrl":"","memberHeaderImgUrl":"https://pic5.40017.cn/i/ori/1dhWb8X8neg.jpg","mobile":"","productPriceDesc":"","servicePoint":"1","zanCount":"0","csReplyList":null,"dpImgUrl":[{"imgUrl":"//pic5.40017.cn/02/001/5b/2d/rBANDFoC-bWAfPHeAAKnMEn46VE180.jpg","originalImgUrl":"//pic5.40017.cn/02/001/5b/2d/rBANDFoC-bWAfPHeAAKnMEn46VE180.jpg","smallImgUrl":"//pic5.40017.cn/02/001/5b/2d/rBANDFoC-bWAfPHeAAKnMEn46VE180_150x150_00.jpg"},{"imgUrl":"//pic5.40017.cn/01/001/5b/53/rBLkBloC-bWABlqsAAFahEFeX0U900.jpg","originalImgUrl":"//pic5.40017.cn/01/001/5b/53/rBLkBloC-bWABlqsAAFahEFeX0U900.jpg","smallImgUrl":"//pic5.40017.cn/01/001/5b/53/rBLkBloC-bWABlqsAAFahEFeX0U900_150x150_00.jpg"}],"subList":[],"dpImpressionList":[],"DPPlusStatus":0,"DPLocation":""},{"commentType":"1","dpContent":"时间紧了点，匆匆转了一圈，一般情况","dpDate":"2018-04-29","dpGuid":"7d8870b5-1358-4bad-8adb-a4e6d4e92d67","dpId":"7d8870b5-1358-4bad-8adb-a4e6d4e92d67","DPItemId":"25794","DPItemName":"水浒好汉城","DPSite":"1","dpTripMode":"0","dpTripPurpose":"","DPUserLevel":"2","dpUserName":"微微一笑001","highLightColor":"","homeId":"","isElite":"0","isMyComments":"","isPraised":"0","lineAccess":"中评","markColor":"","memberGradeUrl":"","memberHeaderImgUrl":"//pic5.40017.cn/04/002/05/0a/rBTJU142FzuAfqALAAGKSBaErCg999.jpg","mobile":"","productPriceDesc":"","servicePoint":"2","zanCount":"0","csReplyList":null,"dpImgUrl":[{"imgUrl":"//pic5.40017.cn/02/000/be/1c/rBLkCVrlo8iAFuziAAQmLk3RLIQ300.jpg","originalImgUrl":"//pic5.40017.cn/02/000/be/1c/rBLkCVrlo8iAFuziAAQmLk3RLIQ300.jpg","smallImgUrl":"//pic5.40017.cn/02/000/be/1c/rBLkCVrlo8iAFuziAAQmLk3RLIQ300_150x150_00.jpg"},{"imgUrl":"//pic5.40017.cn/01/000/be/15/rBLkBVrlo86AWGyaAASIjc_JLUM159.jpg","originalImgUrl":"//pic5.40017.cn/01/000/be/15/rBLkBVrlo86AWGyaAASIjc_JLUM159.jpg","smallImgUrl":"//pic5.40017.cn/01/000/be/15/rBLkBVrlo86AWGyaAASIjc_JLUM159_150x150_00.jpg"},{"imgUrl":"//pic5.40017.cn/02/001/bd/91/rBANDFrlo9KABe05AANVVmXjzDw121.jpg","originalImgUrl":"//pic5.40017.cn/02/001/bd/91/rBANDFrlo9KABe05AANVVmXjzDw121.jpg","smallImgUrl":"//pic5.40017.cn/02/001/bd/91/rBANDFrlo9KABe05AANVVmXjzDw121_150x150_00.jpg"},{"imgUrl":"//pic5.40017.cn/02/001/bd/91/rBANDFrlo9mABaK9AAT5IDFj5Zc822.jpg","originalImgUrl":"//pic5.40017.cn/02/001/bd/91/rBANDFrlo9mABaK9AAT5IDFj5Zc822.jpg","smallImgUrl":"//pic5.40017.cn/02/001/bd/91/rBANDFrlo9mABaK9AAT5IDFj5Zc822_150x150_00.jpg"},{"imgUrl":"//pic5.40017.cn/02/001/be/1c/rBLkCVrlo96AUZWcAAQ21VeFoUQ344.jpg","originalImgUrl":"//pic5.40017.cn/02/001/be/1c/rBLkCVrlo96AUZWcAAQ21VeFoUQ344.jpg","smallImgUrl":"//pic5.40017.cn/02/001/be/1c/rBLkCVrlo96AUZWcAAQ21VeFoUQ344_150x150_00.jpg"},{"imgUrl":"//pic5.40017.cn/02/001/be/1c/rBLkCVrlo-WAIFQcAAUyftesNTc878.jpg","originalImgUrl":"//pic5.40017.cn/02/001/be/1c/rBLkCVrlo-WAIFQcAAUyftesNTc878.jpg","smallImgUrl":"//pic5.40017.cn/02/001/be/1c/rBLkCVrlo-WAIFQcAAUyftesNTc878_150x150_00.jpg"},{"imgUrl":"//pic5.40017.cn/01/000/be/15/rBLkBlrlo_GAehu9AAhC-iqaF8g744.jpg","originalImgUrl":"//pic5.40017.cn/01/000/be/15/rBLkBlrlo_GAehu9AAhC-iqaF8g744.jpg","smallImgUrl":"//pic5.40017.cn/01/000/be/15/rBLkBlrlo_GAehu9AAhC-iqaF8g744_150x150_00.jpg"},{"imgUrl":"//pic5.40017.cn/01/001/be/15/rBLkBVrlo_qAVaoXAAfzEGbpyGk075.jpg","originalImgUrl":"//pic5.40017.cn/01/001/be/15/rBLkBVrlo_qAVaoXAAfzEGbpyGk075.jpg","smallImgUrl":"//pic5.40017.cn/01/001/be/15/rBLkBVrlo_qAVaoXAAfzEGbpyGk075_150x150_00.jpg"},{"imgUrl":"//pic5.40017.cn/01/000/be/15/rBLkBVrlpAKAFPvMAANPuZGpq2w235.jpg","originalImgUrl":"//pic5.40017.cn/01/000/be/15/rBLkBVrlpAKAFPvMAANPuZGpq2w235.jpg","smallImgUrl":"//pic5.40017.cn/01/000/be/15/rBLkBVrlpAKAFPvMAANPuZGpq2w235_150x150_00.jpg"}],"subList":[],"dpImpressionList":[],"DPPlusStatus":2,"DPLocation":""}],"isShowConinsicon":0,"rulesContent":"","dpConinRemark":"","isCanEnter":0,"isCanDianPingBefore":0,"externalUrl":"","serviceScoreAvgList":[{"score":"10","serviceName":"同程服务"},{"score":"10","serviceName":"产品便捷"},{"score":"10","serviceName":"性价比"},{"score":"10","serviceName":"景区体验"}],"dpTagList":[{"tagColor":"","tagId":"1","tagName":"全部(539)","tagNum":"539","tagType":"","tagBorderColor":""},{"tagColor":"","tagId":"6","tagName":"最新(539)","tagNum":"539","tagType":"","tagBorderColor":""},{"tagColor":"","tagId":"2","tagName":"好评(448)","tagNum":"448","tagType":"","tagBorderColor":""},{"tagColor":"","tagId":"3","tagName":"中评(81)","tagNum":"81","tagType":"","tagBorderColor":""},{"tagColor":"","tagId":"4","tagName":"差评(10)","tagNum":"10","tagType":"","tagBorderColor":""},{"tagColor":"","tagId":"5","tagName":"有图(109)","tagNum":"109","tagType":"","tagBorderColor":""},{"tagColor":"","tagId":"15","tagName":"整体不错(37)","tagNum":"37","tagType":"","tagBorderColor":""},{"tagColor":"","tagId":"96","tagName":"设施齐全(22)","tagNum":"22","tagType":"","tagBorderColor":""},{"tagColor":"","tagId":"65","tagName":"环境好(8)","tagNum":"8","tagType":"","tagBorderColor":""},{"tagColor":"","tagId":"317","tagName":"风光好(7)","tagNum":"7","tagType":"","tagBorderColor":""},{"tagColor":"","tagId":"266","tagName":"地方不错(3)","tagNum":"3","tagType":"","tagBorderColor":""},{"tagColor":"","tagId":"111","tagName":"景色壮观(1)","tagNum":"1","tagType":"","tagBorderColor":""},{"tagColor":"","tagId":"39","tagName":"门票贵(7)","tagNum":"7","tagType":"","tagBorderColor":""},{"tagColor":"","tagId":"95","tagName":"设施旧(1)","tagNum":"1","tagType":"","tagBorderColor":""}],"dianpingInfo":[]}