{"isSuccess":1,"errorMsg":"","isCache":0,"pageInfo":{"page":2,"pageSize":10,"totalPage":54,"totalCount":539},"degreeLevel":"98","starNum":"4.2","totalNum":"539","goodNum":448,"midNum":81,"badNum":10,"hasImgNum":109,"dpList":[{"commentType":"1","dpContent":"啥也没有吧，城里的小吃店一家开业的都没有，里面空旷，非常冷，毫无体验！","dpDate":"2023-01-13","dpGuid":"a891ab6e-05f2-407b-b62c-f527c11f3775","dpId":"a891ab6e-05f2-407b-b62c-f527c11f3775","DPItemId":"25794","DPItemName":"水浒好汉城","DPSite":"1","dpTripMode":"0","dpTripPurpose":"","DPUserLevel":"2","dpUserName":"老肩巨滑","highLightColor":"","homeId":"","isElite":"0","isMyComments":"","isPraised":"0","lineAccess":"差评","markColor":"","memberGradeUrl":"","memberHeaderImgUrl":"//pic5.40017.cn/i/ori/1aWjjpn6P3q.jpg","mobile":"","productPriceDesc":"","servicePoint":"3","zanCount":"0","csReplyList":[{"replyContent":"尊敬的客户您好，感谢您选择同程产品，同程收到您反馈的问题，我们这边已经与相关部门去核实处理了，给您带来不好体验，我们在此对您深表歉意。"}],"dpImgUrl":[{"imgUrl":"//pic5.40017.cn/i/ori/1gyIn2VtbMc.jpg","originalImgUrl":"//pic5.40017.cn/i/ori/1gyIn2VtbMc.jpg","smallImgUrl":"//pic5.40017.cn/i/ori/1gyIn2VtbMc_150x150_00.jpg"},{"imgUrl":"//pic5.40017.cn/i/ori/1gyIn6zHvvG.jpg","originalImgUrl":"//pic5.40017.cn/i/ori/1gyIn6zHvvG.jpg","smallImgUrl":"//pic5.40017.cn/i/ori/1gyIn6zHvvG_150x150_00.jpg"}],"subList":[],"dpImpressionList":[],"DPPlusStatus":0,"DPLocation":"山东"},{"commentType":"2","dpContent":"还是不错的 地方也不小 和孩子逛了好大会 不过没有等下午的演出就出来了 不过没有导游讲解 也就是走马观花 照了好多照片 挺不错 同程优惠了好多好多","dpDate":"2016-10-03","dpGuid":"5f04f0d5-42c7-4f28-ba90-3eb8e07569ce","dpId":"5f04f0d5-42c7-4f28-ba90-3eb8e07569ce","DPItemId":"25794","DPItemName":"水浒好汉城","DPSite":"2","dpTripMode":"3","dpTripPurpose":"2,","DPUserLevel":"1","dpUserName":"杯子暖暖","highLightColor":"","homeId":"","isElite":"0","isMyComments":"","isPraised":"0","lineAccess":"好评","markColor":"","memberGradeUrl":"","memberHeaderImgUrl":"//pic5.40017.cn/02/001/a3/7f/rBANDFmUTyCAI6MBAAM2raBGaPc853.jpg","mobile":"","productPriceDesc":"","servicePoint":"1","zanCount":"2","csReplyList":null,"dpImgUrl":[{"imgUrl":"//pic4.40017.cn/scenery/comment/2016/10/03/19/djrrv3.jpg","originalImgUrl":"//pic4.40017.cn/scenery/comment/2016/10/03/19/djrrv3.jpg","smallImgUrl":"//pic4.40017.cn/scenery/comment/2016/10/03/19/djrrv3_150x150_00.jpg"},{"imgUrl":"//pic4.40017.cn/scenery/comment/2016/10/03/19/A45hDP.jpg","originalImgUrl":"//pic4.40017.cn/scenery/comment/2016/10/03/19/A45hDP.jpg","smallImgUrl":"//pic4.40017.cn/scenery/comment/2016/10/03/19/A45hDP_150x150_00.jpg"},{"imgUrl":"//pic4.40017.cn/scenery/comment/2016/10/03/19/vFzhQ1.jpg","originalImgUrl":"//pic4.40017.cn/scenery/comment/2016/10/03/19/vFzhQ1.jpg","smallImgUrl":"//pic4.40017.cn/scenery/comment/2016/10/03/19/vFzhQ1_150x150_00.jpg"},{"imgUrl":"//pic4.40017.cn/scenery/comment/2016/10/03/19/oxx5T6.jpg","originalImgUrl":"//pic4.40017.cn/scenery/comment/2016/10/03/19/oxx5T6.jpg","smallImgUrl":"//pic4.40017.cn/scenery/comment/2016/10/03/19/oxx5T6_150x150_00.jpg"},{"imgUrl":"//pic4.40017.cn/scenery/comment/2016/10/03/19/fKImGl.jpg","originalImgUrl":"//pic4.40017.cn/scenery/comment/2016/10/03/19/fKImGl.jpg","smallImgUrl":"//pic4.40017.cn/scenery/comment/2016/10/03/19/fKImGl_150x150_00.jpg"},{"imgUrl":"//pic4.40017.cn/scenery/comment/2016/10/03/19/xUi2IH.jpg","originalImgUrl":"//pic4.40017.cn/scenery/comment/2016/10/03/19/xUi2IH.jpg","smallImgUrl":"//pic4.40017.cn/scenery/comment/2016/10/03/19/xUi2IH_150x150_00.jpg"},{"imgUrl":"//pic4.40017.cn/scenery/comment/2016/10/03/19/zbGwbg.jpg","originalImgUrl":"//pic4.40017.cn/scenery/comment/2016/10/03/19/zbGwbg.jpg","smallImgUrl":"//pic4.40017.cn/scenery/comment/2016/10/03/19/zbGwbg_150x150_00.jpg"},{"imgUrl":"//pic4.40017.cn/scenery/comment/2016/10/03/19/qr07Vw.jpg","originalImgUrl":"//pic4.40017.cn/scenery/comment/2016/10/03/19/qr07Vw.jpg","smallImgUrl":"//pic4.40017.cn/scenery/comment/2016/10/03/19/qr07Vw_150x150_00.jpg"},{"imgUrl":"//pic4.40017.cn/scenery/comment/2016/10/03/19/QykhIV.jpg","originalImgUrl":"//pic4.40017.cn/scenery/comment/2016/10/03/19/QykhIV.jpg","smallImgUrl":"//pic4.40017.cn/scenery/comment/2016/10/03/19/QykhIV_150x150_00.jpg"},{"imgUrl":"//pic4.40017.cn/scenery/comment/2016/10/03/19/WyvHTf.jpg","originalImgUrl":"//pic4.40017.cn/scenery/comment/2016/10/03/19/WyvHTf.jpg","smallImgUrl":"//pic4.40017.cn/scenery/comment/2016/10/03/19/WyvHTf_150x150_00.jpg"}],"subList":[],"dpImpressionList":[],"DPPlusStatus":0,"DPLocation":""},{"commentType":"1","dpContent":"同程购票，景区售票处取票很方便。景区适合半日游玩，2个小时能逛完。对水浒有感觉的人看看是另一种情怀。","dpDate":"2018-04-22","dpGuid":"6627c77e-9770-491f-8b6b-50f1c988c294","dpId":"6627c77e-9770-491f-8b6b-50f1c988c294","DPItemId":"25794","DPItemName":"水浒好汉城","DPSite":"1","dpTripMode":"0","dpTripPurpose":"","DPUserLevel":"1","dpUserName":"4ADE8EF76A537EA8","highLightColor":"","homeId":"","isElite":"0","isMyComments":"","isPraised":"0","lineAccess":"好评","markColor":"","memberGradeUrl":"","memberHeaderImgUrl":"https://pic5.40017.cn/i/ori/1dhWb8X8neg.jpg","mobile":"","productPriceDesc":"","servicePoint":"1","zanCount":"0","csReplyList":null,"dpImgUrl":[{"imgUrl":"//pic5.40017.cn/02/001/b0/58/rBLkCVrb2XiAbvQaAAXmWJVXJZU875.jpg","originalImgUrl":"//pic5.40017.cn/02/001/b0/58/rBLkCVrb2XiAbvQaAAXmWJVXJZU875.jpg","smallImgUrl":"//pic5.40017.cn/02/001/b0/58/rBLkCVrb2XiAbvQaAAXmWJVXJZU875_150x150_00.jpg"},{"imgUrl":"//pic5.40017.cn/01/001/b0/50/rBLkBVrb2XmAC-sNAAPEtUpCqkw479.jpg","originalImgUrl":"//pic5.40017.cn/01/001/b0/50/rBLkBVrb2XmAC-sNAAPEtUpCqkw479.jpg","smallImgUrl":"//pic5.40017.cn/01/001/b0/50/rBLkBVrb2XmAC-sNAAPEtUpCqkw479_150x150_00.jpg"},{"imgUrl":"//pic5.40017.cn/02/000/b0/58/rBLkCVrb2XqAEBX8AAWHllbhdRc578.jpg","originalImgUrl":"//pic5.40017.cn/02/000/b0/58/rBLkCVrb2XqAEBX8AAWHllbhdRc578.jpg","smallImgUrl":"//pic5.40017.cn/02/000/b0/58/rBLkCVrb2XqAEBX8AAWHllbhdRc578_150x150_00.jpg"},{"imgUrl":"//pic5.40017.cn/02/000/b0/58/rBLkCVrb2XuASP86AARjmm1vVsM739.jpg","originalImgUrl":"//pic5.40017.cn/02/000/b0/58/rBLkCVrb2XuASP86AARjmm1vVsM739.jpg","smallImgUrl":"//pic5.40017.cn/02/000/b0/58/rBLkCVrb2XuASP86AARjmm1vVsM739_150x150_00.jpg"},{"imgUrl":"//pic5.40017.cn/02/001/af/cc/rBANDFrb2X2AakqeAAYZA3c4-0M067.jpg","originalImgUrl":"//pic5.40017.cn/02/001/af/cc/rBANDFrb2X2AakqeAAYZA3c4-0M067.jpg","smallImgUrl":"//pic5.40017.cn/02/001/af/cc/rBANDFrb2X2AakqeAAYZA3c4-0M067_150x150_00.jpg"},{"imgUrl":"//pic5.40017.cn/01/001/b0/50/rBLkBVrb2X6ASV9jAAXW937hgBM268.jpg","originalImgUrl":"//pic5.40017.cn/01/001/b0/50/rBLkBVrb2X6ASV9jAAXW937hgBM268.jpg","smallImgUrl":"//pic5.40017.cn/01/001/b0/50/rBLkBVrb2X6ASV9jAAXW937hgBM268_150x150_00.jpg"},{"imgUrl":"//pic5.40017.cn/01/001/af/dc/rBANC1rb2X-AXrWcAAWNIgU_L3E675.jpg","originalImgUrl":"//pic5.40017.cn/01/001/af/dc/rBANC1rb2X-AXrWcAAWNIgU_L3E675.jpg","smallImgUrl":"//pic5.40017.cn/01/001/af/dc/rBANC1rb2X-AXrWcAAWNIgU_L3E675_150x150_00.jpg"},{"imgUrl":"//pic5.40017.cn/01/000/b0/50/rBLkBVrb2YGAGUzwAAaeeMu9tR8880.jpg","originalImgUrl":"//pic5.40017.cn/01/000/b0/50/rBLkBVrb2YGAGUzwAAaeeMu9tR8880.jpg","smallImgUrl":"//pic5.40017.cn/01/000/b0/50/rBLkBVrb2YGAGUzwAAaeeMu9tR8880_150x150_00.jpg"},{"imgUrl":"//pic5.40017.cn/01/000/af/dc/rBANC1rb2YKAElw0AAbQpgHoGw4959.jpg","originalImgUrl":"//pic5.40017.cn/01/000/af/dc/rBANC1rb2YKAElw0AAbQpgHoGw4959.jpg","smallImgUrl":"//pic5.40017.cn/01/000/af/dc/rBANC1rb2YKAElw0AAbQpgHoGw4959_150x150_00.jpg"},{"imgUrl":"//pic5.40017.cn/01/001/b0/50/rBLkBVrb2YOAJs-HAANnEsIgPJU348.jpg","originalImgUrl":"//pic5.40017.cn/01/001/b0/50/rBLkBVrb2YOAJs-HAANnEsIgPJU348.jpg","smallImgUrl":"//pic5.40017.cn/01/001/b0/50/rBLkBVrb2YOAJs-HAANnEsIgPJU348_150x150_00.jpg"}],"subList":[],"dpImpressionList":[],"DPPlusStatus":3,"DPLocation":""},{"commentType":"1","dpContent":"景区不大，但是比我想象中好玩，本来想以为一个多小时就可以出来，结果在里面三个小时，还有节目可以看！买票时还送可宋江湖门票，拿着票可以免费坐船，还可以打那个水上的高尔夫，还是不错的！不虚此行！","dpDate":"2017-10-10","dpGuid":"6e88ef13-40d4-4356-a8db-058f1ed2b57f","dpId":"6e88ef13-40d4-4356-a8db-058f1ed2b57f","DPItemId":"25794","DPItemName":"水浒好汉城","DPSite":"1","dpTripMode":"0","dpTripPurpose":"","DPUserLevel":"3","dpUserName":"6D1ED223508C5EB5","highLightColor":"","homeId":"","isElite":"0","isMyComments":"","isPraised":"0","lineAccess":"好评","markColor":"","memberGradeUrl":"","memberHeaderImgUrl":"https://pic5.40017.cn/i/ori/1dhW3XOpwZ2.jpg","mobile":"","productPriceDesc":"","servicePoint":"1","zanCount":"1","csReplyList":null,"dpImgUrl":[{"imgUrl":"//pic5.40017.cn/01/001/e1/0e/rBANC1ncxJaAIk0iAAhdeVZFONw438.jpg","originalImgUrl":"//pic5.40017.cn/01/001/e1/0e/rBANC1ncxJaAIk0iAAhdeVZFONw438.jpg","smallImgUrl":"//pic5.40017.cn/01/001/e1/0e/rBANC1ncxJaAIk0iAAhdeVZFONw438_150x150_00.jpg"},{"imgUrl":"//pic5.40017.cn/02/001/e1/5d/rBLkCVncxJeAXIe-AAKZ0GITd_I481.jpg","originalImgUrl":"//pic5.40017.cn/02/001/e1/5d/rBLkCVncxJeAXIe-AAKZ0GITd_I481.jpg","smallImgUrl":"//pic5.40017.cn/02/001/e1/5d/rBLkCVncxJeAXIe-AAKZ0GITd_I481_150x150_00.jpg"},{"imgUrl":"//pic5.40017.cn/01/000/e1/83/rBLkBVncxJeAQmgwAALZ-6SThC8766.jpg","originalImgUrl":"//pic5.40017.cn/01/000/e1/83/rBLkBVncxJeAQmgwAALZ-6SThC8766.jpg","smallImgUrl":"//pic5.40017.cn/01/000/e1/83/rBLkBVncxJeAQmgwAALZ-6SThC8766_150x150_00.jpg"}],"subList":[],"dpImpressionList":[],"DPPlusStatus":0,"DPLocation":""},{"commentType":"1","dpContent":"真的不错！精致！我们是下午去的，有点热。但也比不了我的心情！古建筑群有南方的、北方的，并且全都相通，还可以上楼！没有其它景区那么多的规矩，就象是自已家一样，哪儿都可以去！地下3d也很不错，孩子喜欢！","dpDate":"2015-04-28","dpGuid":"t-84742f52-b56e-4125-b9b4-963c88f6511f","dpId":"t-84742f52-b56e-4125-b9b4-963c88f6511f","DPItemId":"25794","DPItemName":"水浒好汉城","DPSite":"1","dpTripMode":"0","dpTripPurpose":"0,","DPUserLevel":"1","dpUserName":"爱空思梦","highLightColor":"","homeId":"","isElite":"0","isMyComments":"","isPraised":"0","lineAccess":"好评","markColor":"","memberGradeUrl":"","memberHeaderImgUrl":"//pic3.40017.cn/member/face/2015/08/27/13/NP4RR6.jpg","mobile":"","productPriceDesc":"","servicePoint":"1","zanCount":"1","csReplyList":null,"dpImgUrl":[{"imgUrl":"//pic3.40017.cn/scenery/comment/2015/04/28/10/VrWZk7.jpg","originalImgUrl":"//pic3.40017.cn/scenery/comment/2015/04/28/10/VrWZk7.jpg","smallImgUrl":"//pic3.40017.cn/scenery/comment/2015/04/28/10/VrWZk7_150x150_00.jpg"},{"imgUrl":"//pic3.40017.cn/scenery/comment/2015/04/28/10/AeDl0x.jpg","originalImgUrl":"//pic3.40017.cn/scenery/comment/2015/04/28/10/AeDl0x.jpg","smallImgUrl":"//pic3.40017.cn/scenery/comment/2015/04/28/10/AeDl0x_150x150_00.jpg"},{"imgUrl":"//pic3.40017.cn/scenery/comment/2015/04/28/10/7VR5tC.jpg","originalImgUrl":"//pic3.40017.cn/scenery/comment/2015/04/28/10/7VR5tC.jpg","smallImgUrl":"//pic3.40017.cn/scenery/comment/2015/04/28/10/7VR5tC_150x150_00.jpg"},{"imgUrl":"//pic3.40017.cn/scenery/comment/2015/04/28/10/HJF5EC.jpg","originalImgUrl":"//pic3.40017.cn/scenery/comment/2015/04/28/10/HJF5EC.jpg","smallImgUrl":"//pic3.40017.cn/scenery/comment/2015/04/28/10/HJF5EC_150x150_00.jpg"},{"imgUrl":"//pic3.40017.cn/scenery/comment/2015/04/28/10/SIVhfL.jpg","originalImgUrl":"//pic3.40017.cn/scenery/comment/2015/04/28/10/SIVhfL.jpg","smallImgUrl":"//pic3.40017.cn/scenery/comment/2015/04/28/10/SIVhfL_150x150_00.jpg"},{"imgUrl":"//pic3.40017.cn/scenery/comment/2015/04/28/10/OsxPEw.jpg","originalImgUrl":"//pic3.40017.cn/scenery/comment/2015/04/28/10/OsxPEw.jpg","smallImgUrl":"//pic3.40017.cn/scenery/comment/2015/04/28/10/OsxPEw_150x150_00.jpg"},{"imgUrl":"//pic3.40017.cn/scenery/comment/2015/04/28/10/NHoIsz.jpg","originalImgUrl":"//pic3.40017.cn/scenery/comment/2015/04/28/10/NHoIsz.jpg","smallImgUrl":"//pic3.40017.cn/scenery/comment/2015/04/28/10/NHoIsz_150x150_00.jpg"},{"imgUrl":"//pic3.40017.cn/scenery/comment/2015/04/28/10/mwAgmt.jpg","originalImgUrl":"//pic3.40017.cn/scenery/comment/2015/04/28/10/mwAgmt.jpg","smallImgUrl":"//pic3.40017.cn/scenery/comment/2015/04/28/10/mwAgmt_150x150_00.jpg"},{"imgUrl":"//pic3.40017.cn/scenery/comment/2015/04/28/10/Ah3tap.jpg","originalImgUrl":"//pic3.40017.cn/scenery/comment/2015/04/28/10/Ah3tap.jpg","smallImgUrl":"//pic3.40017.cn/scenery/comment/2015/04/28/10/Ah3tap_150x150_00.jpg"},{"imgUrl":"//pic3.40017.cn/scenery/comment/2015/04/28/10/EVuJT7.jpg","originalImgUrl":"//pic3.40017.cn/scenery/comment/2015/04/28/10/EVuJT7.jpg","smallImgUrl":"//pic3.40017.cn/scenery/comment/2015/04/28/10/EVuJT7_150x150_00.jpg"}],"subList":[],"dpImpressionList":[],"DPPlusStatus":0,"DPLocation":""},{"commentType":"1","dpContent":"昨天去的，满怀着心喜去的，也许是天气的原因，人也不多，都没有玩的心情了，景点还不错，","dpDate":"2015-07-21","dpGuid":"t-fab043e1-5fb7-4931-b3a0-acbf94e78239","dpId":"t-fab043e1-5fb7-4931-b3a0-acbf94e78239","DPItemId":"25794","DPItemName":"水浒好汉城","DPSite":"1","dpTripMode":"0","dpTripPurpose":"8,","DPUserLevel":"1","dpUserName":"187*****520","highLightColor":"","homeId":"","isElite":"0","isMyComments":"","isPraised":"0","lineAccess":"中评","markColor":"","memberGradeUrl":"","memberHeaderImgUrl":"//pic5.40017.cn/i/ori/PELe6f5TBC.jpg","mobile":"","productPriceDesc":"","servicePoint":"2","zanCount":"4","csReplyList":null,"dpImgUrl":[{"imgUrl":"//pic3.40017.cn/scenery/comment/2015/07/21/07/UE14nb.jpg","originalImgUrl":"//pic3.40017.cn/scenery/comment/2015/07/21/07/UE14nb.jpg","smallImgUrl":"//pic3.40017.cn/scenery/comment/2015/07/21/07/UE14nb_150x150_00.jpg"},{"imgUrl":"//pic3.40017.cn/scenery/comment/2015/07/21/07/glTrgK.jpg","originalImgUrl":"//pic3.40017.cn/scenery/comment/2015/07/21/07/glTrgK.jpg","smallImgUrl":"//pic3.40017.cn/scenery/comment/2015/07/21/07/glTrgK_150x150_00.jpg"},{"imgUrl":"//pic3.40017.cn/scenery/comment/2015/07/21/07/2ZHWJz.jpg","originalImgUrl":"//pic3.40017.cn/scenery/comment/2015/07/21/07/2ZHWJz.jpg","smallImgUrl":"//pic3.40017.cn/scenery/comment/2015/07/21/07/2ZHWJz_150x150_00.jpg"},{"imgUrl":"//pic3.40017.cn/scenery/comment/2015/07/21/07/qdwvDg.jpg","originalImgUrl":"//pic3.40017.cn/scenery/comment/2015/07/21/07/qdwvDg.jpg","smallImgUrl":"//pic3.40017.cn/scenery/comment/2015/07/21/07/qdwvDg_150x150_00.jpg"},{"imgUrl":"//pic3.40017.cn/scenery/comment/2015/07/21/07/i6pczn.jpg","originalImgUrl":"//pic3.40017.cn/scenery/comment/2015/07/21/07/i6pczn.jpg","smallImgUrl":"//pic3.40017.cn/scenery/comment/2015/07/21/07/i6pczn_150x150_00.jpg"}],"subList":[],"dpImpressionList":[],"DPPlusStatus":0,"DPLocation":""},{"commentType":"1","dpContent":"演员非常敬业，音响和烟火效果逼真，场景很震撼，值得来看。同程订票35元的价格，物有所值。","dpDate":"2016-12-14","dpGuid":"97d73ce2-0d67-4769-9aef-e287a39786c5","dpId":"97d73ce2-0d67-4769-9aef-e287a39786c5","DPItemId":"25794","DPItemName":"水浒好汉城","DPSite":"1","dpTripMode":"0","dpTripPurpose":"","DPUserLevel":"1","dpUserName":"同程会员_336DEC81B93","highLightColor":"","homeId":"","isElite":"0","isMyComments":"","isPraised":"0","lineAccess":"好评","markColor":"","memberGradeUrl":"","memberHeaderImgUrl":"//pic3.40017.cn/member/face/2016/12/07/23/asMq71.jpg","mobile":"","productPriceDesc":"","servicePoint":"1","zanCount":"1","csReplyList":null,"dpImgUrl":[{"imgUrl":"//pic4.40017.cn/scenery/comment/2016/12/14/23/vdMQHm.jpg","originalImgUrl":"//pic4.40017.cn/scenery/comment/2016/12/14/23/vdMQHm.jpg","smallImgUrl":"//pic4.40017.cn/scenery/comment/2016/12/14/23/vdMQHm_150x150_00.jpg"},{"imgUrl":"//pic4.40017.cn/scenery/comment/2016/12/14/23/DH0Ws7.jpg","originalImgUrl":"//pic4.40017.cn/scenery/comment/2016/12/14/23/DH0Ws7.jpg","smallImgUrl":"//pic4.40017.cn/scenery/comment/2016/12/14/23/DH0Ws7_150x150_00.jpg"}],"subList":[],"dpImpressionList":[],"DPPlusStatus":0,"DPLocation":""},{"commentType":"1","dpContent":"plus优惠，29一张，非常实惠，景区不错，了解水浒知识，感受水浒文化，很有收获。遗憾的是，因为下雨，没有看到最想看的《智取生辰纲》演出。","dpDate":"2017-10-29","dpGuid":"b617a9c7-7b55-40d4-bc19-02180c6dc1e5","dpId":"b617a9c7-7b55-40d4-bc19-02180c6dc1e5","DPItemId":"25794","DPItemName":"水浒好汉城","DPSite":"1","dpTripMode":"0","dpTripPurpose":"","DPUserLevel":"1","dpUserName":"爱六六","highLightColor":"","homeId":"","isElite":"0","isMyComments":"","isPraised":"0","lineAccess":"好评","markColor":"","memberGradeUrl":"","memberHeaderImgUrl":"//pic3.40017.cn/member/face/2016/08/11/20/LU7bL2.jpg","mobile":"","productPriceDesc":"","servicePoint":"1","zanCount":"1","csReplyList":null,"dpImgUrl":[{"imgUrl":"//pic5.40017.cn/02/000/30/a7/rBANDFn1DQWAI1j1AAJo03zSRl4337.jpg","originalImgUrl":"//pic5.40017.cn/02/000/30/a7/rBANDFn1DQWAI1j1AAJo03zSRl4337.jpg","smallImgUrl":"//pic5.40017.cn/02/000/30/a7/rBANDFn1DQWAI1j1AAJo03zSRl4337_150x150_00.jpg"},{"imgUrl":"//pic5.40017.cn/02/001/30/a7/rBANDFn1DQaAIhXpAALiJhtBedA320.jpg","originalImgUrl":"//pic5.40017.cn/02/001/30/a7/rBANDFn1DQaAIhXpAALiJhtBedA320.jpg","smallImgUrl":"//pic5.40017.cn/02/001/30/a7/rBANDFn1DQaAIhXpAALiJhtBedA320_150x150_00.jpg"},{"imgUrl":"//pic5.40017.cn/01/000/30/59/rBANC1n1DQaAMvgvAAM-41Ei1do295.jpg","originalImgUrl":"//pic5.40017.cn/01/000/30/59/rBANC1n1DQaAMvgvAAM-41Ei1do295.jpg","smallImgUrl":"//pic5.40017.cn/01/000/30/59/rBANC1n1DQaAMvgvAAM-41Ei1do295_150x150_00.jpg"},{"imgUrl":"//pic5.40017.cn/02/000/30/a7/rBLkCFn1DQeAf_gPAAOce0Nlx6s400.jpg","originalImgUrl":"//pic5.40017.cn/02/000/30/a7/rBLkCFn1DQeAf_gPAAOce0Nlx6s400.jpg","smallImgUrl":"//pic5.40017.cn/02/000/30/a7/rBLkCFn1DQeAf_gPAAOce0Nlx6s400_150x150_00.jpg"},{"imgUrl":"//pic5.40017.cn/01/001/30/ce/rBLkBln1DQiARRi_AAKfzpz5GQU550.jpg","originalImgUrl":"//pic5.40017.cn/01/001/30/ce/rBLkBln1DQiARRi_AAKfzpz5GQU550.jpg","smallImgUrl":"//pic5.40017.cn/01/001/30/ce/rBLkBln1DQiARRi_AAKfzpz5GQU550_150x150_00.jpg"},{"imgUrl":"//pic5.40017.cn/01/000/30/59/rBANC1n1DQiAW27nAAMEnHWRdZQ967.jpg","originalImgUrl":"//pic5.40017.cn/01/000/30/59/rBANC1n1DQiAW27nAAMEnHWRdZQ967.jpg","smallImgUrl":"//pic5.40017.cn/01/000/30/59/rBANC1n1DQiAW27nAAMEnHWRdZQ967_150x150_00.jpg"}],"subList":[],"dpImpressionList":[],"DPPlusStatus":3,"DPLocation":""},{"commentType":"1","dpContent":"古色古香的建筑，里面所有的东西几乎都放到你的面前。你可以触碰，很强的参与感，商业气息不浓重，很适合朋友，情侣来此游玩。","dpDate":"2016-05-29","dpGuid":"ae2315e2-b6f0-440e-b984-0d6a8834662f","dpId":"ae2315e2-b6f0-440e-b984-0d6a8834662f","DPItemId":"25794","DPItemName":"水浒好汉城","DPSite":"1","dpTripMode":"0","dpTripPurpose":"","DPUserLevel":"2","dpUserName":"131****6900","highLightColor":"","homeId":"","isElite":"0","isMyComments":"","isPraised":"0","lineAccess":"好评","markColor":"","memberGradeUrl":"","memberHeaderImgUrl":"//upload.17u.com/uploadfile/2015/03/15/7/201503151003030625539.jpg","mobile":"","productPriceDesc":"","servicePoint":"1","zanCount":"0","csReplyList":null,"dpImgUrl":[{"imgUrl":"//pic4.40017.cn/scenery/comment/2016/05/29/21/MNpkb2.jpg","originalImgUrl":"//pic4.40017.cn/scenery/comment/2016/05/29/21/MNpkb2.jpg","smallImgUrl":"//pic4.40017.cn/scenery/comment/2016/05/29/21/MNpkb2_150x150_00.jpg"},{"imgUrl":"//pic4.40017.cn/scenery/comment/2016/05/29/21/ZIchwQ.jpg","originalImgUrl":"//pic4.40017.cn/scenery/comment/2016/05/29/21/ZIchwQ.jpg","smallImgUrl":"//pic4.40017.cn/scenery/comment/2016/05/29/21/ZIchwQ_150x150_00.jpg"},{"imgUrl":"//pic4.40017.cn/scenery/comment/2016/05/29/21/Y5E6Gn.jpg","originalImgUrl":"//pic4.40017.cn/scenery/comment/2016/05/29/21/Y5E6Gn.jpg","smallImgUrl":"//pic4.40017.cn/scenery/comment/2016/05/29/21/Y5E6Gn_150x150_00.jpg"},{"imgUrl":"//pic4.40017.cn/scenery/comment/2016/05/29/21/hfNT3a.jpg","originalImgUrl":"//pic4.40017.cn/scenery/comment/2016/05/29/21/hfNT3a.jpg","smallImgUrl":"//pic4.40017.cn/scenery/comment/2016/05/29/21/hfNT3a_150x150_00.jpg"},{"imgUrl":"//pic4.40017.cn/scenery/comment/2016/05/29/21/Zf2AnB.jpg","originalImgUrl":"//pic4.40017.cn/scenery/comment/2016/05/29/21/Zf2AnB.jpg","smallImgUrl":"//pic4.40017.cn/scenery/comment/2016/05/29/21/Zf2AnB_150x150_00.jpg"}],"subList":[],"dpImpressionList":[],"DPPlusStatus":0,"DPLocation":""},{"commentType":"1","dpContent":"很精致！不错的地方，推荐大家去玩！就是里边卖东西的少！天热，没有水！3d和评书都不错！","dpDate":"2015-04-28","dpGuid":"t-5e93806c-0d89-4a78-a02f-de56b3b9c050","dpId":"t-5e93806c-0d89-4a78-a02f-de56b3b9c050","DPItemId":"25794","DPItemName":"水浒好汉城","DPSite":"1","dpTripMode":"0","dpTripPurpose":"0,","DPUserLevel":"1","dpUserName":"爱空思梦","highLightColor":"","homeId":"","isElite":"0","isMyComments":"","isPraised":"0","lineAccess":"好评","markColor":"","memberGradeUrl":"","memberHeaderImgUrl":"//pic3.40017.cn/member/face/2015/08/27/13/NP4RR6.jpg","mobile":"","productPriceDesc":"","servicePoint":"1","zanCount":"0","csReplyList":null,"dpImgUrl":[{"imgUrl":"//pic3.40017.cn/scenery/comment/2015/04/28/10/mGNg7p.jpg","originalImgUrl":"//pic3.40017.cn/scenery/comment/2015/04/28/10/mGNg7p.jpg","smallImgUrl":"//pic3.40017.cn/scenery/comment/2015/04/28/10/mGNg7p_150x150_00.jpg"},{"imgUrl":"//pic3.40017.cn/scenery/comment/2015/04/28/10/0JSHod.jpg","originalImgUrl":"//pic3.40017.cn/scenery/comment/2015/04/28/10/0JSHod.jpg","smallImgUrl":"//pic3.40017.cn/scenery/comment/2015/04/28/10/0JSHod_150x150_00.jpg"},{"imgUrl":"//pic3.40017.cn/scenery/comment/2015/04/28/10/q4aMgi.jpg","originalImgUrl":"//pic3.40017.cn/scenery/comment/2015/04/28/10/q4aMgi.jpg","smallImgUrl":"//pic3.40017.cn/scenery/comment/2015/04/28/10/q4aMgi_150x150_00.jpg"},{"imgUrl":"//pic3.40017.cn/scenery/comment/2015/04/28/10/SMp4aw.jpg","originalImgUrl":"//pic3.40017.cn/scenery/comment/2015/04/28/10/SMp4aw.jpg","smallImgUrl":"//pic3.40017.cn/scenery/comment/2015/04/28/10/SMp4aw_150x150_00.jpg"},{"imgUrl":"//pic3.40017.cn/scenery/comment/2015/04/28/10/iOYToA.jpg","originalImgUrl":"//pic3.40017.cn/scenery/comment/2015/04/28/10/iOYToA.jpg","smallImgUrl":"//pic3.40017.cn/scenery/comment/2015/04/28/10/iOYToA_150x150_00.jpg"},{"imgUrl":"//pic3.40017.cn/scenery/comment/2015/04/28/10/j6omxY.jpg","originalImgUrl":"//pic3.40017.cn/scenery/comment/2015/04/28/10/j6omxY.jpg","smallImgUrl":"//pic3.40017.cn/scenery/comment/2015/04/28/10/j6omxY_150x150_00.jpg"},{"imgUrl":"//pic3.40017.cn/scenery/comment/2015/04/28/10/jlbCx8.jpg","originalImgUrl":"//pic3.40017.cn/scenery/comment/2015/04/28/10/jlbCx8.jpg","smallImgUrl":"//pic3.40017.cn/scenery/comment/2015/04/28/10/jlbCx8_150x150_00.jpg"},{"imgUrl":"//pic3.40017.cn/scenery/comment/2015/04/28/10/jeuXBF.jpg","originalImgUrl":"//pic3.40017.cn/scenery/comment/2015/04/28/10/jeuXBF.jpg","smallImgUrl":"//pic3.40017.cn/scenery/comment/2015/04/28/10/jeuXBF_150x150_00.jpg"},{"imgUrl":"//pic3.40017.cn/scenery/comment/2015/04/28/10/Z97CMQ.jpg","originalImgUrl":"//pic3.40017.cn/scenery/comment/2015/04/28/10/Z97CMQ.jpg","smallImgUrl":"//pic3.40017.cn/scenery/comment/2015/04/28/10/Z97CMQ_150x150_00.jpg"},{"imgUrl":"//pic3.40017.cn/scenery/comment/2015/04/28/10/c9RWul.jpg","originalImgUrl":"//pic3.40017.cn/scenery/comment/2015/04/28/10/c9RWul.jpg","smallImgUrl":"//pic3.40017.cn/scenery/comment/2015/04/28/10/c9RWul_150x150_00.jpg"}],"subList":[],"dpImpressionList":[],"DPPlusStatus":0,"DPLocation":""}],"isShowConinsicon":0,"rulesContent":"","dpConinRemark":"","isCanEnter":0,"isCanDianPingBefore":0,"externalUrl":"","serviceScoreAvgList":[{"score":"10","serviceName":"同程服务"},{"score":"10","serviceName":"产品便捷"},{"score":"10","serviceName":"性价比"},{"score":"10","serviceName":"景区体验"}],"dpTagList":[{"tagColor":"","tagId":"1","tagName":"全部(539)","tagNum":"539","tagType":"","tagBorderColor":""},{"tagColor":"","tagId":"6","tagName":"最新(539)","tagNum":"539","tagType":"","tagBorderColor":""},{"tagColor":"","tagId":"2","tagName":"好评(448)","tagNum":"448","tagType":"","tagBorderColor":""},{"tagColor":"","tagId":"3","tagName":"中评(81)","tagNum":"81","tagType":"","tagBorderColor":""},{"tagColor":"","tagId":"4","tagName":"差评(10)","tagNum":"10","tagType":"","tagBorderColor":""},{"tagColor":"","tagId":"5","tagName":"有图(109)","tagNum":"109","tagType":"","tagBorderColor":""},{"tagColor":"","tagId":"15","tagName":"整体不错(37)","tagNum":"37","tagType":"","tagBorderColor":""},{"tagColor":"","tagId":"96","tagName":"设施齐全(22)","tagNum":"22","tagType":"","tagBorderColor":""},{"tagColor":"","tagId":"65","tagName":"环境好(8)","tagNum":"8","tagType":"","tagBorderColor":""},{"tagColor":"","tagId":"317","tagName":"风光好(7)","tagNum":"7","tagType":"","tagBorderColor":""},{"tagColor":"","tagId":"266","tagName":"地方不错(3)","tagNum":"3","tagType":"","tagBorderColor":""},{"tagColor":"","tagId":"111","tagName":"景色壮观(1)","tagNum":"1","tagType":"","tagBorderColor":""},{"tagColor":"","tagId":"39","tagName":"门票贵(7)","tagNum":"7","tagType":"","tagBorderColor":""},{"tagColor":"","tagId":"95","tagName":"设施旧(1)","tagNum":"1","tagType":"","tagBorderColor":""}],"dianpingInfo":[]}