{"isSuccess":1,"errorMsg":"","isCache":0,"pageInfo":{"page":24,"pageSize":10,"totalPage":54,"totalCount":539},"degreeLevel":"98","starNum":"4.2","totalNum":"539","goodNum":448,"midNum":81,"badNum":10,"hasImgNum":109,"dpList":[{"commentType":"1","dpContent":"听说他们都是逼上梁山。","dpDate":"2019-05-06","dpGuid":"a467f6be-a66a-43f5-b941-912cff33ddfd","dpId":"a467f6be-a66a-43f5-b941-912cff33ddfd","DPItemId":"25794","DPItemName":"水浒好汉城","DPSite":"1","dpTripMode":"0","dpTripPurpose":"","DPUserLevel":"4","dpUserName":"镇江滚石琴行","highLightColor":"","homeId":"","isElite":"0","isMyComments":"","isPraised":"0","lineAccess":"好评","markColor":"","memberGradeUrl":"","memberHeaderImgUrl":"//pic5.40017.cn/02/000/6f/36/rBLkCVqw_EmAPy4uAAEcemL_lG8334.jpg","mobile":"","productPriceDesc":"","servicePoint":"1","zanCount":"0","csReplyList":null,"dpImgUrl":[{"imgUrl":"//pic5.40017.cn/03/000/44/71/rBANB1zPtyqAcISkAAWuxavBINM925.jpg","originalImgUrl":"//pic5.40017.cn/03/000/44/71/rBANB1zPtyqAcISkAAWuxavBINM925.jpg","smallImgUrl":"//pic5.40017.cn/03/000/44/71/rBANB1zPtyqAcISkAAWuxavBINM925_150x150_00.jpg"},{"imgUrl":"//pic5.40017.cn/03/000/44/72/rBANB1zPtyyAFeOOAAWNY16wRWk482.jpg","originalImgUrl":"//pic5.40017.cn/03/000/44/72/rBANB1zPtyyAFeOOAAWNY16wRWk482.jpg","smallImgUrl":"//pic5.40017.cn/03/000/44/72/rBANB1zPtyyAFeOOAAWNY16wRWk482_150x150_00.jpg"},{"imgUrl":"//pic5.40017.cn/03/000/b3/20/rB5oQFzPty2AcKZ3AARQOOtzk4M412.jpg","originalImgUrl":"//pic5.40017.cn/03/000/b3/20/rB5oQFzPty2AcKZ3AARQOOtzk4M412.jpg","smallImgUrl":"//pic5.40017.cn/03/000/b3/20/rB5oQFzPty2AcKZ3AARQOOtzk4M412_150x150_00.jpg"},{"imgUrl":"//pic5.40017.cn/03/000/b3/21/rB5oQFzPty6ANrb4AARjLYKo1VY400.jpg","originalImgUrl":"//pic5.40017.cn/03/000/b3/21/rB5oQFzPty6ANrb4AARjLYKo1VY400.jpg","smallImgUrl":"//pic5.40017.cn/03/000/b3/21/rB5oQFzPty6ANrb4AARjLYKo1VY400_150x150_00.jpg"},{"imgUrl":"//pic5.40017.cn/03/000/b3/23/rB5oQFzPtzCAMP6zAAYb98rsHBo046.jpg","originalImgUrl":"//pic5.40017.cn/03/000/b3/23/rB5oQFzPtzCAMP6zAAYb98rsHBo046.jpg","smallImgUrl":"//pic5.40017.cn/03/000/b3/23/rB5oQFzPtzCAMP6zAAYb98rsHBo046_150x150_00.jpg"},{"imgUrl":"//pic5.40017.cn/03/000/44/77/rBANB1zPtzKAU30rAAUsFKfDqNo926.jpg","originalImgUrl":"//pic5.40017.cn/03/000/44/77/rBANB1zPtzKAU30rAAUsFKfDqNo926.jpg","smallImgUrl":"//pic5.40017.cn/03/000/44/77/rBANB1zPtzKAU30rAAUsFKfDqNo926_150x150_00.jpg"}],"subList":[],"dpImpressionList":[],"DPPlusStatus":3,"DPLocation":""},{"commentType":"2","dpContent":"水浒好汉城景点不错，值得一去","dpDate":"2012-11-24","dpGuid":"t-91ede496-aec2-40c4-a05a-5d3d9e253f2f","dpId":"t-91ede496-aec2-40c4-a05a-5d3d9e253f2f","DPItemId":"25794","DPItemName":"水浒好汉城","DPSite":"2","dpTripMode":"0","dpTripPurpose":"4,","DPUserLevel":"0","dpUserName":"186*****329","highLightColor":"","homeId":"","isElite":"0","isMyComments":"","isPraised":"0","lineAccess":"好评","markColor":"","memberGradeUrl":"","memberHeaderImgUrl":"//pic5.40017.cn/i/ori/PELe6f5TBC.jpg","mobile":"","productPriceDesc":"","servicePoint":"1","zanCount":"0","csReplyList":null,"dpImgUrl":[],"subList":[],"dpImpressionList":[],"DPPlusStatus":0,"DPLocation":""},{"commentType":"1","dpContent":"水浒最好了。火车站直达","dpDate":"2016-01-11","dpGuid":"1b969c11-07d2-40e0-8283-4b84a2acd3eb","dpId":"1b969c11-07d2-40e0-8283-4b84a2acd3eb","DPItemId":"25794","DPItemName":"水浒好汉城","DPSite":"1","dpTripMode":"0","dpTripPurpose":"","DPUserLevel":"4","dpUserName":"haha9527","highLightColor":"","homeId":"","isElite":"0","isMyComments":"","isPraised":"0","lineAccess":"好评","markColor":"","memberGradeUrl":"","memberHeaderImgUrl":"https://pic5.40017.cn/i/ori/PELe6f5TBC.jpg","mobile":"","productPriceDesc":"","servicePoint":"1","zanCount":"0","csReplyList":null,"dpImgUrl":[],"subList":[],"dpImpressionList":[],"DPPlusStatus":0,"DPLocation":""},{"commentType":"1","dpContent":"走走玩玩挺好的，没什么游乐项目","dpDate":"2015-11-02","dpGuid":"c490c449-1405-4e11-9baa-472f09dfb80a","dpId":"c490c449-1405-4e11-9baa-472f09dfb80a","DPItemId":"25794","DPItemName":"水浒好汉城","DPSite":"1","dpTripMode":"0","dpTripPurpose":"","DPUserLevel":"1","dpUserName":"188****4581","highLightColor":"","homeId":"","isElite":"0","isMyComments":"","isPraised":"0","lineAccess":"好评","markColor":"","memberGradeUrl":"","memberHeaderImgUrl":"//pic3.40017.cn/member/face/2015/08/27/17/sHIVcY.png","mobile":"","productPriceDesc":"","servicePoint":"1","zanCount":"0","csReplyList":null,"dpImgUrl":[],"subList":[],"dpImpressionList":[],"DPPlusStatus":0,"DPLocation":""},{"commentType":"1","dpContent":"我家就是郓城的，那儿可好了，服务也挺好。","dpDate":"2016-01-08","dpGuid":"1d50cc17-b99d-47d7-95f6-06792cea34e6","dpId":"1d50cc17-b99d-47d7-95f6-06792cea34e6","DPItemId":"25794","DPItemName":"水浒好汉城","DPSite":"1","dpTripMode":"0","dpTripPurpose":"","DPUserLevel":"1","dpUserName":"同程帅哥0A15581168B","highLightColor":"","homeId":"","isElite":"0","isMyComments":"","isPraised":"0","lineAccess":"好评","markColor":"","memberGradeUrl":"","memberHeaderImgUrl":"https://pic5.40017.cn/i/ori/PELe6f5TBC.jpg","mobile":"","productPriceDesc":"","servicePoint":"1","zanCount":"1","csReplyList":null,"dpImgUrl":[],"subList":[],"dpImpressionList":[],"DPPlusStatus":0,"DPLocation":""},{"commentType":"1","dpContent":"购票方便，环境优美，位置优越，非常满意！","dpDate":"2016-11-07","dpGuid":"e4219cec-c70c-49e2-8793-739e45009db1","dpId":"e4219cec-c70c-49e2-8793-739e45009db1","DPItemId":"25794","DPItemName":"水浒好汉城","DPSite":"1","dpTripMode":"0","dpTripPurpose":"","DPUserLevel":"1","dpUserName":"18BE159E16186721","highLightColor":"","homeId":"","isElite":"0","isMyComments":"","isPraised":"0","lineAccess":"好评","markColor":"","memberGradeUrl":"","memberHeaderImgUrl":"https://pic5.40017.cn/i/ori/1dhWb8X8neg.jpg","mobile":"","productPriceDesc":"","servicePoint":"1","zanCount":"0","csReplyList":null,"dpImgUrl":[],"subList":[],"dpImpressionList":[],"DPPlusStatus":0,"DPLocation":""},{"commentType":"1","dpContent":"很好玩，很多故事可以讲给小朋友听，小朋友非常高兴","dpDate":"2016-11-08","dpGuid":"3206c5d2-1376-4b3f-a2f7-da57154e17c0","dpId":"3206c5d2-1376-4b3f-a2f7-da57154e17c0","DPItemId":"25794","DPItemName":"水浒好汉城","DPSite":"1","dpTripMode":"0","dpTripPurpose":"","DPUserLevel":"1","dpUserName":"同程会员_76960E3094F","highLightColor":"","homeId":"","isElite":"0","isMyComments":"","isPraised":"0","lineAccess":"好评","markColor":"","memberGradeUrl":"","memberHeaderImgUrl":"https://pic5.40017.cn/i/ori/1difaMet93G.jpg","mobile":"","productPriceDesc":"","servicePoint":"1","zanCount":"0","csReplyList":null,"dpImgUrl":[],"subList":[],"dpImpressionList":[],"DPPlusStatus":0,"DPLocation":""},{"commentType":"1","dpContent":"不错，下次还要去，值得推荐。","dpDate":"2015-11-02","dpGuid":"41af9703-d7a9-4b55-adc6-3349508fa225","dpId":"41af9703-d7a9-4b55-adc6-3349508fa225","DPItemId":"25794","DPItemName":"水浒好汉城","DPSite":"1","dpTripMode":"0","dpTripPurpose":"","DPUserLevel":"3","dpUserName":"133****9889","highLightColor":"","homeId":"","isElite":"0","isMyComments":"","isPraised":"0","lineAccess":"好评","markColor":"","memberGradeUrl":"","memberHeaderImgUrl":"//upload.17u.com/uploadfile/2014/12/09/7/201412090206159109063.jpg","mobile":"","productPriceDesc":"","servicePoint":"1","zanCount":"0","csReplyList":null,"dpImgUrl":[],"subList":[],"dpImpressionList":[],"DPPlusStatus":0,"DPLocation":""},{"commentType":"1","dpContent":"相当不错，值得一去唉！","dpDate":"2015-12-28","dpGuid":"cb609af1-09f6-4ebf-8cc3-352e67784901","dpId":"cb609af1-09f6-4ebf-8cc3-352e67784901","DPItemId":"25794","DPItemName":"水浒好汉城","DPSite":"1","dpTripMode":"0","dpTripPurpose":"","DPUserLevel":"1","dpUserName":"159****8510","highLightColor":"","homeId":"","isElite":"0","isMyComments":"","isPraised":"0","lineAccess":"好评","markColor":"","memberGradeUrl":"","memberHeaderImgUrl":"//pic3.40017.cn/member/face/2015/07/17/21/fLCG9Q.jpg","mobile":"","productPriceDesc":"","servicePoint":"1","zanCount":"0","csReplyList":null,"dpImgUrl":[],"subList":[],"dpImpressionList":[],"DPPlusStatus":0,"DPLocation":""},{"commentType":"1","dpContent":"适合周围人过来玩，地下迷宫还挺好玩","dpDate":"2017-01-21","dpGuid":"9932f664-6551-4711-8fa6-fc847a7f6cf3","dpId":"9932f664-6551-4711-8fa6-fc847a7f6cf3","DPItemId":"25794","DPItemName":"水浒好汉城","DPSite":"1","dpTripMode":"0","dpTripPurpose":"","DPUserLevel":"1","dpUserName":"同程会员_DA69D8BD54A","highLightColor":"","homeId":"","isElite":"0","isMyComments":"","isPraised":"0","lineAccess":"好评","markColor":"","memberGradeUrl":"","memberHeaderImgUrl":"https://pic5.40017.cn/i/ori/1difaMet93G.jpg","mobile":"","productPriceDesc":"","servicePoint":"1","zanCount":"0","csReplyList":null,"dpImgUrl":[],"subList":[],"dpImpressionList":[],"DPPlusStatus":0,"DPLocation":""}],"isShowConinsicon":0,"rulesContent":"","dpConinRemark":"","isCanEnter":0,"isCanDianPingBefore":0,"externalUrl":"","serviceScoreAvgList":[{"score":"10","serviceName":"同程服务"},{"score":"10","serviceName":"产品便捷"},{"score":"10","serviceName":"性价比"},{"score":"10","serviceName":"景区体验"}],"dpTagList":[{"tagColor":"","tagId":"1","tagName":"全部(539)","tagNum":"539","tagType":"","tagBorderColor":""},{"tagColor":"","tagId":"6","tagName":"最新(539)","tagNum":"539","tagType":"","tagBorderColor":""},{"tagColor":"","tagId":"2","tagName":"好评(448)","tagNum":"448","tagType":"","tagBorderColor":""},{"tagColor":"","tagId":"3","tagName":"中评(81)","tagNum":"81","tagType":"","tagBorderColor":""},{"tagColor":"","tagId":"4","tagName":"差评(10)","tagNum":"10","tagType":"","tagBorderColor":""},{"tagColor":"","tagId":"5","tagName":"有图(109)","tagNum":"109","tagType":"","tagBorderColor":""},{"tagColor":"","tagId":"15","tagName":"整体不错(37)","tagNum":"37","tagType":"","tagBorderColor":""},{"tagColor":"","tagId":"96","tagName":"设施齐全(22)","tagNum":"22","tagType":"","tagBorderColor":""},{"tagColor":"","tagId":"65","tagName":"环境好(8)","tagNum":"8","tagType":"","tagBorderColor":""},{"tagColor":"","tagId":"317","tagName":"风光好(7)","tagNum":"7","tagType":"","tagBorderColor":""},{"tagColor":"","tagId":"266","tagName":"地方不错(3)","tagNum":"3","tagType":"","tagBorderColor":""},{"tagColor":"","tagId":"111","tagName":"景色壮观(1)","tagNum":"1","tagType":"","tagBorderColor":""},{"tagColor":"","tagId":"39","tagName":"门票贵(7)","tagNum":"7","tagType":"","tagBorderColor":""},{"tagColor":"","tagId":"95","tagName":"设施旧(1)","tagNum":"1","tagType":"","tagBorderColor":""}],"dianpingInfo":[]}