{"isSuccess":1,"errorMsg":"","isCache":0,"pageInfo":{"page":3,"pageSize":10,"totalPage":54,"totalCount":539},"degreeLevel":"98","starNum":"4.2","totalNum":"539","goodNum":448,"midNum":81,"badNum":10,"hasImgNum":109,"dpList":[{"commentType":"1","dpContent":"同程订票很方便，优惠比较大，景点比较小，到收获不小，古式建筑和水浒文化相结合。很好.","dpDate":"2016-04-03","dpGuid":"612c00b0-9407-4ab4-9c3b-9a562a4b8919","dpId":"612c00b0-9407-4ab4-9c3b-9a562a4b8919","DPItemId":"25794","DPItemName":"水浒好汉城","DPSite":"1","dpTripMode":"0","dpTripPurpose":"","DPUserLevel":"2","dpUserName":"138****7836","highLightColor":"","homeId":"","isElite":"0","isMyComments":"","isPraised":"0","lineAccess":"好评","markColor":"","memberGradeUrl":"","memberHeaderImgUrl":"//pic3.40017.cn/member/face/2015/08/27/17/sHIVcY.png","mobile":"","productPriceDesc":"","servicePoint":"1","zanCount":"1","csReplyList":null,"dpImgUrl":[{"imgUrl":"//pic4.40017.cn/scenery/comment/2016/04/03/07/tcCOm3.jpg","originalImgUrl":"//pic4.40017.cn/scenery/comment/2016/04/03/07/tcCOm3.jpg","smallImgUrl":"//pic4.40017.cn/scenery/comment/2016/04/03/07/tcCOm3_150x150_00.jpg"},{"imgUrl":"//pic4.40017.cn/scenery/comment/2016/04/03/07/xQuvRi.jpg","originalImgUrl":"//pic4.40017.cn/scenery/comment/2016/04/03/07/xQuvRi.jpg","smallImgUrl":"//pic4.40017.cn/scenery/comment/2016/04/03/07/xQuvRi_150x150_00.jpg"},{"imgUrl":"//pic4.40017.cn/scenery/comment/2016/04/03/07/oleKBn.jpg","originalImgUrl":"//pic4.40017.cn/scenery/comment/2016/04/03/07/oleKBn.jpg","smallImgUrl":"//pic4.40017.cn/scenery/comment/2016/04/03/07/oleKBn_150x150_00.jpg"},{"imgUrl":"//pic4.40017.cn/scenery/comment/2016/04/03/07/Dgv8Gq.jpg","originalImgUrl":"//pic4.40017.cn/scenery/comment/2016/04/03/07/Dgv8Gq.jpg","smallImgUrl":"//pic4.40017.cn/scenery/comment/2016/04/03/07/Dgv8Gq_150x150_00.jpg"}],"subList":[],"dpImpressionList":[],"DPPlusStatus":0,"DPLocation":""},{"commentType":"1","dpContent":"同程购票方便又便宜。景区建筑设计古色古香尤其是木质的雕刻艺术甚是高超。离宋江武校很近一同游览了！","dpDate":"2015-10-06","dpGuid":"14e6937e-fc22-4171-bf54-d8829410d8ed","dpId":"14e6937e-fc22-4171-bf54-d8829410d8ed","DPItemId":"25794","DPItemName":"水浒好汉城","DPSite":"1","dpTripMode":"0","dpTripPurpose":"","DPUserLevel":"1","dpUserName":"156****9828","highLightColor":"","homeId":"","isElite":"0","isMyComments":"","isPraised":"0","lineAccess":"好评","markColor":"","memberGradeUrl":"","memberHeaderImgUrl":"//upload.17u.com/uploadfile/2015/03/15/7/201503150940172837734.jpg","mobile":"","productPriceDesc":"","servicePoint":"1","zanCount":"1","csReplyList":null,"dpImgUrl":[{"imgUrl":"//pic3.40017.cn/scenery/comment/2015/10/06/16/MsOZ4h.jpg","originalImgUrl":"//pic3.40017.cn/scenery/comment/2015/10/06/16/MsOZ4h.jpg","smallImgUrl":"//pic3.40017.cn/scenery/comment/2015/10/06/16/MsOZ4h_150x150_00.jpg"},{"imgUrl":"//pic3.40017.cn/scenery/comment/2015/10/06/16/Gee22w.jpg","originalImgUrl":"//pic3.40017.cn/scenery/comment/2015/10/06/16/Gee22w.jpg","smallImgUrl":"//pic3.40017.cn/scenery/comment/2015/10/06/16/Gee22w_150x150_00.jpg"},{"imgUrl":"//pic3.40017.cn/scenery/comment/2015/10/06/16/WlyFth.jpg","originalImgUrl":"//pic3.40017.cn/scenery/comment/2015/10/06/16/WlyFth.jpg","smallImgUrl":"//pic3.40017.cn/scenery/comment/2015/10/06/16/WlyFth_150x150_00.jpg"}],"subList":[],"dpImpressionList":[],"DPPlusStatus":0,"DPLocation":""},{"commentType":"1","dpContent":"有表演，古建筑非常漂亮而且特别奇特，非常好玩，值得一游","dpDate":"2016-09-19","dpGuid":"4bd17f44-9b7b-472e-a474-1b0ef711d90a","dpId":"4bd17f44-9b7b-472e-a474-1b0ef711d90a","DPItemId":"25794","DPItemName":"水浒好汉城","DPSite":"1","dpTripMode":"0","dpTripPurpose":"","DPUserLevel":"1","dpUserName":"15836mkammj","highLightColor":"","homeId":"","isElite":"0","isMyComments":"","isPraised":"0","lineAccess":"好评","markColor":"","memberGradeUrl":"","memberHeaderImgUrl":"https://pic5.40017.cn/i/ori/1dhW3XOpwZ2.jpg","mobile":"","productPriceDesc":"","servicePoint":"1","zanCount":"0","csReplyList":null,"dpImgUrl":[{"imgUrl":"//pic4.40017.cn/scenery/comment/2016/09/19/22/kyVPBP.jpg","originalImgUrl":"//pic4.40017.cn/scenery/comment/2016/09/19/22/kyVPBP.jpg","smallImgUrl":"//pic4.40017.cn/scenery/comment/2016/09/19/22/kyVPBP_150x150_00.jpg"},{"imgUrl":"//pic4.40017.cn/scenery/comment/2016/09/19/22/5YN2sF.jpg","originalImgUrl":"//pic4.40017.cn/scenery/comment/2016/09/19/22/5YN2sF.jpg","smallImgUrl":"//pic4.40017.cn/scenery/comment/2016/09/19/22/5YN2sF_150x150_00.jpg"},{"imgUrl":"//pic4.40017.cn/scenery/comment/2016/09/19/22/R8Me9o.jpg","originalImgUrl":"//pic4.40017.cn/scenery/comment/2016/09/19/22/R8Me9o.jpg","smallImgUrl":"//pic4.40017.cn/scenery/comment/2016/09/19/22/R8Me9o_150x150_00.jpg"},{"imgUrl":"//pic4.40017.cn/scenery/comment/2016/09/19/22/TUfYzA.jpg","originalImgUrl":"//pic4.40017.cn/scenery/comment/2016/09/19/22/TUfYzA.jpg","smallImgUrl":"//pic4.40017.cn/scenery/comment/2016/09/19/22/TUfYzA_150x150_00.jpg"},{"imgUrl":"//pic4.40017.cn/scenery/comment/2016/09/19/22/CAkt1K.jpg","originalImgUrl":"//pic4.40017.cn/scenery/comment/2016/09/19/22/CAkt1K.jpg","smallImgUrl":"//pic4.40017.cn/scenery/comment/2016/09/19/22/CAkt1K_150x150_00.jpg"},{"imgUrl":"//pic4.40017.cn/scenery/comment/2016/09/19/22/wq23Yg.jpg","originalImgUrl":"//pic4.40017.cn/scenery/comment/2016/09/19/22/wq23Yg.jpg","smallImgUrl":"//pic4.40017.cn/scenery/comment/2016/09/19/22/wq23Yg_150x150_00.jpg"}],"subList":[],"dpImpressionList":[],"DPPlusStatus":0,"DPLocation":""},{"commentType":"1","dpContent":"同程订票不需要取票，直接刷二维码进入，挺方便，水浒好汉城第一次来，院子挺大，节目也挺丰富！","dpDate":"2019-05-03","dpGuid":"7d6510cc-22c0-42a3-a15f-f98f57cd32a0","dpId":"7d6510cc-22c0-42a3-a15f-f98f57cd32a0","DPItemId":"25794","DPItemName":"水浒好汉城","DPSite":"1","dpTripMode":"0","dpTripPurpose":"","DPUserLevel":"1","dpUserName":"爱逗蛐蛐","highLightColor":"","homeId":"","isElite":"0","isMyComments":"","isPraised":"0","lineAccess":"好评","markColor":"","memberGradeUrl":"","memberHeaderImgUrl":"https://pic5.40017.cn/i/ori/1dhW3XOpwZ2.jpg","mobile":"","productPriceDesc":"","servicePoint":"1","zanCount":"1","csReplyList":null,"dpImgUrl":[{"imgUrl":"//pic5.40017.cn/03/000/4b/1f/rBANB1zLjS-ALBdaAANi04HqFyA428.jpg","originalImgUrl":"//pic5.40017.cn/03/000/4b/1f/rBANB1zLjS-ALBdaAANi04HqFyA428.jpg","smallImgUrl":"//pic5.40017.cn/03/000/4b/1f/rBANB1zLjS-ALBdaAANi04HqFyA428_150x150_00.jpg"},{"imgUrl":"//pic5.40017.cn/03/000/4b/20/rBANB1zLjTGALI9IAALI-KH3wh8266.jpg","originalImgUrl":"//pic5.40017.cn/03/000/4b/20/rBANB1zLjTGALI9IAALI-KH3wh8266.jpg","smallImgUrl":"//pic5.40017.cn/03/000/4b/20/rBANB1zLjTGALI9IAALI-KH3wh8266_150x150_00.jpg"},{"imgUrl":"//pic5.40017.cn/03/000/4b/21/rBANB1zLjTOATA-UAAKzi-CSkXQ482.jpg","originalImgUrl":"//pic5.40017.cn/03/000/4b/21/rBANB1zLjTOATA-UAAKzi-CSkXQ482.jpg","smallImgUrl":"//pic5.40017.cn/03/000/4b/21/rBANB1zLjTOATA-UAAKzi-CSkXQ482_150x150_00.jpg"},{"imgUrl":"//pic5.40017.cn/03/000/4b/22/rBANB1zLjTSAUmx6AAJVd_RFcgQ988.jpg","originalImgUrl":"//pic5.40017.cn/03/000/4b/22/rBANB1zLjTSAUmx6AAJVd_RFcgQ988.jpg","smallImgUrl":"//pic5.40017.cn/03/000/4b/22/rBANB1zLjTSAUmx6AAJVd_RFcgQ988_150x150_00.jpg"},{"imgUrl":"//pic5.40017.cn/03/000/ba/44/rB5oQFzLjTWAMlq5AAJCPdlLvFE551.jpg","originalImgUrl":"//pic5.40017.cn/03/000/ba/44/rB5oQFzLjTWAMlq5AAJCPdlLvFE551.jpg","smallImgUrl":"//pic5.40017.cn/03/000/ba/44/rB5oQFzLjTWAMlq5AAJCPdlLvFE551_150x150_00.jpg"}],"subList":[],"dpImpressionList":[],"DPPlusStatus":3,"DPLocation":""},{"commentType":"1","dpContent":"不错，还碰到了演出，特别是地下3d图画立体效果不错，孩子在里面不愿出来了。","dpDate":"2015-07-11","dpGuid":"t-a59c098b-c253-48e4-ad3a-4016c0e6a073","dpId":"t-a59c098b-c253-48e4-ad3a-4016c0e6a073","DPItemId":"25794","DPItemName":"水浒好汉城","DPSite":"1","dpTripMode":"0","dpTripPurpose":"8,","DPUserLevel":"1","dpUserName":"158*****632","highLightColor":"","homeId":"","isElite":"0","isMyComments":"","isPraised":"0","lineAccess":"好评","markColor":"","memberGradeUrl":"","memberHeaderImgUrl":"//pic5.40017.cn/i/ori/PELe6f5TBC.jpg","mobile":"","productPriceDesc":"","servicePoint":"1","zanCount":"4","csReplyList":null,"dpImgUrl":[{"imgUrl":"//pic3.40017.cn/scenery/comment/2015/07/11/19/j3vRKm.jpg","originalImgUrl":"//pic3.40017.cn/scenery/comment/2015/07/11/19/j3vRKm.jpg","smallImgUrl":"//pic3.40017.cn/scenery/comment/2015/07/11/19/j3vRKm_150x150_00.jpg"},{"imgUrl":"//pic3.40017.cn/scenery/comment/2015/07/11/19/Wb5cye.jpg","originalImgUrl":"//pic3.40017.cn/scenery/comment/2015/07/11/19/Wb5cye.jpg","smallImgUrl":"//pic3.40017.cn/scenery/comment/2015/07/11/19/Wb5cye_150x150_00.jpg"},{"imgUrl":"//pic3.40017.cn/scenery/comment/2015/07/11/19/lp5Xhm.jpg","originalImgUrl":"//pic3.40017.cn/scenery/comment/2015/07/11/19/lp5Xhm.jpg","smallImgUrl":"//pic3.40017.cn/scenery/comment/2015/07/11/19/lp5Xhm_150x150_00.jpg"},{"imgUrl":"//pic3.40017.cn/scenery/comment/2015/07/11/19/rGu2ID.jpg","originalImgUrl":"//pic3.40017.cn/scenery/comment/2015/07/11/19/rGu2ID.jpg","smallImgUrl":"//pic3.40017.cn/scenery/comment/2015/07/11/19/rGu2ID_150x150_00.jpg"},{"imgUrl":"//pic3.40017.cn/scenery/comment/2015/07/11/19/znce6Q.jpg","originalImgUrl":"//pic3.40017.cn/scenery/comment/2015/07/11/19/znce6Q.jpg","smallImgUrl":"//pic3.40017.cn/scenery/comment/2015/07/11/19/znce6Q_150x150_00.jpg"},{"imgUrl":"//pic3.40017.cn/scenery/comment/2015/07/11/19/d7JJRq.jpg","originalImgUrl":"//pic3.40017.cn/scenery/comment/2015/07/11/19/d7JJRq.jpg","smallImgUrl":"//pic3.40017.cn/scenery/comment/2015/07/11/19/d7JJRq_150x150_00.jpg"},{"imgUrl":"//pic3.40017.cn/scenery/comment/2015/07/11/19/d4t49U.jpg","originalImgUrl":"//pic3.40017.cn/scenery/comment/2015/07/11/19/d4t49U.jpg","smallImgUrl":"//pic3.40017.cn/scenery/comment/2015/07/11/19/d4t49U_150x150_00.jpg"},{"imgUrl":"//pic3.40017.cn/scenery/comment/2015/07/11/19/1Jogyu.jpg","originalImgUrl":"//pic3.40017.cn/scenery/comment/2015/07/11/19/1Jogyu.jpg","smallImgUrl":"//pic3.40017.cn/scenery/comment/2015/07/11/19/1Jogyu_150x150_00.jpg"}],"subList":[],"dpImpressionList":[],"DPPlusStatus":0,"DPLocation":""},{"commentType":"1","dpContent":"人文气息较重，古建筑较多，但不太适合小朋友玩，当然也不错！","dpDate":"2015-05-30","dpGuid":"t-307c7c2d-c758-4fef-87f0-dd0684495666","dpId":"t-307c7c2d-c758-4fef-87f0-dd0684495666","DPItemId":"25794","DPItemName":"水浒好汉城","DPSite":"1","dpTripMode":"0","dpTripPurpose":"0,","DPUserLevel":"1","dpUserName":"C47BA9DBB3B24699","highLightColor":"","homeId":"","isElite":"0","isMyComments":"","isPraised":"0","lineAccess":"好评","markColor":"","memberGradeUrl":"","memberHeaderImgUrl":"//pic3.40017.cn/member/face/2017/12/05/16/tcdefault.png","mobile":"","productPriceDesc":"","servicePoint":"1","zanCount":"0","csReplyList":null,"dpImgUrl":[{"imgUrl":"//pic3.40017.cn/scenery/comment/2015/05/30/21/OK56kF.jpg","originalImgUrl":"//pic3.40017.cn/scenery/comment/2015/05/30/21/OK56kF.jpg","smallImgUrl":"//pic3.40017.cn/scenery/comment/2015/05/30/21/OK56kF_150x150_00.jpg"},{"imgUrl":"//pic3.40017.cn/scenery/comment/2015/05/30/21/4I4TDB.jpg","originalImgUrl":"//pic3.40017.cn/scenery/comment/2015/05/30/21/4I4TDB.jpg","smallImgUrl":"//pic3.40017.cn/scenery/comment/2015/05/30/21/4I4TDB_150x150_00.jpg"},{"imgUrl":"//pic3.40017.cn/scenery/comment/2015/05/30/21/TytUva.jpg","originalImgUrl":"//pic3.40017.cn/scenery/comment/2015/05/30/21/TytUva.jpg","smallImgUrl":"//pic3.40017.cn/scenery/comment/2015/05/30/21/TytUva_150x150_00.jpg"}],"subList":[],"dpImpressionList":[],"DPPlusStatus":0,"DPLocation":""},{"commentType":"1","dpContent":"这次是和家人一起去的，是个休闲旅游的好地方，家人都很喜欢，特别是孩子，玩的非常开心。里面设施齐全，服务人员服务很到位，地理位置好，尤其是同程提供了这么优惠的服务！","dpDate":"2015-12-12","dpGuid":"5ac235e2-3249-4f42-a2d5-31e4d4aba135","dpId":"5ac235e2-3249-4f42-a2d5-31e4d4aba135","DPItemId":"25794","DPItemName":"水浒好汉城","DPSite":"1","dpTripMode":"0","dpTripPurpose":"","DPUserLevel":"3","dpUserName":"187****0119","highLightColor":"","homeId":"","isElite":"0","isMyComments":"","isPraised":"0","lineAccess":"好评","markColor":"","memberGradeUrl":"","memberHeaderImgUrl":"//pic3.40017.cn/member/face/2015/08/27/17/sHIVcY.png","mobile":"","productPriceDesc":"","servicePoint":"1","zanCount":"1","csReplyList":null,"dpImgUrl":[{"imgUrl":"//pic3.40017.cn/scenery/comment/2015/12/12/09/4vwn2Z.jpg","originalImgUrl":"//pic3.40017.cn/scenery/comment/2015/12/12/09/4vwn2Z.jpg","smallImgUrl":"//pic3.40017.cn/scenery/comment/2015/12/12/09/4vwn2Z_150x150_00.jpg"}],"subList":[],"dpImpressionList":[],"DPPlusStatus":0,"DPLocation":""},{"commentType":"1","dpContent":"这次是和家人一起去的，是个休闲旅游的好地方，家人都很喜欢，特别是孩子，玩的非常开心。里面设施齐全，服务人员服务很到位，地理位置好，尤其是同程提供了这么优惠的服务！","dpDate":"2016-01-01","dpGuid":"3cbf7a78-d504-4472-8666-ebcb6d619d4e","dpId":"3cbf7a78-d504-4472-8666-ebcb6d619d4e","DPItemId":"25794","DPItemName":"水浒好汉城","DPSite":"1","dpTripMode":"0","dpTripPurpose":"","DPUserLevel":"3","dpUserName":"187****0119","highLightColor":"","homeId":"","isElite":"0","isMyComments":"","isPraised":"0","lineAccess":"好评","markColor":"","memberGradeUrl":"","memberHeaderImgUrl":"//pic3.40017.cn/member/face/2015/08/27/17/sHIVcY.png","mobile":"","productPriceDesc":"","servicePoint":"1","zanCount":"2","csReplyList":null,"dpImgUrl":[{"imgUrl":"//pic3.40017.cn/scenery/comment/2016/01/01/09/NX64vT.jpg","originalImgUrl":"//pic3.40017.cn/scenery/comment/2016/01/01/09/NX64vT.jpg","smallImgUrl":"//pic3.40017.cn/scenery/comment/2016/01/01/09/NX64vT_150x150_00.jpg"}],"subList":[],"dpImpressionList":[],"DPPlusStatus":0,"DPLocation":""},{"commentType":"1","dpContent":"景点不错，大多都是仿宋建筑，孩子挺喜欢的，里面购物的没有，同程取票很快！！","dpDate":"2016-08-29","dpGuid":"09f6a208-ded2-411e-bc17-dec5cb211e4c","dpId":"09f6a208-ded2-411e-bc17-dec5cb211e4c","DPItemId":"25794","DPItemName":"水浒好汉城","DPSite":"1","dpTripMode":"0","dpTripPurpose":"","DPUserLevel":"1","dpUserName":"清风雅静","highLightColor":"","homeId":"","isElite":"0","isMyComments":"","isPraised":"0","lineAccess":"中评","markColor":"","memberGradeUrl":"","memberHeaderImgUrl":"//pic3.40017.cn/member/face/2016/08/11/19/MdsO9O.jpg","mobile":"","productPriceDesc":"","servicePoint":"2","zanCount":"0","csReplyList":null,"dpImgUrl":[{"imgUrl":"//pic4.40017.cn/scenery/comment/2016/08/29/07/GybcNZ.jpg","originalImgUrl":"//pic4.40017.cn/scenery/comment/2016/08/29/07/GybcNZ.jpg","smallImgUrl":"//pic4.40017.cn/scenery/comment/2016/08/29/07/GybcNZ_150x150_00.jpg"},{"imgUrl":"//pic4.40017.cn/scenery/comment/2016/08/29/07/ef9F83.jpg","originalImgUrl":"//pic4.40017.cn/scenery/comment/2016/08/29/07/ef9F83.jpg","smallImgUrl":"//pic4.40017.cn/scenery/comment/2016/08/29/07/ef9F83_150x150_00.jpg"},{"imgUrl":"//pic4.40017.cn/scenery/comment/2016/08/29/07/d8WNY4.jpg","originalImgUrl":"//pic4.40017.cn/scenery/comment/2016/08/29/07/d8WNY4.jpg","smallImgUrl":"//pic4.40017.cn/scenery/comment/2016/08/29/07/d8WNY4_150x150_00.jpg"},{"imgUrl":"//pic4.40017.cn/scenery/comment/2016/08/29/07/XRTWL3.jpg","originalImgUrl":"//pic4.40017.cn/scenery/comment/2016/08/29/07/XRTWL3.jpg","smallImgUrl":"//pic4.40017.cn/scenery/comment/2016/08/29/07/XRTWL3_150x150_00.jpg"},{"imgUrl":"//pic4.40017.cn/scenery/comment/2016/08/29/07/nO6kKF.jpg","originalImgUrl":"//pic4.40017.cn/scenery/comment/2016/08/29/07/nO6kKF.jpg","smallImgUrl":"//pic4.40017.cn/scenery/comment/2016/08/29/07/nO6kKF_150x150_00.jpg"},{"imgUrl":"//pic4.40017.cn/scenery/comment/2016/08/29/07/RHrAys.jpg","originalImgUrl":"//pic4.40017.cn/scenery/comment/2016/08/29/07/RHrAys.jpg","smallImgUrl":"//pic4.40017.cn/scenery/comment/2016/08/29/07/RHrAys_150x150_00.jpg"},{"imgUrl":"//pic4.40017.cn/scenery/comment/2016/08/29/07/VotT77.jpg","originalImgUrl":"//pic4.40017.cn/scenery/comment/2016/08/29/07/VotT77.jpg","smallImgUrl":"//pic4.40017.cn/scenery/comment/2016/08/29/07/VotT77_150x150_00.jpg"},{"imgUrl":"//pic4.40017.cn/scenery/comment/2016/08/29/07/wV3015.jpg","originalImgUrl":"//pic4.40017.cn/scenery/comment/2016/08/29/07/wV3015.jpg","smallImgUrl":"//pic4.40017.cn/scenery/comment/2016/08/29/07/wV3015_150x150_00.jpg"},{"imgUrl":"//pic4.40017.cn/scenery/comment/2016/08/29/07/VJC3XW.jpg","originalImgUrl":"//pic4.40017.cn/scenery/comment/2016/08/29/07/VJC3XW.jpg","smallImgUrl":"//pic4.40017.cn/scenery/comment/2016/08/29/07/VJC3XW_150x150_00.jpg"},{"imgUrl":"//pic4.40017.cn/scenery/comment/2016/08/29/07/D1lPe4.jpg","originalImgUrl":"//pic4.40017.cn/scenery/comment/2016/08/29/07/D1lPe4.jpg","smallImgUrl":"//pic4.40017.cn/scenery/comment/2016/08/29/07/D1lPe4_150x150_00.jpg"}],"subList":[],"dpImpressionList":[],"DPPlusStatus":0,"DPLocation":""},{"commentType":"1","dpContent":"人文气息较重，古建筑较多，但不太适合小朋友玩，当然也不错！","dpDate":"2015-05-30","dpGuid":"t-1f7b9bbd-3278-493b-ac34-ab36883080ff","dpId":"t-1f7b9bbd-3278-493b-ac34-ab36883080ff","DPItemId":"25794","DPItemName":"水浒好汉城","DPSite":"1","dpTripMode":"0","dpTripPurpose":"0,","DPUserLevel":"1","dpUserName":"C47BA9DBB3B24699","highLightColor":"","homeId":"","isElite":"0","isMyComments":"","isPraised":"0","lineAccess":"好评","markColor":"","memberGradeUrl":"","memberHeaderImgUrl":"//pic3.40017.cn/member/face/2017/12/05/16/tcdefault.png","mobile":"","productPriceDesc":"","servicePoint":"1","zanCount":"1","csReplyList":null,"dpImgUrl":[{"imgUrl":"//pic3.40017.cn/scenery/comment/2015/05/30/21/oFjlXw.jpg","originalImgUrl":"//pic3.40017.cn/scenery/comment/2015/05/30/21/oFjlXw.jpg","smallImgUrl":"//pic3.40017.cn/scenery/comment/2015/05/30/21/oFjlXw_150x150_00.jpg"},{"imgUrl":"//pic3.40017.cn/scenery/comment/2015/05/30/21/5oqdz9.jpg","originalImgUrl":"//pic3.40017.cn/scenery/comment/2015/05/30/21/5oqdz9.jpg","smallImgUrl":"//pic3.40017.cn/scenery/comment/2015/05/30/21/5oqdz9_150x150_00.jpg"},{"imgUrl":"//pic3.40017.cn/scenery/comment/2015/05/30/21/MpdiMR.jpg","originalImgUrl":"//pic3.40017.cn/scenery/comment/2015/05/30/21/MpdiMR.jpg","smallImgUrl":"//pic3.40017.cn/scenery/comment/2015/05/30/21/MpdiMR_150x150_00.jpg"},{"imgUrl":"//pic3.40017.cn/scenery/comment/2015/05/30/21/lDXjCi.jpg","originalImgUrl":"//pic3.40017.cn/scenery/comment/2015/05/30/21/lDXjCi.jpg","smallImgUrl":"//pic3.40017.cn/scenery/comment/2015/05/30/21/lDXjCi_150x150_00.jpg"}],"subList":[],"dpImpressionList":[],"DPPlusStatus":0,"DPLocation":""}],"isShowConinsicon":0,"rulesContent":"","dpConinRemark":"","isCanEnter":0,"isCanDianPingBefore":0,"externalUrl":"","serviceScoreAvgList":[{"score":"10","serviceName":"同程服务"},{"score":"10","serviceName":"产品便捷"},{"score":"10","serviceName":"性价比"},{"score":"10","serviceName":"景区体验"}],"dpTagList":[{"tagColor":"","tagId":"1","tagName":"全部(539)","tagNum":"539","tagType":"","tagBorderColor":""},{"tagColor":"","tagId":"6","tagName":"最新(539)","tagNum":"539","tagType":"","tagBorderColor":""},{"tagColor":"","tagId":"2","tagName":"好评(448)","tagNum":"448","tagType":"","tagBorderColor":""},{"tagColor":"","tagId":"3","tagName":"中评(81)","tagNum":"81","tagType":"","tagBorderColor":""},{"tagColor":"","tagId":"4","tagName":"差评(10)","tagNum":"10","tagType":"","tagBorderColor":""},{"tagColor":"","tagId":"5","tagName":"有图(109)","tagNum":"109","tagType":"","tagBorderColor":""},{"tagColor":"","tagId":"15","tagName":"整体不错(37)","tagNum":"37","tagType":"","tagBorderColor":""},{"tagColor":"","tagId":"96","tagName":"设施齐全(22)","tagNum":"22","tagType":"","tagBorderColor":""},{"tagColor":"","tagId":"65","tagName":"环境好(8)","tagNum":"8","tagType":"","tagBorderColor":""},{"tagColor":"","tagId":"317","tagName":"风光好(7)","tagNum":"7","tagType":"","tagBorderColor":""},{"tagColor":"","tagId":"266","tagName":"地方不错(3)","tagNum":"3","tagType":"","tagBorderColor":""},{"tagColor":"","tagId":"111","tagName":"景色壮观(1)","tagNum":"1","tagType":"","tagBorderColor":""},{"tagColor":"","tagId":"39","tagName":"门票贵(7)","tagNum":"7","tagType":"","tagBorderColor":""},{"tagColor":"","tagId":"95","tagName":"设施旧(1)","tagNum":"1","tagType":"","tagBorderColor":""}],"dianpingInfo":[]}