{"isSuccess":1,"errorMsg":"","isCache":0,"pageInfo":{"page":43,"pageSize":10,"totalPage":54,"totalCount":539},"degreeLevel":"98","starNum":"4.2","totalNum":"539","goodNum":448,"midNum":81,"badNum":10,"hasImgNum":109,"dpList":[{"commentType":"1","dpContent":"不错挺古典大方的！保留的也挺好","dpDate":"2016-01-29","dpGuid":"b831ae8e-f744-41d6-9237-2277ea2d8809","dpId":"b831ae8e-f744-41d6-9237-2277ea2d8809","DPItemId":"25794","DPItemName":"水浒好汉城","DPSite":"1","dpTripMode":"0","dpTripPurpose":"","DPUserLevel":"1","dpUserName":"151****6147","highLightColor":"","homeId":"","isElite":"0","isMyComments":"","isPraised":"0","lineAccess":"好评","markColor":"","memberGradeUrl":"","memberHeaderImgUrl":"//pic3.40017.cn/member/face/2016/01/29/11/Qh55x1.jpg","mobile":"","productPriceDesc":"","servicePoint":"1","zanCount":"0","csReplyList":[{"replyContent":"程程非常感谢您的点评，您的认可满意是我们永恒的追求，感谢您的支持！祝您快乐每一程~<br>"}],"dpImgUrl":[],"subList":[],"dpImpressionList":[],"DPPlusStatus":0,"DPLocation":""},{"commentType":"1","dpContent":"里面感觉又建了几个新景点，不错。","dpDate":"2014-12-09","dpGuid":"t-e11763b5-9b4a-40a4-8b72-0d48f66de4c0","dpId":"t-e11763b5-9b4a-40a4-8b72-0d48f66de4c0","DPItemId":"25794","DPItemName":"水浒好汉城","DPSite":"1","dpTripMode":"1","dpTripPurpose":"4,","DPUserLevel":"2","dpUserName":"139*****709","highLightColor":"","homeId":"","isElite":"0","isMyComments":"","isPraised":"0","lineAccess":"好评","markColor":"","memberGradeUrl":"","memberHeaderImgUrl":"//pic5.40017.cn/i/ori/PELe6f5TBC.jpg","mobile":"","productPriceDesc":"","servicePoint":"1","zanCount":"0","csReplyList":null,"dpImgUrl":[],"subList":[],"dpImpressionList":[],"DPPlusStatus":0,"DPLocation":""},{"commentType":"1","dpContent":"好象身临其境，下次再来一定带上老婆孩子","dpDate":"2016-01-15","dpGuid":"b2a293a0-f823-4fd6-a027-75e2abcfcd46","dpId":"b2a293a0-f823-4fd6-a027-75e2abcfcd46","DPItemId":"25794","DPItemName":"水浒好汉城","DPSite":"1","dpTripMode":"0","dpTripPurpose":"","DPUserLevel":"1","dpUserName":"189****0879","highLightColor":"","homeId":"","isElite":"0","isMyComments":"","isPraised":"0","lineAccess":"好评","markColor":"","memberGradeUrl":"","memberHeaderImgUrl":"//pic3.40017.cn/member/face/2015/12/12/15/QQGntd.jpg","mobile":"","productPriceDesc":"","servicePoint":"1","zanCount":"0","csReplyList":null,"dpImgUrl":[],"subList":[],"dpImpressionList":[],"DPPlusStatus":0,"DPLocation":""},{"commentType":"1","dpContent":"好多地方还没弄好。总体还算不错。","dpDate":"2015-12-28","dpGuid":"68015c4f-80e4-4338-8b62-b04d95a51fba","dpId":"68015c4f-80e4-4338-8b62-b04d95a51fba","DPItemId":"25794","DPItemName":"水浒好汉城","DPSite":"1","dpTripMode":"0","dpTripPurpose":"","DPUserLevel":"1","dpUserName":"158****9375","highLightColor":"","homeId":"","isElite":"0","isMyComments":"","isPraised":"0","lineAccess":"好评","markColor":"","memberGradeUrl":"","memberHeaderImgUrl":"//pic3.40017.cn/member/face/2015/08/31/14/jNDStn.png","mobile":"","productPriceDesc":"","servicePoint":"1","zanCount":"0","csReplyList":null,"dpImgUrl":[],"subList":[],"dpImpressionList":[],"DPPlusStatus":0,"DPLocation":""},{"commentType":"1","dpContent":"真好玩，跟对象很开心","dpDate":"2015-11-17","dpGuid":"e623bafc-241a-4cd6-9e63-fedd2be5d7d4","dpId":"e623bafc-241a-4cd6-9e63-fedd2be5d7d4","DPItemId":"25794","DPItemName":"水浒好汉城","DPSite":"1","dpTripMode":"0","dpTripPurpose":"","DPUserLevel":"1","dpUserName":"156****9575","highLightColor":"","homeId":"","isElite":"0","isMyComments":"","isPraised":"0","lineAccess":"好评","markColor":"","memberGradeUrl":"","memberHeaderImgUrl":"//pic3.40017.cn/member/face/2015/10/29/11/i85XRv.jpg","mobile":"","productPriceDesc":"","servicePoint":"1","zanCount":"0","csReplyList":null,"dpImgUrl":[],"subList":[],"dpImpressionList":[],"DPPlusStatus":0,"DPLocation":""},{"commentType":"1","dpContent":"我这一生当中最想去的地方就是梁山。","dpDate":"2015-12-11","dpGuid":"31e32a31-173c-4393-83bd-d751009c98c1","dpId":"31e32a31-173c-4393-83bd-d751009c98c1","DPItemId":"25794","DPItemName":"水浒好汉城","DPSite":"1","dpTripMode":"0","dpTripPurpose":"","DPUserLevel":"2","dpUserName":"170****1499","highLightColor":"","homeId":"","isElite":"0","isMyComments":"","isPraised":"0","lineAccess":"好评","markColor":"","memberGradeUrl":"","memberHeaderImgUrl":"//pic3.40017.cn/member/face/2015/08/27/17/sHIVcY.png","mobile":"","productPriceDesc":"","servicePoint":"1","zanCount":"0","csReplyList":null,"dpImgUrl":[],"subList":[],"dpImpressionList":[],"DPPlusStatus":0,"DPLocation":""},{"commentType":"1","dpContent":"很好，很真实，是个不错的去处","dpDate":"2015-04-27","dpGuid":"t-6fffe3c2-c61b-43b1-9806-a815dda74aab","dpId":"t-6fffe3c2-c61b-43b1-9806-a815dda74aab","DPItemId":"25794","DPItemName":"水浒好汉城","DPSite":"1","dpTripMode":"0","dpTripPurpose":"0,","DPUserLevel":"1","dpUserName":"6508607DF7E0F1D7","highLightColor":"","homeId":"","isElite":"0","isMyComments":"","isPraised":"0","lineAccess":"好评","markColor":"","memberGradeUrl":"","memberHeaderImgUrl":"//pic3.40017.cn/member/face/2017/12/05/16/tcdefault.png","mobile":"","productPriceDesc":"","servicePoint":"1","zanCount":"0","csReplyList":null,"dpImgUrl":[{"imgUrl":"//pic3.40017.cn/scenery/comment/2015/04/27/11/RQJN6u.jpg","originalImgUrl":"//pic3.40017.cn/scenery/comment/2015/04/27/11/RQJN6u.jpg","smallImgUrl":"//pic3.40017.cn/scenery/comment/2015/04/27/11/RQJN6u_150x150_00.jpg"}],"subList":[],"dpImpressionList":[],"DPPlusStatus":0,"DPLocation":""},{"commentType":"1","dpContent":"不错就是没时间去有机会去","dpDate":"2015-12-16","dpGuid":"ac23f713-f389-4fd6-9430-acf29a8bc98f","dpId":"ac23f713-f389-4fd6-9430-acf29a8bc98f","DPItemId":"25794","DPItemName":"水浒好汉城","DPSite":"1","dpTripMode":"0","dpTripPurpose":"","DPUserLevel":"2","dpUserName":"187****4836","highLightColor":"","homeId":"","isElite":"0","isMyComments":"","isPraised":"0","lineAccess":"好评","markColor":"","memberGradeUrl":"","memberHeaderImgUrl":"//upload.17u.com/uploadfile/2014/11/19/7/201411190655566683921.jpg","mobile":"","productPriceDesc":"","servicePoint":"1","zanCount":"0","csReplyList":null,"dpImgUrl":[],"subList":[],"dpImpressionList":[],"DPPlusStatus":0,"DPLocation":""},{"commentType":"1","dpContent":"去时有点下雨，人不多，逛了2个小时左右吧。","dpDate":"2015-09-04","dpGuid":"b78f484d-d0bb-46fe-a593-01c10555f2c6","dpId":"b78f484d-d0bb-46fe-a593-01c10555f2c6","DPItemId":"25794","DPItemName":"水浒好汉城","DPSite":"1","dpTripMode":"0","dpTripPurpose":"","DPUserLevel":"1","dpUserName":"132****2785","highLightColor":"","homeId":"","isElite":"0","isMyComments":"","isPraised":"0","lineAccess":"好评","markColor":"","memberGradeUrl":"","memberHeaderImgUrl":"//pic3.40017.cn/member/face/2015/08/27/17/sHIVcY.png","mobile":"","productPriceDesc":"","servicePoint":"1","zanCount":"0","csReplyList":null,"dpImgUrl":[{"imgUrl":"//pic3.40017.cn/scenery/comment/2015/09/04/20/rbrLXo.jpg","originalImgUrl":"//pic3.40017.cn/scenery/comment/2015/09/04/20/rbrLXo.jpg","smallImgUrl":"//pic3.40017.cn/scenery/comment/2015/09/04/20/rbrLXo_150x150_00.jpg"}],"subList":[],"dpImpressionList":[],"DPPlusStatus":0,"DPLocation":""},{"commentType":"1","dpContent":"美的不得了，人生路上图片大全。","dpDate":"2015-12-23","dpGuid":"aa267cb6-f1ca-4e3f-a454-49b6d6f2b020","dpId":"aa267cb6-f1ca-4e3f-a454-49b6d6f2b020","DPItemId":"25794","DPItemName":"水浒好汉城","DPSite":"1","dpTripMode":"0","dpTripPurpose":"","DPUserLevel":"2","dpUserName":"158****0912","highLightColor":"","homeId":"","isElite":"0","isMyComments":"","isPraised":"0","lineAccess":"好评","markColor":"","memberGradeUrl":"","memberHeaderImgUrl":"//pic3.40017.cn/member/face/2015/06/28/06/H44g6h.jpg","mobile":"","productPriceDesc":"","servicePoint":"1","zanCount":"1","csReplyList":null,"dpImgUrl":[],"subList":[],"dpImpressionList":[],"DPPlusStatus":0,"DPLocation":""}],"isShowConinsicon":0,"rulesContent":"","dpConinRemark":"","isCanEnter":0,"isCanDianPingBefore":0,"externalUrl":"","serviceScoreAvgList":[{"score":"10","serviceName":"同程服务"},{"score":"10","serviceName":"产品便捷"},{"score":"10","serviceName":"性价比"},{"score":"10","serviceName":"景区体验"}],"dpTagList":[{"tagColor":"","tagId":"1","tagName":"全部(539)","tagNum":"539","tagType":"","tagBorderColor":""},{"tagColor":"","tagId":"6","tagName":"最新(539)","tagNum":"539","tagType":"","tagBorderColor":""},{"tagColor":"","tagId":"2","tagName":"好评(448)","tagNum":"448","tagType":"","tagBorderColor":""},{"tagColor":"","tagId":"3","tagName":"中评(81)","tagNum":"81","tagType":"","tagBorderColor":""},{"tagColor":"","tagId":"4","tagName":"差评(10)","tagNum":"10","tagType":"","tagBorderColor":""},{"tagColor":"","tagId":"5","tagName":"有图(109)","tagNum":"109","tagType":"","tagBorderColor":""},{"tagColor":"","tagId":"15","tagName":"整体不错(37)","tagNum":"37","tagType":"","tagBorderColor":""},{"tagColor":"","tagId":"96","tagName":"设施齐全(22)","tagNum":"22","tagType":"","tagBorderColor":""},{"tagColor":"","tagId":"65","tagName":"环境好(8)","tagNum":"8","tagType":"","tagBorderColor":""},{"tagColor":"","tagId":"317","tagName":"风光好(7)","tagNum":"7","tagType":"","tagBorderColor":""},{"tagColor":"","tagId":"266","tagName":"地方不错(3)","tagNum":"3","tagType":"","tagBorderColor":""},{"tagColor":"","tagId":"111","tagName":"景色壮观(1)","tagNum":"1","tagType":"","tagBorderColor":""},{"tagColor":"","tagId":"39","tagName":"门票贵(7)","tagNum":"7","tagType":"","tagBorderColor":""},{"tagColor":"","tagId":"95","tagName":"设施旧(1)","tagNum":"1","tagType":"","tagBorderColor":""}],"dianpingInfo":[]}