{"isSuccess":1,"errorMsg":"","isCache":0,"pageInfo":{"page":4,"pageSize":10,"totalPage":54,"totalCount":539},"degreeLevel":"98","starNum":"4.2","totalNum":"539","goodNum":448,"midNum":81,"badNum":10,"hasImgNum":109,"dpList":[{"commentType":"1","dpContent":"这次是和家人一起去的，是个休闲旅游的好地方，家人都很喜欢，特别是孩子，玩的非常开心。里面设施齐全，服务人员服务很到位，地理位置好，尤其是同程提供了这么优惠的服务！","dpDate":"2015-12-22","dpGuid":"00a8ab84-4b4e-4d1b-8ffa-7032faa8eea5","dpId":"00a8ab84-4b4e-4d1b-8ffa-7032faa8eea5","DPItemId":"25794","DPItemName":"水浒好汉城","DPSite":"1","dpTripMode":"0","dpTripPurpose":"","DPUserLevel":"3","dpUserName":"187****0119","highLightColor":"","homeId":"","isElite":"0","isMyComments":"","isPraised":"0","lineAccess":"好评","markColor":"","memberGradeUrl":"","memberHeaderImgUrl":"//pic3.40017.cn/member/face/2015/08/27/17/sHIVcY.png","mobile":"","productPriceDesc":"","servicePoint":"1","zanCount":"1","csReplyList":null,"dpImgUrl":[{"imgUrl":"//pic3.40017.cn/scenery/comment/2015/12/22/21/OaU1HR.jpg","originalImgUrl":"//pic3.40017.cn/scenery/comment/2015/12/22/21/OaU1HR.jpg","smallImgUrl":"//pic3.40017.cn/scenery/comment/2015/12/22/21/OaU1HR_150x150_00.jpg"}],"subList":[],"dpImpressionList":[],"DPPlusStatus":0,"DPLocation":""},{"commentType":"1","dpContent":"这次是和家人一起去的，是个休闲旅游的好地方，家人都很喜欢，特别是孩子，玩的非常开心。里面设施齐全，服务人员服务很到位，地理位置好，尤其是同程提供了这么优惠的服务！","dpDate":"2015-12-24","dpGuid":"0393dff5-bd65-4fab-93c3-f6037b64bafa","dpId":"0393dff5-bd65-4fab-93c3-f6037b64bafa","DPItemId":"25794","DPItemName":"水浒好汉城","DPSite":"1","dpTripMode":"0","dpTripPurpose":"","DPUserLevel":"3","dpUserName":"187****0119","highLightColor":"","homeId":"","isElite":"0","isMyComments":"","isPraised":"0","lineAccess":"好评","markColor":"","memberGradeUrl":"","memberHeaderImgUrl":"//pic3.40017.cn/member/face/2015/08/27/17/sHIVcY.png","mobile":"","productPriceDesc":"","servicePoint":"1","zanCount":"1","csReplyList":null,"dpImgUrl":[{"imgUrl":"//pic3.40017.cn/scenery/comment/2015/12/24/09/lVV1Xe.jpg","originalImgUrl":"//pic3.40017.cn/scenery/comment/2015/12/24/09/lVV1Xe.jpg","smallImgUrl":"//pic3.40017.cn/scenery/comment/2015/12/24/09/lVV1Xe_150x150_00.jpg"}],"subList":[],"dpImpressionList":[],"DPPlusStatus":0,"DPLocation":""},{"commentType":"1","dpContent":"这次是和家人一起去的，是个休闲旅游的好地方，家人都很喜欢，特别是孩子，玩的非常开心。里面设施齐全，服务人员服务很到位，地理位置好，尤其是同程提供了这么优惠的服务！","dpDate":"2015-12-11","dpGuid":"8a9a95fa-62d8-4fbb-be84-c60cf4f41c6c","dpId":"8a9a95fa-62d8-4fbb-be84-c60cf4f41c6c","DPItemId":"25794","DPItemName":"水浒好汉城","DPSite":"1","dpTripMode":"0","dpTripPurpose":"","DPUserLevel":"3","dpUserName":"187****0119","highLightColor":"","homeId":"","isElite":"0","isMyComments":"","isPraised":"0","lineAccess":"好评","markColor":"","memberGradeUrl":"","memberHeaderImgUrl":"//pic3.40017.cn/member/face/2015/08/27/17/sHIVcY.png","mobile":"","productPriceDesc":"","servicePoint":"1","zanCount":"1","csReplyList":null,"dpImgUrl":[{"imgUrl":"//pic3.40017.cn/scenery/comment/2015/12/11/07/8xkX9i.jpg","originalImgUrl":"//pic3.40017.cn/scenery/comment/2015/12/11/07/8xkX9i.jpg","smallImgUrl":"//pic3.40017.cn/scenery/comment/2015/12/11/07/8xkX9i_150x150_00.jpg"}],"subList":[],"dpImpressionList":[],"DPPlusStatus":0,"DPLocation":""},{"commentType":"1","dpContent":"这次是和家人一起去的，是个休闲旅游的好地方，家人都很喜欢，特别是孩子，玩的非常开心。里面设施齐全，服务人员服务很到位，地理位置好，尤其是同程提供了这么优惠的服务！","dpDate":"2015-12-18","dpGuid":"eaf74530-f4aa-4216-9cc8-02372797b52d","dpId":"eaf74530-f4aa-4216-9cc8-02372797b52d","DPItemId":"25794","DPItemName":"水浒好汉城","DPSite":"1","dpTripMode":"0","dpTripPurpose":"","DPUserLevel":"3","dpUserName":"187****0119","highLightColor":"","homeId":"","isElite":"0","isMyComments":"","isPraised":"0","lineAccess":"好评","markColor":"","memberGradeUrl":"","memberHeaderImgUrl":"//pic3.40017.cn/member/face/2015/08/27/17/sHIVcY.png","mobile":"","productPriceDesc":"","servicePoint":"1","zanCount":"1","csReplyList":null,"dpImgUrl":[{"imgUrl":"//pic3.40017.cn/scenery/comment/2015/12/18/13/Zf0ide.jpg","originalImgUrl":"//pic3.40017.cn/scenery/comment/2015/12/18/13/Zf0ide.jpg","smallImgUrl":"//pic3.40017.cn/scenery/comment/2015/12/18/13/Zf0ide_150x150_00.jpg"}],"subList":[],"dpImpressionList":[],"DPPlusStatus":0,"DPLocation":""},{"commentType":"1","dpContent":"这次是和家人一起去的，是个休闲旅游的好地方，家人都很喜欢，特别是孩子，玩的非常开心。里面设施齐全，服务人员服务很到位，地理位置好，尤其是同程提供了这么优惠的服务！","dpDate":"2015-12-25","dpGuid":"ad05ac07-f2a8-4bed-9d8f-a2d7eeee3115","dpId":"ad05ac07-f2a8-4bed-9d8f-a2d7eeee3115","DPItemId":"25794","DPItemName":"水浒好汉城","DPSite":"1","dpTripMode":"0","dpTripPurpose":"","DPUserLevel":"3","dpUserName":"187****0119","highLightColor":"","homeId":"","isElite":"0","isMyComments":"","isPraised":"0","lineAccess":"好评","markColor":"","memberGradeUrl":"","memberHeaderImgUrl":"//pic3.40017.cn/member/face/2015/08/27/17/sHIVcY.png","mobile":"","productPriceDesc":"","servicePoint":"1","zanCount":"1","csReplyList":null,"dpImgUrl":[{"imgUrl":"//pic3.40017.cn/scenery/comment/2015/12/25/11/Q5mmAk.jpg","originalImgUrl":"//pic3.40017.cn/scenery/comment/2015/12/25/11/Q5mmAk.jpg","smallImgUrl":"//pic3.40017.cn/scenery/comment/2015/12/25/11/Q5mmAk_150x150_00.jpg"}],"subList":[],"dpImpressionList":[],"DPPlusStatus":0,"DPLocation":""},{"commentType":"1","dpContent":"这次是和家人一起去的，是个休闲旅游的好地方，家人都很喜欢，特别是孩子，玩的非常开心。里面设施齐全，服务人员服务很到位，地理位置好，尤其是同程提供了这么优惠的服务！","dpDate":"2016-01-19","dpGuid":"ee86eb30-bb2f-4a7c-b959-3dd8b60332ec","dpId":"ee86eb30-bb2f-4a7c-b959-3dd8b60332ec","DPItemId":"25794","DPItemName":"水浒好汉城","DPSite":"1","dpTripMode":"0","dpTripPurpose":"","DPUserLevel":"3","dpUserName":"187****0119","highLightColor":"","homeId":"","isElite":"0","isMyComments":"","isPraised":"0","lineAccess":"好评","markColor":"","memberGradeUrl":"","memberHeaderImgUrl":"//pic3.40017.cn/member/face/2015/08/27/17/sHIVcY.png","mobile":"","productPriceDesc":"","servicePoint":"1","zanCount":"0","csReplyList":null,"dpImgUrl":[{"imgUrl":"//pic3.40017.cn/scenery/comment/2016/01/19/09/W3rAZ6.jpg","originalImgUrl":"//pic3.40017.cn/scenery/comment/2016/01/19/09/W3rAZ6.jpg","smallImgUrl":"//pic3.40017.cn/scenery/comment/2016/01/19/09/W3rAZ6_150x150_00.jpg"}],"subList":[],"dpImpressionList":[],"DPPlusStatus":0,"DPLocation":""},{"commentType":"1","dpContent":"不错，服务人员很热心，来晚了，工作人员还坚持等我们，很感动","dpDate":"2015-10-02","dpGuid":"d161b864-831f-47a0-b22e-864952024a5a","dpId":"d161b864-831f-47a0-b22e-864952024a5a","DPItemId":"25794","DPItemName":"水浒好汉城","DPSite":"1","dpTripMode":"0","dpTripPurpose":"","DPUserLevel":"4","dpUserName":"180****7888","highLightColor":"","homeId":"","isElite":"0","isMyComments":"","isPraised":"0","lineAccess":"好评","markColor":"","memberGradeUrl":"","memberHeaderImgUrl":"//upload.17u.com/uploadfile/2014/10/23/7/201410230205025515574.jpg","mobile":"","productPriceDesc":"","servicePoint":"1","zanCount":"1","csReplyList":null,"dpImgUrl":[{"imgUrl":"//pic3.40017.cn/scenery/comment/2015/10/02/07/isgs1D.jpg","originalImgUrl":"//pic3.40017.cn/scenery/comment/2015/10/02/07/isgs1D.jpg","smallImgUrl":"//pic3.40017.cn/scenery/comment/2015/10/02/07/isgs1D_150x150_00.jpg"},{"imgUrl":"//pic3.40017.cn/scenery/comment/2015/10/02/07/ybAo3Z.jpg","originalImgUrl":"//pic3.40017.cn/scenery/comment/2015/10/02/07/ybAo3Z.jpg","smallImgUrl":"//pic3.40017.cn/scenery/comment/2015/10/02/07/ybAo3Z_150x150_00.jpg"},{"imgUrl":"//pic3.40017.cn/scenery/comment/2015/10/02/07/CTgrLi.jpg","originalImgUrl":"//pic3.40017.cn/scenery/comment/2015/10/02/07/CTgrLi.jpg","smallImgUrl":"//pic3.40017.cn/scenery/comment/2015/10/02/07/CTgrLi_150x150_00.jpg"},{"imgUrl":"//pic3.40017.cn/scenery/comment/2015/10/02/07/doTYAL.jpg","originalImgUrl":"//pic3.40017.cn/scenery/comment/2015/10/02/07/doTYAL.jpg","smallImgUrl":"//pic3.40017.cn/scenery/comment/2015/10/02/07/doTYAL_150x150_00.jpg"}],"subList":[],"dpImpressionList":[],"DPPlusStatus":0,"DPLocation":""},{"commentType":"1","dpContent":"这次是和家人一起去的，是个休闲旅游的好地方，家人都很喜欢，特别是孩子，玩的非常开心。里面设施齐全，服务人员服务很到位，地理位置好，尤其是同程提供了这么优惠的服务！","dpDate":"2015-12-14","dpGuid":"ab1812e2-fe2f-4d75-932e-837d4a66d156","dpId":"ab1812e2-fe2f-4d75-932e-837d4a66d156","DPItemId":"25794","DPItemName":"水浒好汉城","DPSite":"1","dpTripMode":"0","dpTripPurpose":"","DPUserLevel":"3","dpUserName":"187****0119","highLightColor":"","homeId":"","isElite":"0","isMyComments":"","isPraised":"0","lineAccess":"好评","markColor":"","memberGradeUrl":"","memberHeaderImgUrl":"//pic3.40017.cn/member/face/2015/08/27/17/sHIVcY.png","mobile":"","productPriceDesc":"","servicePoint":"1","zanCount":"1","csReplyList":null,"dpImgUrl":[{"imgUrl":"//pic3.40017.cn/scenery/comment/2015/12/14/10/B8Gpdh.jpg","originalImgUrl":"//pic3.40017.cn/scenery/comment/2015/12/14/10/B8Gpdh.jpg","smallImgUrl":"//pic3.40017.cn/scenery/comment/2015/12/14/10/B8Gpdh_150x150_00.jpg"}],"subList":[],"dpImpressionList":[],"DPPlusStatus":0,"DPLocation":""},{"commentType":"1","dpContent":"带老婆孩子一起去的，挺好的，里面很大，看了两场表演挺好的。","dpDate":"2018-08-13","dpGuid":"03e8d511-0d74-4d50-872f-295c1df547f6","dpId":"03e8d511-0d74-4d50-872f-295c1df547f6","DPItemId":"25794","DPItemName":"水浒好汉城","DPSite":"1","dpTripMode":"0","dpTripPurpose":"","DPUserLevel":"1","dpUserName":"携手游戏人间","highLightColor":"","homeId":"","isElite":"0","isMyComments":"","isPraised":"0","lineAccess":"好评","markColor":"","memberGradeUrl":"","memberHeaderImgUrl":"//pic3.40017.cn/member/face/2016/11/05/18/1rY85x.jpg","mobile":"","productPriceDesc":"","servicePoint":"1","zanCount":"0","csReplyList":null,"dpImgUrl":[{"imgUrl":"//pic5.40017.cn/02/001/93/4b/rBANDFtxFFKAc-e7AAU153JhSNw809.jpg","originalImgUrl":"//pic5.40017.cn/02/001/93/4b/rBANDFtxFFKAc-e7AAU153JhSNw809.jpg","smallImgUrl":"//pic5.40017.cn/02/001/93/4b/rBANDFtxFFKAc-e7AAU153JhSNw809_150x150_00.jpg"},{"imgUrl":"//pic5.40017.cn/02/000/93/d6/rBLkCFtxFFKAAKPVAASX9k7lvQ8182.jpg","originalImgUrl":"//pic5.40017.cn/02/000/93/d6/rBLkCFtxFFKAAKPVAASX9k7lvQ8182.jpg","smallImgUrl":"//pic5.40017.cn/02/000/93/d6/rBLkCFtxFFKAAKPVAASX9k7lvQ8182_150x150_00.jpg"},{"imgUrl":"//pic5.40017.cn/02/001/93/d6/rBLkCVtxFFOAIZt_AAIvJmkPNpQ732.jpg","originalImgUrl":"//pic5.40017.cn/02/001/93/d6/rBLkCVtxFFOAIZt_AAIvJmkPNpQ732.jpg","smallImgUrl":"//pic5.40017.cn/02/001/93/d6/rBLkCVtxFFOAIZt_AAIvJmkPNpQ732_150x150_00.jpg"},{"imgUrl":"//pic5.40017.cn/02/000/93/d6/rBLkCFtxFFOAX6tQAAPIBeOrye4299.jpg","originalImgUrl":"//pic5.40017.cn/02/000/93/d6/rBLkCFtxFFOAX6tQAAPIBeOrye4299.jpg","smallImgUrl":"//pic5.40017.cn/02/000/93/d6/rBLkCFtxFFOAX6tQAAPIBeOrye4299_150x150_00.jpg"},{"imgUrl":"//pic5.40017.cn/01/001/93/cf/rBLkBltxFFSARmH6AASjC5tc92o110.jpg","originalImgUrl":"//pic5.40017.cn/01/001/93/cf/rBLkBltxFFSARmH6AASjC5tc92o110.jpg","smallImgUrl":"//pic5.40017.cn/01/001/93/cf/rBLkBltxFFSARmH6AASjC5tc92o110_150x150_00.jpg"},{"imgUrl":"//pic5.40017.cn/01/001/93/cf/rBLkBVtxFFSAFAGNAANXNRyE8Mg312.jpg","originalImgUrl":"//pic5.40017.cn/01/001/93/cf/rBLkBVtxFFSAFAGNAANXNRyE8Mg312.jpg","smallImgUrl":"//pic5.40017.cn/01/001/93/cf/rBLkBVtxFFSAFAGNAANXNRyE8Mg312_150x150_00.jpg"},{"imgUrl":"//pic5.40017.cn/01/001/93/5a/rBANC1txFFWAVyyAAASKRSNOgtg066.jpg","originalImgUrl":"//pic5.40017.cn/01/001/93/5a/rBANC1txFFWAVyyAAASKRSNOgtg066.jpg","smallImgUrl":"//pic5.40017.cn/01/001/93/5a/rBANC1txFFWAVyyAAASKRSNOgtg066_150x150_00.jpg"},{"imgUrl":"//pic5.40017.cn/01/000/93/cf/rBLkBltxFFiANoZaAAPeflUBqio559.jpg","originalImgUrl":"//pic5.40017.cn/01/000/93/cf/rBLkBltxFFiANoZaAAPeflUBqio559.jpg","smallImgUrl":"//pic5.40017.cn/01/000/93/cf/rBLkBltxFFiANoZaAAPeflUBqio559_150x150_00.jpg"}],"subList":[],"dpImpressionList":[],"DPPlusStatus":3,"DPLocation":""},{"commentType":"1","dpContent":"这次是和家人一起去的，是个休闲旅游的好地方，家人都很喜欢，特别是孩子，玩的非常开心。里面设施齐全，服务人员服务很到位，地理位置好，尤其是同程提供了这么优惠的服务！","dpDate":"2016-01-08","dpGuid":"f1ed13a3-031c-4daf-bfe9-79cd6f5c4fe9","dpId":"f1ed13a3-031c-4daf-bfe9-79cd6f5c4fe9","DPItemId":"25794","DPItemName":"水浒好汉城","DPSite":"1","dpTripMode":"0","dpTripPurpose":"","DPUserLevel":"3","dpUserName":"悟奈","highLightColor":"","homeId":"","isElite":"0","isMyComments":"","isPraised":"0","lineAccess":"好评","markColor":"","memberGradeUrl":"","memberHeaderImgUrl":"https://pic5.40017.cn/i/ori/PELe6f5TBC.jpg","mobile":"","productPriceDesc":"","servicePoint":"1","zanCount":"1","csReplyList":null,"dpImgUrl":[{"imgUrl":"//pic3.40017.cn/scenery/comment/2016/01/08/09/VT825x.jpg","originalImgUrl":"//pic3.40017.cn/scenery/comment/2016/01/08/09/VT825x.jpg","smallImgUrl":"//pic3.40017.cn/scenery/comment/2016/01/08/09/VT825x_150x150_00.jpg"}],"subList":[],"dpImpressionList":[],"DPPlusStatus":0,"DPLocation":""}],"isShowConinsicon":0,"rulesContent":"","dpConinRemark":"","isCanEnter":0,"isCanDianPingBefore":0,"externalUrl":"","serviceScoreAvgList":[{"score":"10","serviceName":"同程服务"},{"score":"10","serviceName":"产品便捷"},{"score":"10","serviceName":"性价比"},{"score":"10","serviceName":"景区体验"}],"dpTagList":[{"tagColor":"","tagId":"1","tagName":"全部(539)","tagNum":"539","tagType":"","tagBorderColor":""},{"tagColor":"","tagId":"6","tagName":"最新(539)","tagNum":"539","tagType":"","tagBorderColor":""},{"tagColor":"","tagId":"2","tagName":"好评(448)","tagNum":"448","tagType":"","tagBorderColor":""},{"tagColor":"","tagId":"3","tagName":"中评(81)","tagNum":"81","tagType":"","tagBorderColor":""},{"tagColor":"","tagId":"4","tagName":"差评(10)","tagNum":"10","tagType":"","tagBorderColor":""},{"tagColor":"","tagId":"5","tagName":"有图(109)","tagNum":"109","tagType":"","tagBorderColor":""},{"tagColor":"","tagId":"15","tagName":"整体不错(37)","tagNum":"37","tagType":"","tagBorderColor":""},{"tagColor":"","tagId":"96","tagName":"设施齐全(22)","tagNum":"22","tagType":"","tagBorderColor":""},{"tagColor":"","tagId":"65","tagName":"环境好(8)","tagNum":"8","tagType":"","tagBorderColor":""},{"tagColor":"","tagId":"317","tagName":"风光好(7)","tagNum":"7","tagType":"","tagBorderColor":""},{"tagColor":"","tagId":"266","tagName":"地方不错(3)","tagNum":"3","tagType":"","tagBorderColor":""},{"tagColor":"","tagId":"111","tagName":"景色壮观(1)","tagNum":"1","tagType":"","tagBorderColor":""},{"tagColor":"","tagId":"39","tagName":"门票贵(7)","tagNum":"7","tagType":"","tagBorderColor":""},{"tagColor":"","tagId":"95","tagName":"设施旧(1)","tagNum":"1","tagType":"","tagBorderColor":""}],"dianpingInfo":[]}