{"isSuccess":1,"errorMsg":"","isCache":0,"pageInfo":{"page":5,"pageSize":10,"totalPage":54,"totalCount":539},"degreeLevel":"98","starNum":"4.2","totalNum":"539","goodNum":448,"midNum":81,"badNum":10,"hasImgNum":109,"dpList":[{"commentType":"1","dpContent":"这次是和家人一起去的，是个休闲旅游的好地方，家人都很喜欢，特别是孩子，玩的非常开心。里面设施齐全，服务人员服务很到位，地理位置好，尤其是同程提供了这么优惠的服务！","dpDate":"2016-01-12","dpGuid":"494a7eb3-0c38-4bba-8879-8380ea0aad92","dpId":"494a7eb3-0c38-4bba-8879-8380ea0aad92","DPItemId":"25794","DPItemName":"水浒好汉城","DPSite":"1","dpTripMode":"0","dpTripPurpose":"","DPUserLevel":"3","dpUserName":"悟奈","highLightColor":"","homeId":"","isElite":"0","isMyComments":"","isPraised":"0","lineAccess":"好评","markColor":"","memberGradeUrl":"","memberHeaderImgUrl":"https://pic5.40017.cn/i/ori/PELe6f5TBC.jpg","mobile":"","productPriceDesc":"","servicePoint":"1","zanCount":"2","csReplyList":null,"dpImgUrl":[{"imgUrl":"//pic3.40017.cn/scenery/comment/2016/01/12/10/OCBvyi.jpg","originalImgUrl":"//pic3.40017.cn/scenery/comment/2016/01/12/10/OCBvyi.jpg","smallImgUrl":"//pic3.40017.cn/scenery/comment/2016/01/12/10/OCBvyi_150x150_00.jpg"}],"subList":[],"dpImpressionList":[],"DPPlusStatus":0,"DPLocation":""},{"commentType":"1","dpContent":"带老婆孩子一起去的，挺好的，里面很大，看了两场表演挺好的。","dpDate":"2018-08-13","dpGuid":"03e8d511-0d74-4d50-872f-295c1df547f6","dpId":"03e8d511-0d74-4d50-872f-295c1df547f6","DPItemId":"25794","DPItemName":"水浒好汉城","DPSite":"1","dpTripMode":"0","dpTripPurpose":"","DPUserLevel":"1","dpUserName":"携手游戏人间","highLightColor":"","homeId":"","isElite":"0","isMyComments":"","isPraised":"0","lineAccess":"好评","markColor":"","memberGradeUrl":"","memberHeaderImgUrl":"//pic3.40017.cn/member/face/2016/11/05/18/1rY85x.jpg","mobile":"","productPriceDesc":"","servicePoint":"1","zanCount":"0","csReplyList":null,"dpImgUrl":[{"imgUrl":"//pic5.40017.cn/02/001/93/4b/rBANDFtxFFKAc-e7AAU153JhSNw809.jpg","originalImgUrl":"//pic5.40017.cn/02/001/93/4b/rBANDFtxFFKAc-e7AAU153JhSNw809.jpg","smallImgUrl":"//pic5.40017.cn/02/001/93/4b/rBANDFtxFFKAc-e7AAU153JhSNw809_150x150_00.jpg"},{"imgUrl":"//pic5.40017.cn/02/000/93/d6/rBLkCFtxFFKAAKPVAASX9k7lvQ8182.jpg","originalImgUrl":"//pic5.40017.cn/02/000/93/d6/rBLkCFtxFFKAAKPVAASX9k7lvQ8182.jpg","smallImgUrl":"//pic5.40017.cn/02/000/93/d6/rBLkCFtxFFKAAKPVAASX9k7lvQ8182_150x150_00.jpg"},{"imgUrl":"//pic5.40017.cn/02/001/93/d6/rBLkCVtxFFOAIZt_AAIvJmkPNpQ732.jpg","originalImgUrl":"//pic5.40017.cn/02/001/93/d6/rBLkCVtxFFOAIZt_AAIvJmkPNpQ732.jpg","smallImgUrl":"//pic5.40017.cn/02/001/93/d6/rBLkCVtxFFOAIZt_AAIvJmkPNpQ732_150x150_00.jpg"},{"imgUrl":"//pic5.40017.cn/02/000/93/d6/rBLkCFtxFFOAX6tQAAPIBeOrye4299.jpg","originalImgUrl":"//pic5.40017.cn/02/000/93/d6/rBLkCFtxFFOAX6tQAAPIBeOrye4299.jpg","smallImgUrl":"//pic5.40017.cn/02/000/93/d6/rBLkCFtxFFOAX6tQAAPIBeOrye4299_150x150_00.jpg"},{"imgUrl":"//pic5.40017.cn/01/001/93/cf/rBLkBltxFFSARmH6AASjC5tc92o110.jpg","originalImgUrl":"//pic5.40017.cn/01/001/93/cf/rBLkBltxFFSARmH6AASjC5tc92o110.jpg","smallImgUrl":"//pic5.40017.cn/01/001/93/cf/rBLkBltxFFSARmH6AASjC5tc92o110_150x150_00.jpg"},{"imgUrl":"//pic5.40017.cn/01/001/93/cf/rBLkBVtxFFSAFAGNAANXNRyE8Mg312.jpg","originalImgUrl":"//pic5.40017.cn/01/001/93/cf/rBLkBVtxFFSAFAGNAANXNRyE8Mg312.jpg","smallImgUrl":"//pic5.40017.cn/01/001/93/cf/rBLkBVtxFFSAFAGNAANXNRyE8Mg312_150x150_00.jpg"},{"imgUrl":"//pic5.40017.cn/01/001/93/5a/rBANC1txFFWAVyyAAASKRSNOgtg066.jpg","originalImgUrl":"//pic5.40017.cn/01/001/93/5a/rBANC1txFFWAVyyAAASKRSNOgtg066.jpg","smallImgUrl":"//pic5.40017.cn/01/001/93/5a/rBANC1txFFWAVyyAAASKRSNOgtg066_150x150_00.jpg"},{"imgUrl":"//pic5.40017.cn/01/000/93/cf/rBLkBltxFFiANoZaAAPeflUBqio559.jpg","originalImgUrl":"//pic5.40017.cn/01/000/93/cf/rBLkBltxFFiANoZaAAPeflUBqio559.jpg","smallImgUrl":"//pic5.40017.cn/01/000/93/cf/rBLkBltxFFiANoZaAAPeflUBqio559_150x150_00.jpg"}],"subList":[],"dpImpressionList":[],"DPPlusStatus":3,"DPLocation":""},{"commentType":"1","dpContent":"这次是和家人一起去的，是个休闲旅游的好地方，家人都很喜欢，特别是孩子，玩的非常开心。里面设施齐全，服务人员服务很到位，地理位置好，尤其是同程提供了这么优惠的服务！","dpDate":"2015-12-14","dpGuid":"ab1812e2-fe2f-4d75-932e-837d4a66d156","dpId":"ab1812e2-fe2f-4d75-932e-837d4a66d156","DPItemId":"25794","DPItemName":"水浒好汉城","DPSite":"1","dpTripMode":"0","dpTripPurpose":"","DPUserLevel":"3","dpUserName":"187****0119","highLightColor":"","homeId":"","isElite":"0","isMyComments":"","isPraised":"0","lineAccess":"好评","markColor":"","memberGradeUrl":"","memberHeaderImgUrl":"//pic3.40017.cn/member/face/2015/08/27/17/sHIVcY.png","mobile":"","productPriceDesc":"","servicePoint":"1","zanCount":"1","csReplyList":null,"dpImgUrl":[{"imgUrl":"//pic3.40017.cn/scenery/comment/2015/12/14/10/B8Gpdh.jpg","originalImgUrl":"//pic3.40017.cn/scenery/comment/2015/12/14/10/B8Gpdh.jpg","smallImgUrl":"//pic3.40017.cn/scenery/comment/2015/12/14/10/B8Gpdh_150x150_00.jpg"}],"subList":[],"dpImpressionList":[],"DPPlusStatus":0,"DPLocation":""},{"commentType":"1","dpContent":"这次是和家人一起去的，是个休闲旅游的好地方，家人都很喜欢，特别是孩子，玩的非常开心。里面设施齐全，服务人员服务很到位，地理位置好，尤其是同程提供了这么优惠的服务！","dpDate":"2016-01-08","dpGuid":"f1ed13a3-031c-4daf-bfe9-79cd6f5c4fe9","dpId":"f1ed13a3-031c-4daf-bfe9-79cd6f5c4fe9","DPItemId":"25794","DPItemName":"水浒好汉城","DPSite":"1","dpTripMode":"0","dpTripPurpose":"","DPUserLevel":"3","dpUserName":"悟奈","highLightColor":"","homeId":"","isElite":"0","isMyComments":"","isPraised":"0","lineAccess":"好评","markColor":"","memberGradeUrl":"","memberHeaderImgUrl":"https://pic5.40017.cn/i/ori/PELe6f5TBC.jpg","mobile":"","productPriceDesc":"","servicePoint":"1","zanCount":"1","csReplyList":null,"dpImgUrl":[{"imgUrl":"//pic3.40017.cn/scenery/comment/2016/01/08/09/VT825x.jpg","originalImgUrl":"//pic3.40017.cn/scenery/comment/2016/01/08/09/VT825x.jpg","smallImgUrl":"//pic3.40017.cn/scenery/comment/2016/01/08/09/VT825x_150x150_00.jpg"}],"subList":[],"dpImpressionList":[],"DPPlusStatus":0,"DPLocation":""},{"commentType":"1","dpContent":"景色宜人，关键是人不多，表演也不错，有机会还会来！！","dpDate":"2016-08-29","dpGuid":"520cec95-a979-456e-aad7-10f2dc0fa7a1","dpId":"520cec95-a979-456e-aad7-10f2dc0fa7a1","DPItemId":"25794","DPItemName":"水浒好汉城","DPSite":"1","dpTripMode":"0","dpTripPurpose":"","DPUserLevel":"1","dpUserName":"清风雅静","highLightColor":"","homeId":"","isElite":"0","isMyComments":"","isPraised":"0","lineAccess":"中评","markColor":"","memberGradeUrl":"","memberHeaderImgUrl":"//pic3.40017.cn/member/face/2016/08/11/19/MdsO9O.jpg","mobile":"","productPriceDesc":"","servicePoint":"2","zanCount":"0","csReplyList":null,"dpImgUrl":[{"imgUrl":"//pic4.40017.cn/scenery/comment/2016/08/29/07/of4cCz.jpg","originalImgUrl":"//pic4.40017.cn/scenery/comment/2016/08/29/07/of4cCz.jpg","smallImgUrl":"//pic4.40017.cn/scenery/comment/2016/08/29/07/of4cCz_150x150_00.jpg"},{"imgUrl":"//pic4.40017.cn/scenery/comment/2016/08/29/07/U7QHI1.jpg","originalImgUrl":"//pic4.40017.cn/scenery/comment/2016/08/29/07/U7QHI1.jpg","smallImgUrl":"//pic4.40017.cn/scenery/comment/2016/08/29/07/U7QHI1_150x150_00.jpg"},{"imgUrl":"//pic4.40017.cn/scenery/comment/2016/08/29/07/3dR43L.jpg","originalImgUrl":"//pic4.40017.cn/scenery/comment/2016/08/29/07/3dR43L.jpg","smallImgUrl":"//pic4.40017.cn/scenery/comment/2016/08/29/07/3dR43L_150x150_00.jpg"},{"imgUrl":"//pic4.40017.cn/scenery/comment/2016/08/29/07/mNzf6L.jpg","originalImgUrl":"//pic4.40017.cn/scenery/comment/2016/08/29/07/mNzf6L.jpg","smallImgUrl":"//pic4.40017.cn/scenery/comment/2016/08/29/07/mNzf6L_150x150_00.jpg"},{"imgUrl":"//pic4.40017.cn/scenery/comment/2016/08/29/07/l48Xha.jpg","originalImgUrl":"//pic4.40017.cn/scenery/comment/2016/08/29/07/l48Xha.jpg","smallImgUrl":"//pic4.40017.cn/scenery/comment/2016/08/29/07/l48Xha_150x150_00.jpg"},{"imgUrl":"//pic4.40017.cn/scenery/comment/2016/08/29/07/YDAhU3.jpg","originalImgUrl":"//pic4.40017.cn/scenery/comment/2016/08/29/07/YDAhU3.jpg","smallImgUrl":"//pic4.40017.cn/scenery/comment/2016/08/29/07/YDAhU3_150x150_00.jpg"},{"imgUrl":"//pic4.40017.cn/scenery/comment/2016/08/29/07/65l4L6.jpg","originalImgUrl":"//pic4.40017.cn/scenery/comment/2016/08/29/07/65l4L6.jpg","smallImgUrl":"//pic4.40017.cn/scenery/comment/2016/08/29/07/65l4L6_150x150_00.jpg"},{"imgUrl":"//pic4.40017.cn/scenery/comment/2016/08/29/07/17VYdr.jpg","originalImgUrl":"//pic4.40017.cn/scenery/comment/2016/08/29/07/17VYdr.jpg","smallImgUrl":"//pic4.40017.cn/scenery/comment/2016/08/29/07/17VYdr_150x150_00.jpg"},{"imgUrl":"//pic4.40017.cn/scenery/comment/2016/08/29/07/l4IyH9.jpg","originalImgUrl":"//pic4.40017.cn/scenery/comment/2016/08/29/07/l4IyH9.jpg","smallImgUrl":"//pic4.40017.cn/scenery/comment/2016/08/29/07/l4IyH9_150x150_00.jpg"},{"imgUrl":"//pic4.40017.cn/scenery/comment/2016/08/29/07/yiBtxu.jpg","originalImgUrl":"//pic4.40017.cn/scenery/comment/2016/08/29/07/yiBtxu.jpg","smallImgUrl":"//pic4.40017.cn/scenery/comment/2016/08/29/07/yiBtxu_150x150_00.jpg"}],"subList":[],"dpImpressionList":[],"DPPlusStatus":0,"DPLocation":""},{"commentType":"1","dpContent":"历史剧上一个很好的地方，感觉很有古代的韵味，很适合了解感受古韵，带着家人去旅行，真是美啊，景区服务很好，各种设施也很齐全，通过同程购票省去了很多麻烦，还节省了很多钱！","dpDate":"2015-12-08","dpGuid":"2c46c55b-e480-4214-b79d-c6f59ac4652f","dpId":"2c46c55b-e480-4214-b79d-c6f59ac4652f","DPItemId":"25794","DPItemName":"水浒好汉城","DPSite":"1","dpTripMode":"0","dpTripPurpose":"","DPUserLevel":"3","dpUserName":"187****0119","highLightColor":"","homeId":"","isElite":"0","isMyComments":"","isPraised":"0","lineAccess":"好评","markColor":"","memberGradeUrl":"","memberHeaderImgUrl":"//pic3.40017.cn/member/face/2015/08/27/17/sHIVcY.png","mobile":"","productPriceDesc":"","servicePoint":"1","zanCount":"1","csReplyList":null,"dpImgUrl":[{"imgUrl":"//pic3.40017.cn/scenery/comment/2015/12/08/10/Gh6fVQ.jpg","originalImgUrl":"//pic3.40017.cn/scenery/comment/2015/12/08/10/Gh6fVQ.jpg","smallImgUrl":"//pic3.40017.cn/scenery/comment/2015/12/08/10/Gh6fVQ_150x150_00.jpg"}],"subList":[],"dpImpressionList":[],"DPPlusStatus":0,"DPLocation":""},{"commentType":"1","dpContent":"好汉特色太少了，就是几座建筑。建议玩的时候找个导游。","dpDate":"2015-06-29","dpGuid":"t-e59eafbb-24cf-4ff2-b6c3-cc2176b9ca5c","dpId":"t-e59eafbb-24cf-4ff2-b6c3-cc2176b9ca5c","DPItemId":"25794","DPItemName":"水浒好汉城","DPSite":"1","dpTripMode":"0","dpTripPurpose":"0,","DPUserLevel":"1","dpUserName":"CF3A4E0657D82854","highLightColor":"","homeId":"","isElite":"0","isMyComments":"","isPraised":"0","lineAccess":"好评","markColor":"","memberGradeUrl":"","memberHeaderImgUrl":"//pic3.40017.cn/member/face/2017/12/05/16/tcdefault.png","mobile":"","productPriceDesc":"","servicePoint":"1","zanCount":"0","csReplyList":null,"dpImgUrl":[{"imgUrl":"//pic3.40017.cn/scenery/comment/2015/06/29/07/3abnAW.jpg","originalImgUrl":"//pic3.40017.cn/scenery/comment/2015/06/29/07/3abnAW.jpg","smallImgUrl":"//pic3.40017.cn/scenery/comment/2015/06/29/07/3abnAW_150x150_00.jpg"},{"imgUrl":"//pic3.40017.cn/scenery/comment/2015/06/29/07/dLHXqL.jpg","originalImgUrl":"//pic3.40017.cn/scenery/comment/2015/06/29/07/dLHXqL.jpg","smallImgUrl":"//pic3.40017.cn/scenery/comment/2015/06/29/07/dLHXqL_150x150_00.jpg"},{"imgUrl":"//pic3.40017.cn/scenery/comment/2015/06/29/07/E7yKNG.jpg","originalImgUrl":"//pic3.40017.cn/scenery/comment/2015/06/29/07/E7yKNG.jpg","smallImgUrl":"//pic3.40017.cn/scenery/comment/2015/06/29/07/E7yKNG_150x150_00.jpg"},{"imgUrl":"//pic3.40017.cn/scenery/comment/2015/06/29/07/tpFCR6.jpg","originalImgUrl":"//pic3.40017.cn/scenery/comment/2015/06/29/07/tpFCR6.jpg","smallImgUrl":"//pic3.40017.cn/scenery/comment/2015/06/29/07/tpFCR6_150x150_00.jpg"}],"subList":[],"dpImpressionList":[],"DPPlusStatus":0,"DPLocation":""},{"commentType":"1","dpContent":"4号去的，景区人不多，景区总面积也不大，以古建筑为主，少绿树及湖水，里面无二次收费，旁边好像还有二期三期景点未开发出来。总体可以。一分钱一分货","dpDate":"2015-10-07","dpGuid":"88023cf5-099a-4e03-8106-ecafc99b93e5","dpId":"88023cf5-099a-4e03-8106-ecafc99b93e5","DPItemId":"25794","DPItemName":"水浒好汉城","DPSite":"1","dpTripMode":"0","dpTripPurpose":"","DPUserLevel":"0","dpUserName":"136****0731","highLightColor":"","homeId":"","isElite":"0","isMyComments":"","isPraised":"0","lineAccess":"好评","markColor":"","memberGradeUrl":"","memberHeaderImgUrl":"//pic3.40017.cn/member/face/2015/08/27/17/sHIVcY.png","mobile":"","productPriceDesc":"","servicePoint":"1","zanCount":"0","csReplyList":null,"dpImgUrl":[{"imgUrl":"//pic3.40017.cn/scenery/comment/2015/10/07/07/hWtq0O.jpg","originalImgUrl":"//pic3.40017.cn/scenery/comment/2015/10/07/07/hWtq0O.jpg","smallImgUrl":"//pic3.40017.cn/scenery/comment/2015/10/07/07/hWtq0O_150x150_00.jpg"},{"imgUrl":"//pic3.40017.cn/scenery/comment/2015/10/07/07/BI1t9l.jpg","originalImgUrl":"//pic3.40017.cn/scenery/comment/2015/10/07/07/BI1t9l.jpg","smallImgUrl":"//pic3.40017.cn/scenery/comment/2015/10/07/07/BI1t9l_150x150_00.jpg"}],"subList":[],"dpImpressionList":[],"DPPlusStatus":0,"DPLocation":""},{"commentType":"1","dpContent":"夏天去的，游玩挺好的，自己感觉交通挺方便的","dpDate":"2015-12-24","dpGuid":"52418073-9b3a-432a-bb11-64fcc41da65c","dpId":"52418073-9b3a-432a-bb11-64fcc41da65c","DPItemId":"25794","DPItemName":"水浒好汉城","DPSite":"1","dpTripMode":"0","dpTripPurpose":"","DPUserLevel":"1","dpUserName":"186****8912","highLightColor":"","homeId":"","isElite":"0","isMyComments":"","isPraised":"0","lineAccess":"好评","markColor":"","memberGradeUrl":"","memberHeaderImgUrl":"//pic3.40017.cn/member/face/2015/08/27/17/sHIVcY.png","mobile":"","productPriceDesc":"","servicePoint":"1","zanCount":"1","csReplyList":null,"dpImgUrl":[{"imgUrl":"//pic3.40017.cn/scenery/comment/2015/12/24/19/86tccO.jpg","originalImgUrl":"//pic3.40017.cn/scenery/comment/2015/12/24/19/86tccO.jpg","smallImgUrl":"//pic3.40017.cn/scenery/comment/2015/12/24/19/86tccO_150x150_00.jpg"},{"imgUrl":"//pic3.40017.cn/scenery/comment/2015/12/24/19/I9PCrA.jpg","originalImgUrl":"//pic3.40017.cn/scenery/comment/2015/12/24/19/I9PCrA.jpg","smallImgUrl":"//pic3.40017.cn/scenery/comment/2015/12/24/19/I9PCrA_150x150_00.jpg"},{"imgUrl":"//pic3.40017.cn/scenery/comment/2015/12/24/19/cl3UEn.jpg","originalImgUrl":"//pic3.40017.cn/scenery/comment/2015/12/24/19/cl3UEn.jpg","smallImgUrl":"//pic3.40017.cn/scenery/comment/2015/12/24/19/cl3UEn_150x150_00.jpg"},{"imgUrl":"//pic3.40017.cn/scenery/comment/2015/12/24/19/9EqDYs.jpg","originalImgUrl":"//pic3.40017.cn/scenery/comment/2015/12/24/19/9EqDYs.jpg","smallImgUrl":"//pic3.40017.cn/scenery/comment/2015/12/24/19/9EqDYs_150x150_00.jpg"},{"imgUrl":"//pic3.40017.cn/scenery/comment/2015/12/24/19/Fy5KUF.jpg","originalImgUrl":"//pic3.40017.cn/scenery/comment/2015/12/24/19/Fy5KUF.jpg","smallImgUrl":"//pic3.40017.cn/scenery/comment/2015/12/24/19/Fy5KUF_150x150_00.jpg"},{"imgUrl":"//pic3.40017.cn/scenery/comment/2015/12/24/19/ViK7dG.jpg","originalImgUrl":"//pic3.40017.cn/scenery/comment/2015/12/24/19/ViK7dG.jpg","smallImgUrl":"//pic3.40017.cn/scenery/comment/2015/12/24/19/ViK7dG_150x150_00.jpg"}],"subList":[],"dpImpressionList":[],"DPPlusStatus":0,"DPLocation":""},{"commentType":"1","dpContent":"景点很气派，就是还没有建完，相信以后会更好的。同程订票因为自己的原因出现一点小插曲，还好感谢景区人员及同程客服的及时解决，很满意。以后会继续支持！！","dpDate":"2015-07-21","dpGuid":"t-29968400-007a-4700-82a0-d94db1b03089","dpId":"t-29968400-007a-4700-82a0-d94db1b03089","DPItemId":"25794","DPItemName":"水浒好汉城","DPSite":"1","dpTripMode":"0","dpTripPurpose":"8,","DPUserLevel":"1","dpUserName":"150*****562","highLightColor":"","homeId":"","isElite":"0","isMyComments":"","isPraised":"0","lineAccess":"好评","markColor":"","memberGradeUrl":"","memberHeaderImgUrl":"//pic5.40017.cn/i/ori/PELe6f5TBC.jpg","mobile":"","productPriceDesc":"","servicePoint":"1","zanCount":"1","csReplyList":null,"dpImgUrl":[{"imgUrl":"//pic3.40017.cn/scenery/comment/2015/07/21/10/iW3PEM.jpg","originalImgUrl":"//pic3.40017.cn/scenery/comment/2015/07/21/10/iW3PEM.jpg","smallImgUrl":"//pic3.40017.cn/scenery/comment/2015/07/21/10/iW3PEM_150x150_00.jpg"},{"imgUrl":"//pic3.40017.cn/scenery/comment/2015/07/21/10/PDbKe0.jpg","originalImgUrl":"//pic3.40017.cn/scenery/comment/2015/07/21/10/PDbKe0.jpg","smallImgUrl":"//pic3.40017.cn/scenery/comment/2015/07/21/10/PDbKe0_150x150_00.jpg"}],"subList":[],"dpImpressionList":[],"DPPlusStatus":0,"DPLocation":""}],"isShowConinsicon":0,"rulesContent":"","dpConinRemark":"","isCanEnter":0,"isCanDianPingBefore":0,"externalUrl":"","serviceScoreAvgList":[{"score":"10","serviceName":"同程服务"},{"score":"10","serviceName":"产品便捷"},{"score":"10","serviceName":"性价比"},{"score":"10","serviceName":"景区体验"}],"dpTagList":[{"tagColor":"","tagId":"1","tagName":"全部(539)","tagNum":"539","tagType":"","tagBorderColor":""},{"tagColor":"","tagId":"6","tagName":"最新(539)","tagNum":"539","tagType":"","tagBorderColor":""},{"tagColor":"","tagId":"2","tagName":"好评(448)","tagNum":"448","tagType":"","tagBorderColor":""},{"tagColor":"","tagId":"3","tagName":"中评(81)","tagNum":"81","tagType":"","tagBorderColor":""},{"tagColor":"","tagId":"4","tagName":"差评(10)","tagNum":"10","tagType":"","tagBorderColor":""},{"tagColor":"","tagId":"5","tagName":"有图(109)","tagNum":"109","tagType":"","tagBorderColor":""},{"tagColor":"","tagId":"15","tagName":"整体不错(37)","tagNum":"37","tagType":"","tagBorderColor":""},{"tagColor":"","tagId":"96","tagName":"设施齐全(22)","tagNum":"22","tagType":"","tagBorderColor":""},{"tagColor":"","tagId":"65","tagName":"环境好(8)","tagNum":"8","tagType":"","tagBorderColor":""},{"tagColor":"","tagId":"317","tagName":"风光好(7)","tagNum":"7","tagType":"","tagBorderColor":""},{"tagColor":"","tagId":"266","tagName":"地方不错(3)","tagNum":"3","tagType":"","tagBorderColor":""},{"tagColor":"","tagId":"111","tagName":"景色壮观(1)","tagNum":"1","tagType":"","tagBorderColor":""},{"tagColor":"","tagId":"39","tagName":"门票贵(7)","tagNum":"7","tagType":"","tagBorderColor":""},{"tagColor":"","tagId":"95","tagName":"设施旧(1)","tagNum":"1","tagType":"","tagBorderColor":""}],"dianpingInfo":[]}