{"isSuccess":1,"errorMsg":"","isCache":0,"pageInfo":{"page":52,"pageSize":10,"totalPage":54,"totalCount":539},"degreeLevel":"98","starNum":"4.2","totalNum":"539","goodNum":448,"midNum":81,"badNum":10,"hasImgNum":109,"dpList":[{"commentType":"1","dpContent":"还不错，建设的超出预期，值得一看","dpDate":"2015-05-22","dpGuid":"t-4a9f008c-8831-41fa-91f0-89cc0947dda2","dpId":"t-4a9f008c-8831-41fa-91f0-89cc0947dda2","DPItemId":"25794","DPItemName":"水浒好汉城","DPSite":"1","dpTripMode":"0","dpTripPurpose":"0,","DPUserLevel":"1","dpUserName":"519CB1B921C72358","highLightColor":"","homeId":"","isElite":"0","isMyComments":"","isPraised":"0","lineAccess":"好评","markColor":"","memberGradeUrl":"","memberHeaderImgUrl":"//pic3.40017.cn/member/face/2017/12/05/16/tcdefault.png","mobile":"","productPriceDesc":"","servicePoint":"1","zanCount":"0","csReplyList":null,"dpImgUrl":[],"subList":[],"dpImpressionList":[],"DPPlusStatus":0,"DPLocation":""},{"commentType":"1","dpContent":"感受水浒英雄，朋友都非常喜欢。","dpDate":"2015-09-22","dpGuid":"c29e756c-59e9-4dd9-9154-df4ccf77005b","dpId":"c29e756c-59e9-4dd9-9154-df4ccf77005b","DPItemId":"25794","DPItemName":"水浒好汉城","DPSite":"1","dpTripMode":"0","dpTripPurpose":"","DPUserLevel":"2","dpUserName":"138****3230","highLightColor":"","homeId":"","isElite":"0","isMyComments":"","isPraised":"0","lineAccess":"好评","markColor":"","memberGradeUrl":"","memberHeaderImgUrl":"//pic3.40017.cn/member/face/2015/08/27/17/sHIVcY.png","mobile":"","productPriceDesc":"","servicePoint":"1","zanCount":"0","csReplyList":null,"dpImgUrl":[],"subList":[],"dpImpressionList":[],"DPPlusStatus":0,"DPLocation":""},{"commentType":"1","dpContent":"一般般吧，可以转转吧！","dpDate":"2019-04-04","dpGuid":"6d2a67b9-8d22-49eb-8e9a-26931626292b","dpId":"6d2a67b9-8d22-49eb-8e9a-26931626292b","DPItemId":"25794","DPItemName":"水浒好汉城","DPSite":"1","dpTripMode":"0","dpTripPurpose":"","DPUserLevel":"1","dpUserName":"同程会员_D52D55E659B","highLightColor":"","homeId":"","isElite":"0","isMyComments":"","isPraised":"0","lineAccess":"中评","markColor":"","memberGradeUrl":"","memberHeaderImgUrl":"https://pic5.40017.cn/i/ori/1difaMet93G.jpg","mobile":"","productPriceDesc":"","servicePoint":"2","zanCount":"0","csReplyList":null,"dpImgUrl":[],"subList":[],"dpImpressionList":[],"DPPlusStatus":3,"DPLocation":""},{"commentType":"1","dpContent":"108好汉，经典。。。。。。","dpDate":"2015-10-13","dpGuid":"3b26a6f0-9329-4e1d-a56f-939024a46b28","dpId":"3b26a6f0-9329-4e1d-a56f-939024a46b28","DPItemId":"25794","DPItemName":"水浒好汉城","DPSite":"1","dpTripMode":"0","dpTripPurpose":"","DPUserLevel":"1","dpUserName":"151****0898","highLightColor":"","homeId":"","isElite":"0","isMyComments":"","isPraised":"0","lineAccess":"好评","markColor":"","memberGradeUrl":"","memberHeaderImgUrl":"//pic3.40017.cn/member/face/2015/06/21/19/XyI4gj.jpg","mobile":"","productPriceDesc":"","servicePoint":"1","zanCount":"0","csReplyList":null,"dpImgUrl":[],"subList":[],"dpImpressionList":[],"DPPlusStatus":0,"DPLocation":""},{"commentType":"1","dpContent":"就不用想不用为喂喂不错不错很不错","dpDate":"2016-02-24","dpGuid":"7428c28a-c580-4eac-acd6-ca9ba1f5e394","dpId":"7428c28a-c580-4eac-acd6-ca9ba1f5e394","DPItemId":"25794","DPItemName":"水浒好汉城","DPSite":"1","dpTripMode":"0","dpTripPurpose":"","DPUserLevel":"2","dpUserName":"150****0116","highLightColor":"","homeId":"","isElite":"0","isMyComments":"","isPraised":"0","lineAccess":"好评","markColor":"","memberGradeUrl":"","memberHeaderImgUrl":"//pic3.40017.cn/member/face/2015/08/27/17/sHIVcY.png","mobile":"","productPriceDesc":"","servicePoint":"1","zanCount":"0","csReplyList":null,"dpImgUrl":[],"subList":[],"dpImpressionList":[],"DPPlusStatus":0,"DPLocation":""},{"commentType":"1","dpContent":"感受到自己山东人的热情，真的够喜欢这个城市，","dpDate":"2015-10-03","dpGuid":"9716dc72-2bdf-4774-b80c-bab7f133b84e","dpId":"9716dc72-2bdf-4774-b80c-bab7f133b84e","DPItemId":"25794","DPItemName":"水浒好汉城","DPSite":"1","dpTripMode":"0","dpTripPurpose":"","DPUserLevel":"1","dpUserName":"139****4504","highLightColor":"","homeId":"","isElite":"0","isMyComments":"","isPraised":"0","lineAccess":"好评","markColor":"","memberGradeUrl":"","memberHeaderImgUrl":"//upload.17u.com/uploadfile/2014/11/10/7/201411100306131354231.jpg","mobile":"","productPriceDesc":"","servicePoint":"1","zanCount":"0","csReplyList":null,"dpImgUrl":[],"subList":[],"dpImpressionList":[],"DPPlusStatus":0,"DPLocation":""},{"commentType":"1","dpContent":"地方不大，挺不错的，特别是跟着导游","dpDate":"2015-04-09","dpGuid":"t-44bda080-a96c-4688-bfca-9501e60c7554","dpId":"t-44bda080-a96c-4688-bfca-9501e60c7554","DPItemId":"25794","DPItemName":"水浒好汉城","DPSite":"1","dpTripMode":"0","dpTripPurpose":"4,","DPUserLevel":"1","dpUserName":"0530602560FB712B","highLightColor":"","homeId":"","isElite":"0","isMyComments":"","isPraised":"0","lineAccess":"好评","markColor":"","memberGradeUrl":"","memberHeaderImgUrl":"//pic3.40017.cn/member/face/2017/12/05/16/tcdefault.png","mobile":"","productPriceDesc":"","servicePoint":"1","zanCount":"0","csReplyList":null,"dpImgUrl":[],"subList":[],"dpImpressionList":[],"DPPlusStatus":0,"DPLocation":""},{"commentType":"1","dpContent":"设施陈旧，房屋单溥，","dpDate":"2016-02-19","dpGuid":"51777509-61bb-4044-ae24-d7c054dc604b","dpId":"51777509-61bb-4044-ae24-d7c054dc604b","DPItemId":"25794","DPItemName":"水浒好汉城","DPSite":"1","dpTripMode":"0","dpTripPurpose":"","DPUserLevel":"1","dpUserName":"150****2638","highLightColor":"","homeId":"","isElite":"0","isMyComments":"","isPraised":"0","lineAccess":"中评","markColor":"","memberGradeUrl":"","memberHeaderImgUrl":"//pic3.40017.cn/member/face/2015/08/27/17/sHIVcY.png","mobile":"","productPriceDesc":"","servicePoint":"2","zanCount":"1","csReplyList":[{"replyContent":"程程感谢您的点评，我们一直在努力，从未停止过，我们致力于创造更美好游玩品质和优质的服务，欢迎您继续监督哟。"}],"dpImgUrl":[],"subList":[],"dpImpressionList":[],"DPPlusStatus":0,"DPLocation":""},{"commentType":"1","dpContent":"同程上订票方便、取票方便……好","dpDate":"2015-10-17","dpGuid":"c38424e5-56ca-49cb-a3a5-e0b395f469c6","dpId":"c38424e5-56ca-49cb-a3a5-e0b395f469c6","DPItemId":"25794","DPItemName":"水浒好汉城","DPSite":"1","dpTripMode":"0","dpTripPurpose":"","DPUserLevel":"2","dpUserName":"139****3600","highLightColor":"","homeId":"","isElite":"0","isMyComments":"","isPraised":"0","lineAccess":"好评","markColor":"","memberGradeUrl":"","memberHeaderImgUrl":"//pic3.40017.cn/member/face/2015/08/27/17/sHIVcY.png","mobile":"","productPriceDesc":"","servicePoint":"1","zanCount":"1","csReplyList":null,"dpImgUrl":[],"subList":[],"dpImpressionList":[],"DPPlusStatus":0,"DPLocation":""},{"commentType":"1","dpContent":"古建筑群！！保持的不错。门口检票员挺有意思的……","dpDate":"2016-04-15","dpGuid":"71bdd619-9c19-4362-8720-2b963c87b726","dpId":"71bdd619-9c19-4362-8720-2b963c87b726","DPItemId":"25794","DPItemName":"水浒好汉城","DPSite":"1","dpTripMode":"0","dpTripPurpose":"","DPUserLevel":"3","dpUserName":"136****6206","highLightColor":"","homeId":"","isElite":"0","isMyComments":"","isPraised":"0","lineAccess":"中评","markColor":"","memberGradeUrl":"","memberHeaderImgUrl":"//pic3.40017.cn/member/face/2015/08/27/17/sHIVcY.png","mobile":"","productPriceDesc":"","servicePoint":"2","zanCount":"0","csReplyList":[{"replyContent":"程程感谢您的点评，景区一直在努力，从未停止过，我们一起携手创造更美好游玩品质，欢迎您继续监督哟。\t<br>"}],"dpImgUrl":[],"subList":[],"dpImpressionList":[],"DPPlusStatus":0,"DPLocation":""}],"isShowConinsicon":0,"rulesContent":"","dpConinRemark":"","isCanEnter":0,"isCanDianPingBefore":0,"externalUrl":"","serviceScoreAvgList":[{"score":"10","serviceName":"同程服务"},{"score":"10","serviceName":"产品便捷"},{"score":"10","serviceName":"性价比"},{"score":"10","serviceName":"景区体验"}],"dpTagList":[{"tagColor":"","tagId":"1","tagName":"全部(539)","tagNum":"539","tagType":"","tagBorderColor":""},{"tagColor":"","tagId":"6","tagName":"最新(539)","tagNum":"539","tagType":"","tagBorderColor":""},{"tagColor":"","tagId":"2","tagName":"好评(448)","tagNum":"448","tagType":"","tagBorderColor":""},{"tagColor":"","tagId":"3","tagName":"中评(81)","tagNum":"81","tagType":"","tagBorderColor":""},{"tagColor":"","tagId":"4","tagName":"差评(10)","tagNum":"10","tagType":"","tagBorderColor":""},{"tagColor":"","tagId":"5","tagName":"有图(109)","tagNum":"109","tagType":"","tagBorderColor":""},{"tagColor":"","tagId":"15","tagName":"整体不错(37)","tagNum":"37","tagType":"","tagBorderColor":""},{"tagColor":"","tagId":"96","tagName":"设施齐全(22)","tagNum":"22","tagType":"","tagBorderColor":""},{"tagColor":"","tagId":"65","tagName":"环境好(8)","tagNum":"8","tagType":"","tagBorderColor":""},{"tagColor":"","tagId":"317","tagName":"风光好(7)","tagNum":"7","tagType":"","tagBorderColor":""},{"tagColor":"","tagId":"266","tagName":"地方不错(3)","tagNum":"3","tagType":"","tagBorderColor":""},{"tagColor":"","tagId":"111","tagName":"景色壮观(1)","tagNum":"1","tagType":"","tagBorderColor":""},{"tagColor":"","tagId":"39","tagName":"门票贵(7)","tagNum":"7","tagType":"","tagBorderColor":""},{"tagColor":"","tagId":"95","tagName":"设施旧(1)","tagNum":"1","tagType":"","tagBorderColor":""}],"dianpingInfo":[]}