{"isSuccess":1,"errorMsg":"","isCache":0,"pageInfo":{"page":6,"pageSize":10,"totalPage":54,"totalCount":539},"degreeLevel":"98","starNum":"4.2","totalNum":"539","goodNum":448,"midNum":81,"badNum":10,"hasImgNum":109,"dpList":[{"commentType":"1","dpContent":"整体感觉还行。里面的饮料也不贵。只是表演的小节目时间太短。","dpDate":"2015-10-03","dpGuid":"58276fe8-2d73-4fed-ab7d-3149f2848cd0","dpId":"58276fe8-2d73-4fed-ab7d-3149f2848cd0","DPItemId":"25794","DPItemName":"水浒好汉城","DPSite":"1","dpTripMode":"0","dpTripPurpose":"","DPUserLevel":"1","dpUserName":"156****0670","highLightColor":"","homeId":"","isElite":"0","isMyComments":"","isPraised":"0","lineAccess":"中评","markColor":"","memberGradeUrl":"","memberHeaderImgUrl":"//pic3.40017.cn/member/face/2015/08/27/17/sHIVcY.png","mobile":"","productPriceDesc":"","servicePoint":"2","zanCount":"0","csReplyList":null,"dpImgUrl":[{"imgUrl":"//pic3.40017.cn/scenery/comment/2015/10/03/22/7rGp4Q.jpg","originalImgUrl":"//pic3.40017.cn/scenery/comment/2015/10/03/22/7rGp4Q.jpg","smallImgUrl":"//pic3.40017.cn/scenery/comment/2015/10/03/22/7rGp4Q_150x150_00.jpg"},{"imgUrl":"//pic3.40017.cn/scenery/comment/2015/10/03/22/k5MD2g.jpg","originalImgUrl":"//pic3.40017.cn/scenery/comment/2015/10/03/22/k5MD2g.jpg","smallImgUrl":"//pic3.40017.cn/scenery/comment/2015/10/03/22/k5MD2g_150x150_00.jpg"}],"subList":[],"dpImpressionList":[],"DPPlusStatus":0,"DPLocation":""},{"commentType":"1","dpContent":"有点水浒气氛，景点有点小，相对票价有点贵，同程还好，便宜10元。","dpDate":"2016-04-05","dpGuid":"4d4e3da5-3a85-4fee-a305-e68e89df129a","dpId":"4d4e3da5-3a85-4fee-a305-e68e89df129a","DPItemId":"25794","DPItemName":"水浒好汉城","DPSite":"1","dpTripMode":"0","dpTripPurpose":"","DPUserLevel":"2","dpUserName":"139****3776","highLightColor":"","homeId":"","isElite":"0","isMyComments":"","isPraised":"0","lineAccess":"中评","markColor":"","memberGradeUrl":"","memberHeaderImgUrl":"//pic3.40017.cn/member/face/2015/08/27/17/sHIVcY.png","mobile":"","productPriceDesc":"","servicePoint":"2","zanCount":"2","csReplyList":[{"replyContent":"程程感谢您的点评，景区一直在努力，从未停止过，我们一起携手创造更美好游玩品质，欢迎您继续监督哟。"}],"dpImgUrl":[{"imgUrl":"//pic4.40017.cn/scenery/comment/2016/04/05/09/dSbyzn.jpg","originalImgUrl":"//pic4.40017.cn/scenery/comment/2016/04/05/09/dSbyzn.jpg","smallImgUrl":"//pic4.40017.cn/scenery/comment/2016/04/05/09/dSbyzn_150x150_00.jpg"},{"imgUrl":"//pic4.40017.cn/scenery/comment/2016/04/05/09/fnultj.jpg","originalImgUrl":"//pic4.40017.cn/scenery/comment/2016/04/05/09/fnultj.jpg","smallImgUrl":"//pic4.40017.cn/scenery/comment/2016/04/05/09/fnultj_150x150_00.jpg"}],"subList":[],"dpImpressionList":[],"DPPlusStatus":0,"DPLocation":""},{"commentType":"1","dpContent":"1、同程又快捷又便宜，不用排长队！便宜又快捷！取票便捷，不用排队，看到旁边排队长处长的，暗喜，同程真的很给力。2、不错，学习到不少知识，同程旅游景区门口取票，很方便，价格优惠，赞一个，以后继续用的。3、总体不错，比我预想中好得多。景区服务设施基本完善，环境挺好的。里面特别干净。","dpDate":"2016-07-30","dpGuid":"9a892497-da96-40ed-892a-cb48cbabfd2e","dpId":"9a892497-da96-40ed-892a-cb48cbabfd2e","DPItemId":"25794","DPItemName":"水浒好汉城","DPSite":"1","dpTripMode":"0","dpTripPurpose":"","DPUserLevel":"1","dpUserName":"ghjsjpf","highLightColor":"","homeId":"","isElite":"0","isMyComments":"","isPraised":"0","lineAccess":"好评","markColor":"","memberGradeUrl":"","memberHeaderImgUrl":"//pic5.40017.cn/03/000/f7/ee/rB5oQFwA6YSAckLEAARU6Hypp3A050.jpg","mobile":"","productPriceDesc":"","servicePoint":"1","zanCount":"1","csReplyList":null,"dpImgUrl":[{"imgUrl":"//pic4.40017.cn/scenery/comment/2016/07/30/17/eicjJW.jpg","originalImgUrl":"//pic4.40017.cn/scenery/comment/2016/07/30/17/eicjJW.jpg","smallImgUrl":"//pic4.40017.cn/scenery/comment/2016/07/30/17/eicjJW_150x150_00.jpg"}],"subList":[],"dpImpressionList":[],"DPPlusStatus":0,"DPLocation":""},{"commentType":"1","dpContent":"值得一去，门票有点贵，建的不错","dpDate":"2018-12-17","dpGuid":"ea754550-c3e3-41ca-8346-6b0b5aaf2dd8","dpId":"ea754550-c3e3-41ca-8346-6b0b5aaf2dd8","DPItemId":"25794","DPItemName":"水浒好汉城","DPSite":"1","dpTripMode":"0","dpTripPurpose":"","DPUserLevel":"3","dpUserName":"B85C9ACAFF4B220D","highLightColor":"","homeId":"","isElite":"0","isMyComments":"","isPraised":"0","lineAccess":"好评","markColor":"","memberGradeUrl":"","memberHeaderImgUrl":"https://pic5.40017.cn/i/ori/1dhWb8X8neg.jpg","mobile":"","productPriceDesc":"","servicePoint":"1","zanCount":"0","csReplyList":null,"dpImgUrl":[{"imgUrl":"//pic5.40017.cn/03/000/65/3d/rB5oQFwXxCuAbPvmAAjc13YwLhM792.jpg","originalImgUrl":"//pic5.40017.cn/03/000/65/3d/rB5oQFwXxCuAbPvmAAjc13YwLhM792.jpg","smallImgUrl":"//pic5.40017.cn/03/000/65/3d/rB5oQFwXxCuAbPvmAAjc13YwLhM792_150x150_00.jpg"},{"imgUrl":"//pic5.40017.cn/03/000/65/3d/rB5oQFwXxCyAb18KAAb2n5GaNDk173.jpg","originalImgUrl":"//pic5.40017.cn/03/000/65/3d/rB5oQFwXxCyAb18KAAb2n5GaNDk173.jpg","smallImgUrl":"//pic5.40017.cn/03/000/65/3d/rB5oQFwXxCyAb18KAAb2n5GaNDk173_150x150_00.jpg"},{"imgUrl":"//pic5.40017.cn/03/000/eb/03/rBANB1wXxC6AAa5uAAoGawFDKb8198.jpg","originalImgUrl":"//pic5.40017.cn/03/000/eb/03/rBANB1wXxC6AAa5uAAoGawFDKb8198.jpg","smallImgUrl":"//pic5.40017.cn/03/000/eb/03/rBANB1wXxC6AAa5uAAoGawFDKb8198_150x150_00.jpg"},{"imgUrl":"//pic5.40017.cn/03/000/eb/03/rBANB1wXxC6AMM54AAQWMgGhovM178.jpg","originalImgUrl":"//pic5.40017.cn/03/000/eb/03/rBANB1wXxC6AMM54AAQWMgGhovM178.jpg","smallImgUrl":"//pic5.40017.cn/03/000/eb/03/rBANB1wXxC6AMM54AAQWMgGhovM178_150x150_00.jpg"},{"imgUrl":"//pic5.40017.cn/03/000/65/3e/rB5oQFwXxDCAeZtuAAT1i-h7pg4038.jpg","originalImgUrl":"//pic5.40017.cn/03/000/65/3e/rB5oQFwXxDCAeZtuAAT1i-h7pg4038.jpg","smallImgUrl":"//pic5.40017.cn/03/000/65/3e/rB5oQFwXxDCAeZtuAAT1i-h7pg4038_150x150_00.jpg"},{"imgUrl":"//pic5.40017.cn/03/000/65/3e/rB5oQFwXxDGARKpJAAYjU7h0ZHE845.jpg","originalImgUrl":"//pic5.40017.cn/03/000/65/3e/rB5oQFwXxDGARKpJAAYjU7h0ZHE845.jpg","smallImgUrl":"//pic5.40017.cn/03/000/65/3e/rB5oQFwXxDGARKpJAAYjU7h0ZHE845_150x150_00.jpg"},{"imgUrl":"//pic5.40017.cn/03/000/eb/04/rBANB1wXxDKAYOmgAATgpJN3PFE516.jpg","originalImgUrl":"//pic5.40017.cn/03/000/eb/04/rBANB1wXxDKAYOmgAATgpJN3PFE516.jpg","smallImgUrl":"//pic5.40017.cn/03/000/eb/04/rBANB1wXxDKAYOmgAATgpJN3PFE516_150x150_00.jpg"},{"imgUrl":"//pic5.40017.cn/03/000/65/3e/rB5oQFwXxDOADHTYAAb8xzNE2Jk343.jpg","originalImgUrl":"//pic5.40017.cn/03/000/65/3e/rB5oQFwXxDOADHTYAAb8xzNE2Jk343.jpg","smallImgUrl":"//pic5.40017.cn/03/000/65/3e/rB5oQFwXxDOADHTYAAb8xzNE2Jk343_150x150_00.jpg"},{"imgUrl":"//pic5.40017.cn/03/000/eb/04/rBANB1wXxDWAe3YuAAe4BcBx2mw488.jpg","originalImgUrl":"//pic5.40017.cn/03/000/eb/04/rBANB1wXxDWAe3YuAAe4BcBx2mw488.jpg","smallImgUrl":"//pic5.40017.cn/03/000/eb/04/rBANB1wXxDWAe3YuAAe4BcBx2mw488_150x150_00.jpg"}],"subList":[],"dpImpressionList":[],"DPPlusStatus":0,"DPLocation":""},{"commentType":"1","dpContent":"景点风景很一般，面积不是很大，两小时就完全游览完毕","dpDate":"2017-11-25","dpGuid":"e6834b6d-eb30-4408-bf48-09ebaaea381e","dpId":"e6834b6d-eb30-4408-bf48-09ebaaea381e","DPItemId":"25794","DPItemName":"水浒好汉城","DPSite":"1","dpTripMode":"0","dpTripPurpose":"","DPUserLevel":"1","dpUserName":"13176196175","highLightColor":"","homeId":"","isElite":"0","isMyComments":"","isPraised":"0","lineAccess":"中评","markColor":"","memberGradeUrl":"","memberHeaderImgUrl":"https://pic5.40017.cn/i/ori/1dhWb8X8neg.jpg","mobile":"","productPriceDesc":"","servicePoint":"2","zanCount":"0","csReplyList":null,"dpImgUrl":[{"imgUrl":"//pic5.40017.cn/01/001/9f/c9/rBLkBVoZCcuAc4pCAApcw4dISmY151.jpg","originalImgUrl":"//pic5.40017.cn/01/001/9f/c9/rBLkBVoZCcuAc4pCAApcw4dISmY151.jpg","smallImgUrl":"//pic5.40017.cn/01/001/9f/c9/rBLkBVoZCcuAc4pCAApcw4dISmY151_150x150_00.jpg"},{"imgUrl":"//pic5.40017.cn/01/000/9f/c9/rBLkBVoZCc2ANce3AAZbO8KRZfU309.jpg","originalImgUrl":"//pic5.40017.cn/01/000/9f/c9/rBLkBVoZCc2ANce3AAZbO8KRZfU309.jpg","smallImgUrl":"//pic5.40017.cn/01/000/9f/c9/rBLkBVoZCc2ANce3AAZbO8KRZfU309_150x150_00.jpg"},{"imgUrl":"//pic5.40017.cn/01/001/9f/54/rBANC1oZCc6AB3tvAAek1__dEx0796.jpg","originalImgUrl":"//pic5.40017.cn/01/001/9f/54/rBANC1oZCc6AB3tvAAek1__dEx0796.jpg","smallImgUrl":"//pic5.40017.cn/01/001/9f/54/rBANC1oZCc6AB3tvAAek1__dEx0796_150x150_00.jpg"},{"imgUrl":"//pic5.40017.cn/02/000/9f/a3/rBLkCVoZCdCAOxRPAAiVqA8Llaw756.jpg","originalImgUrl":"//pic5.40017.cn/02/000/9f/a3/rBLkCVoZCdCAOxRPAAiVqA8Llaw756.jpg","smallImgUrl":"//pic5.40017.cn/02/000/9f/a3/rBLkCVoZCdCAOxRPAAiVqA8Llaw756_150x150_00.jpg"}],"subList":[],"dpImpressionList":[],"DPPlusStatus":3,"DPLocation":""},{"commentType":"1","dpContent":"服务很好！文化气息，故事带入感很强！水浒好汉城里体验各位好汉的小本经营！","dpDate":"2015-10-06","dpGuid":"1ee90781-c38e-427a-b270-4919f25a31e8","dpId":"1ee90781-c38e-427a-b270-4919f25a31e8","DPItemId":"25794","DPItemName":"水浒好汉城","DPSite":"1","dpTripMode":"0","dpTripPurpose":"","DPUserLevel":"0","dpUserName":"151****1091","highLightColor":"","homeId":"","isElite":"0","isMyComments":"","isPraised":"0","lineAccess":"好评","markColor":"","memberGradeUrl":"","memberHeaderImgUrl":"//pic3.40017.cn/member/face/2015/08/27/17/sHIVcY.png","mobile":"","productPriceDesc":"","servicePoint":"1","zanCount":"0","csReplyList":null,"dpImgUrl":[{"imgUrl":"//pic3.40017.cn/scenery/comment/2015/10/06/16/mYtrQM.jpg","originalImgUrl":"//pic3.40017.cn/scenery/comment/2015/10/06/16/mYtrQM.jpg","smallImgUrl":"//pic3.40017.cn/scenery/comment/2015/10/06/16/mYtrQM_150x150_00.jpg"},{"imgUrl":"//pic3.40017.cn/scenery/comment/2015/10/06/16/8U5m4F.jpg","originalImgUrl":"//pic3.40017.cn/scenery/comment/2015/10/06/16/8U5m4F.jpg","smallImgUrl":"//pic3.40017.cn/scenery/comment/2015/10/06/16/8U5m4F_150x150_00.jpg"}],"subList":[],"dpImpressionList":[],"DPPlusStatus":0,"DPLocation":""},{"commentType":"1","dpContent":"由于十一人多，没时间去，只在梁山玩了。下次有机会一定要去看看","dpDate":"2015-10-04","dpGuid":"94757a89-1def-453a-879c-f514e9a9efc9","dpId":"94757a89-1def-453a-879c-f514e9a9efc9","DPItemId":"25794","DPItemName":"水浒好汉城","DPSite":"1","dpTripMode":"0","dpTripPurpose":"","DPUserLevel":"3","dpUserName":"138****5030","highLightColor":"","homeId":"","isElite":"0","isMyComments":"","isPraised":"0","lineAccess":"好评","markColor":"","memberGradeUrl":"","memberHeaderImgUrl":"//pic3.40017.cn/member/face/2015/08/27/17/sHIVcY.png","mobile":"","productPriceDesc":"","servicePoint":"1","zanCount":"0","csReplyList":null,"dpImgUrl":[{"imgUrl":"//pic3.40017.cn/scenery/comment/2015/10/04/10/dt3biY.jpg","originalImgUrl":"//pic3.40017.cn/scenery/comment/2015/10/04/10/dt3biY.jpg","smallImgUrl":"//pic3.40017.cn/scenery/comment/2015/10/04/10/dt3biY_150x150_00.jpg"},{"imgUrl":"//pic3.40017.cn/scenery/comment/2015/10/04/10/jrTVYV.jpg","originalImgUrl":"//pic3.40017.cn/scenery/comment/2015/10/04/10/jrTVYV.jpg","smallImgUrl":"//pic3.40017.cn/scenery/comment/2015/10/04/10/jrTVYV_150x150_00.jpg"}],"subList":[],"dpImpressionList":[],"DPPlusStatus":0,"DPLocation":""},{"commentType":"1","dpContent":"这次是和家人一起去的，是个休闲旅游的好地方，家人都很喜欢，特别是孩子，玩的非常开心。里面设施齐全，服务人员服务很到位，地理位置好，尤其是同程提供了这么优惠的服务！","dpDate":"2016-02-02","dpGuid":"0b76a62c-e2ab-47c6-9232-1b4aa3c04b07","dpId":"0b76a62c-e2ab-47c6-9232-1b4aa3c04b07","DPItemId":"25794","DPItemName":"水浒好汉城","DPSite":"1","dpTripMode":"0","dpTripPurpose":"","DPUserLevel":"3","dpUserName":"187****0119","highLightColor":"","homeId":"","isElite":"0","isMyComments":"","isPraised":"0","lineAccess":"好评","markColor":"","memberGradeUrl":"","memberHeaderImgUrl":"//pic3.40017.cn/member/face/2015/08/27/17/sHIVcY.png","mobile":"","productPriceDesc":"","servicePoint":"1","zanCount":"0","csReplyList":[{"replyContent":"程程非常感谢您的点评，您的认可满意是我们永恒的追求，感谢您的支持！祝您快乐每一程~<br>"}],"dpImgUrl":[{"imgUrl":"//pic3.40017.cn/scenery/comment/2016/02/02/07/VPuYJk.jpg","originalImgUrl":"//pic3.40017.cn/scenery/comment/2016/02/02/07/VPuYJk.jpg","smallImgUrl":"//pic3.40017.cn/scenery/comment/2016/02/02/07/VPuYJk_150x150_00.jpg"}],"subList":[],"dpImpressionList":[],"DPPlusStatus":0,"DPLocation":""},{"commentType":"1","dpContent":"这次是和家人一起去的，是个休闲旅游的好地方，家人都很喜欢，特别是孩子，玩的非常开心。里面设施齐全，服务人员服务很到位，地理位置好，尤其是同程提供了这么优惠的服务！","dpDate":"2016-02-25","dpGuid":"20a5518d-bd72-409e-a8e0-6395f009d4a9","dpId":"20a5518d-bd72-409e-a8e0-6395f009d4a9","DPItemId":"25794","DPItemName":"水浒好汉城","DPSite":"1","dpTripMode":"0","dpTripPurpose":"","DPUserLevel":"3","dpUserName":"187****0119","highLightColor":"","homeId":"","isElite":"0","isMyComments":"","isPraised":"0","lineAccess":"好评","markColor":"","memberGradeUrl":"","memberHeaderImgUrl":"//pic3.40017.cn/member/face/2015/08/27/17/sHIVcY.png","mobile":"","productPriceDesc":"","servicePoint":"1","zanCount":"0","csReplyList":null,"dpImgUrl":[{"imgUrl":"//pic3.40017.cn/scenery/comment/2016/02/25/14/R1rixl.jpg","originalImgUrl":"//pic3.40017.cn/scenery/comment/2016/02/25/14/R1rixl.jpg","smallImgUrl":"//pic3.40017.cn/scenery/comment/2016/02/25/14/R1rixl_150x150_00.jpg"}],"subList":[],"dpImpressionList":[],"DPPlusStatus":0,"DPLocation":""},{"commentType":"1","dpContent":"这次是和家人一起去的，是个休闲旅游的好地方，家人都很喜欢，特别是孩子，玩的非常开心。里面设施齐全，服务人员服务很到位，地理位置好，尤其是同程提供了这么优惠的服务！","dpDate":"2016-02-22","dpGuid":"47db3721-0b7f-43c9-974d-2f27c5f9b582","dpId":"47db3721-0b7f-43c9-974d-2f27c5f9b582","DPItemId":"25794","DPItemName":"水浒好汉城","DPSite":"1","dpTripMode":"0","dpTripPurpose":"","DPUserLevel":"3","dpUserName":"187****0119","highLightColor":"","homeId":"","isElite":"0","isMyComments":"","isPraised":"0","lineAccess":"好评","markColor":"","memberGradeUrl":"","memberHeaderImgUrl":"//pic3.40017.cn/member/face/2015/08/27/17/sHIVcY.png","mobile":"","productPriceDesc":"","servicePoint":"1","zanCount":"0","csReplyList":null,"dpImgUrl":[{"imgUrl":"//pic3.40017.cn/scenery/comment/2016/02/22/09/0ki8S4.jpg","originalImgUrl":"//pic3.40017.cn/scenery/comment/2016/02/22/09/0ki8S4.jpg","smallImgUrl":"//pic3.40017.cn/scenery/comment/2016/02/22/09/0ki8S4_150x150_00.jpg"}],"subList":[],"dpImpressionList":[],"DPPlusStatus":0,"DPLocation":""}],"isShowConinsicon":0,"rulesContent":"","dpConinRemark":"","isCanEnter":0,"isCanDianPingBefore":0,"externalUrl":"","serviceScoreAvgList":[{"score":"10","serviceName":"同程服务"},{"score":"10","serviceName":"产品便捷"},{"score":"10","serviceName":"性价比"},{"score":"10","serviceName":"景区体验"}],"dpTagList":[{"tagColor":"","tagId":"1","tagName":"全部(539)","tagNum":"539","tagType":"","tagBorderColor":""},{"tagColor":"","tagId":"6","tagName":"最新(539)","tagNum":"539","tagType":"","tagBorderColor":""},{"tagColor":"","tagId":"2","tagName":"好评(448)","tagNum":"448","tagType":"","tagBorderColor":""},{"tagColor":"","tagId":"3","tagName":"中评(81)","tagNum":"81","tagType":"","tagBorderColor":""},{"tagColor":"","tagId":"4","tagName":"差评(10)","tagNum":"10","tagType":"","tagBorderColor":""},{"tagColor":"","tagId":"5","tagName":"有图(109)","tagNum":"109","tagType":"","tagBorderColor":""},{"tagColor":"","tagId":"15","tagName":"整体不错(37)","tagNum":"37","tagType":"","tagBorderColor":""},{"tagColor":"","tagId":"96","tagName":"设施齐全(22)","tagNum":"22","tagType":"","tagBorderColor":""},{"tagColor":"","tagId":"65","tagName":"环境好(8)","tagNum":"8","tagType":"","tagBorderColor":""},{"tagColor":"","tagId":"317","tagName":"风光好(7)","tagNum":"7","tagType":"","tagBorderColor":""},{"tagColor":"","tagId":"266","tagName":"地方不错(3)","tagNum":"3","tagType":"","tagBorderColor":""},{"tagColor":"","tagId":"111","tagName":"景色壮观(1)","tagNum":"1","tagType":"","tagBorderColor":""},{"tagColor":"","tagId":"39","tagName":"门票贵(7)","tagNum":"7","tagType":"","tagBorderColor":""},{"tagColor":"","tagId":"95","tagName":"设施旧(1)","tagNum":"1","tagType":"","tagBorderColor":""}],"dianpingInfo":[]}