{"isSuccess":1,"errorMsg":"","isCache":0,"pageInfo":{"page":7,"pageSize":10,"totalPage":54,"totalCount":539},"degreeLevel":"98","starNum":"4.2","totalNum":"539","goodNum":448,"midNum":81,"badNum":10,"hasImgNum":109,"dpList":[{"commentType":"1","dpContent":"这次是和家人一起去的，是个休闲旅游的好地方，家人都很喜欢，特别是孩子，玩的非常开心。里面设施齐全，服务人员服务很到位，地理位置好，尤其是同程提供了这么优惠的服务！","dpDate":"2016-02-02","dpGuid":"0b76a62c-e2ab-47c6-9232-1b4aa3c04b07","dpId":"0b76a62c-e2ab-47c6-9232-1b4aa3c04b07","DPItemId":"25794","DPItemName":"水浒好汉城","DPSite":"1","dpTripMode":"0","dpTripPurpose":"","DPUserLevel":"3","dpUserName":"187****0119","highLightColor":"","homeId":"","isElite":"0","isMyComments":"","isPraised":"0","lineAccess":"好评","markColor":"","memberGradeUrl":"","memberHeaderImgUrl":"//pic3.40017.cn/member/face/2015/08/27/17/sHIVcY.png","mobile":"","productPriceDesc":"","servicePoint":"1","zanCount":"0","csReplyList":[{"replyContent":"程程非常感谢您的点评，您的认可满意是我们永恒的追求，感谢您的支持！祝您快乐每一程~<br>"}],"dpImgUrl":[{"imgUrl":"//pic3.40017.cn/scenery/comment/2016/02/02/07/VPuYJk.jpg","originalImgUrl":"//pic3.40017.cn/scenery/comment/2016/02/02/07/VPuYJk.jpg","smallImgUrl":"//pic3.40017.cn/scenery/comment/2016/02/02/07/VPuYJk_150x150_00.jpg"}],"subList":[],"dpImpressionList":[],"DPPlusStatus":0,"DPLocation":""},{"commentType":"1","dpContent":"这次是和家人一起去的，是个休闲旅游的好地方，家人都很喜欢，特别是孩子，玩的非常开心。里面设施齐全，服务人员服务很到位，地理位置好，尤其是同程提供了这么优惠的服务！","dpDate":"2016-02-25","dpGuid":"20a5518d-bd72-409e-a8e0-6395f009d4a9","dpId":"20a5518d-bd72-409e-a8e0-6395f009d4a9","DPItemId":"25794","DPItemName":"水浒好汉城","DPSite":"1","dpTripMode":"0","dpTripPurpose":"","DPUserLevel":"3","dpUserName":"187****0119","highLightColor":"","homeId":"","isElite":"0","isMyComments":"","isPraised":"0","lineAccess":"好评","markColor":"","memberGradeUrl":"","memberHeaderImgUrl":"//pic3.40017.cn/member/face/2015/08/27/17/sHIVcY.png","mobile":"","productPriceDesc":"","servicePoint":"1","zanCount":"0","csReplyList":null,"dpImgUrl":[{"imgUrl":"//pic3.40017.cn/scenery/comment/2016/02/25/14/R1rixl.jpg","originalImgUrl":"//pic3.40017.cn/scenery/comment/2016/02/25/14/R1rixl.jpg","smallImgUrl":"//pic3.40017.cn/scenery/comment/2016/02/25/14/R1rixl_150x150_00.jpg"}],"subList":[],"dpImpressionList":[],"DPPlusStatus":0,"DPLocation":""},{"commentType":"1","dpContent":"感觉一般，郓城的环境不好，非常脏乱差，人的素质也是愁人，在车位里停车吃个饭的时间都能被甩一车泥，而且明显就是故意的。","dpDate":"2018-08-25","dpGuid":"8c37dff4-a2e6-456b-bbc0-0751c52b0e43","dpId":"8c37dff4-a2e6-456b-bbc0-0751c52b0e43","DPItemId":"25794","DPItemName":"水浒好汉城","DPSite":"1","dpTripMode":"0","dpTripPurpose":"","DPUserLevel":"1","dpUserName":"郑铭滔131419","highLightColor":"","homeId":"","isElite":"0","isMyComments":"","isPraised":"0","lineAccess":"中评","markColor":"","memberGradeUrl":"","memberHeaderImgUrl":"//pic5.40017.cn/01/001/47/c7/rBLkBls-yPyALTdvAAUL_sMdmJw529.jpg","mobile":"","productPriceDesc":"","servicePoint":"2","zanCount":"0","csReplyList":null,"dpImgUrl":[{"imgUrl":"//pic5.40017.cn/02/000/ad/39/rBANDFuAnWeALfaZAAXoJRfGU6o015.jpg","originalImgUrl":"//pic5.40017.cn/02/000/ad/39/rBANDFuAnWeALfaZAAXoJRfGU6o015.jpg","smallImgUrl":"//pic5.40017.cn/02/000/ad/39/rBANDFuAnWeALfaZAAXoJRfGU6o015_150x150_00.jpg"}],"subList":[],"dpImpressionList":[],"DPPlusStatus":3,"DPLocation":""},{"commentType":"1","dpContent":"这次是和家人一起去的，是个休闲旅游的好地方，家人都很喜欢，特别是孩子，玩的非常开心。里面设施齐全，服务人员服务很到位，地理位置好，尤其是同程提供了这么优惠的服务！","dpDate":"2016-02-29","dpGuid":"ef789331-632d-4333-8039-6df41ae851d4","dpId":"ef789331-632d-4333-8039-6df41ae851d4","DPItemId":"25794","DPItemName":"水浒好汉城","DPSite":"1","dpTripMode":"0","dpTripPurpose":"","DPUserLevel":"3","dpUserName":"187****0119","highLightColor":"","homeId":"","isElite":"0","isMyComments":"","isPraised":"0","lineAccess":"好评","markColor":"","memberGradeUrl":"","memberHeaderImgUrl":"//pic3.40017.cn/member/face/2015/08/27/17/sHIVcY.png","mobile":"","productPriceDesc":"","servicePoint":"1","zanCount":"0","csReplyList":null,"dpImgUrl":[{"imgUrl":"//pic3.40017.cn/scenery/comment/2016/02/29/08/qU7YV0.jpg","originalImgUrl":"//pic3.40017.cn/scenery/comment/2016/02/29/08/qU7YV0.jpg","smallImgUrl":"//pic3.40017.cn/scenery/comment/2016/02/29/08/qU7YV0_150x150_00.jpg"}],"subList":[],"dpImpressionList":[],"DPPlusStatus":0,"DPLocation":""},{"commentType":"1","dpContent":"第一感觉挺荒凉的，待了一个多小时就没几个游客，工作人员服务也不是很到位，可能是淡季的原因。仿古建筑做的挺好的可惜自己不懂，里面修复旧门窗做的挺精致。表演就是对口型，失望。总体不是很满意，可能是期望有点高了。","dpDate":"2017-11-30","dpGuid":"fc9c5b61-856d-4b7e-9308-1ebef05f3936","dpId":"fc9c5b61-856d-4b7e-9308-1ebef05f3936","DPItemId":"25794","DPItemName":"水浒好汉城","DPSite":"1","dpTripMode":"0","dpTripPurpose":"","DPUserLevel":"1","dpUserName":"寒枫逸剑","highLightColor":"","homeId":"","isElite":"0","isMyComments":"","isPraised":"0","lineAccess":"中评","markColor":"","memberGradeUrl":"","memberHeaderImgUrl":"//pic3.40017.cn/member/face/2017/01/12/16/Jiw3Xd.jpg","mobile":"","productPriceDesc":"","servicePoint":"2","zanCount":"0","csReplyList":null,"dpImgUrl":[],"subList":[],"dpImpressionList":[],"DPPlusStatus":0,"DPLocation":""},{"commentType":"1","dpContent":"历史剧上一个很好的地方，感觉很有古代的韵味，很适合了解感受古韵，带着家人去旅行，真是美啊，景区服务很好，各种设施也很齐全，通过同程购票省去了很多麻烦，还节省了很多钱！","dpDate":"2015-12-09","dpGuid":"dde2ad7d-f457-46dc-a93a-365e1651192a","dpId":"dde2ad7d-f457-46dc-a93a-365e1651192a","DPItemId":"25794","DPItemName":"水浒好汉城","DPSite":"1","dpTripMode":"0","dpTripPurpose":"","DPUserLevel":"3","dpUserName":"187****0119","highLightColor":"","homeId":"","isElite":"0","isMyComments":"","isPraised":"0","lineAccess":"好评","markColor":"","memberGradeUrl":"","memberHeaderImgUrl":"//pic3.40017.cn/member/face/2015/08/27/17/sHIVcY.png","mobile":"","productPriceDesc":"","servicePoint":"1","zanCount":"2","csReplyList":null,"dpImgUrl":[],"subList":[],"dpImpressionList":[],"DPPlusStatus":0,"DPLocation":""},{"commentType":"1","dpContent":"历史上一个名人的地方，感觉很有古代的韵味，很适合了解感受古韵，带着家人去旅行，真是美啊，景区服务很好，各种设施也很齐全，通过同程购票省去了很多麻烦，还节省了很多钱！","dpDate":"2015-12-10","dpGuid":"ebe7fb7a-4604-4fe0-9b6e-c7bc59a501ea","dpId":"ebe7fb7a-4604-4fe0-9b6e-c7bc59a501ea","DPItemId":"25794","DPItemName":"水浒好汉城","DPSite":"1","dpTripMode":"0","dpTripPurpose":"","DPUserLevel":"3","dpUserName":"187****0119","highLightColor":"","homeId":"","isElite":"0","isMyComments":"","isPraised":"0","lineAccess":"好评","markColor":"","memberGradeUrl":"","memberHeaderImgUrl":"//pic3.40017.cn/member/face/2015/08/27/17/sHIVcY.png","mobile":"","productPriceDesc":"","servicePoint":"1","zanCount":"1","csReplyList":null,"dpImgUrl":[],"subList":[],"dpImpressionList":[],"DPPlusStatus":0,"DPLocation":""},{"commentType":"1","dpContent":"交通比较方便，周围的环境也还不错，价格比较合适，性价比比较高，玩的很开心，周末和朋友一起去逛逛还是很不错的，推荐","dpDate":"2015-11-04","dpGuid":"58b08e92-a206-4f13-907c-1c3507e16ccb","dpId":"58b08e92-a206-4f13-907c-1c3507e16ccb","DPItemId":"25794","DPItemName":"水浒好汉城","DPSite":"1","dpTripMode":"0","dpTripPurpose":"","DPUserLevel":"2","dpUserName":"137****0831","highLightColor":"","homeId":"","isElite":"0","isMyComments":"","isPraised":"0","lineAccess":"好评","markColor":"","memberGradeUrl":"","memberHeaderImgUrl":"//upload.17u.com/uploadfile/2015/03/08/7/201503081233453065576.jpg","mobile":"","productPriceDesc":"","servicePoint":"1","zanCount":"0","csReplyList":null,"dpImgUrl":[],"subList":[],"dpImpressionList":[],"DPPlusStatus":0,"DPLocation":""},{"commentType":"1","dpContent":"下午4点到的好汉城，同程上预定的，很顺利，出票的姐姐服务态度很好，旁边的帅哥还问要不要导游，总之很贴心。从学校的院子里穿行到进好汉城的木门，古拙质朴无华，感觉很特色。一进大门正好听到里面锣鼓喧天，演出水浒故事智取生辰纲，演员很认真，氛围感很强，赞。演员很能满足孩子的愿望合影留念。再看两边的仿古建筑，震撼力强，飞檐走壁，且那兽脊逼真栩栩如生，衬得灰色的古砖瓦有了灵动的飞跃感。圣医堂门口的山牡丹香味似幽兰袭人衣襟前，大爱。那水浒文化展览馆可看到水浒流传下来的人物名字文化，兵器文化，酒文化，管中窥豹可以想见当年的盛事。再看那酒馆彩旗飘飘，古戏楼木檐雕花，震撼呀，古郓州的风采熠熠。再看那孙二娘客栈，雕梁画栋，尤其震撼的是英雄宴，石头的形状千奇妙，看那石头游客即可猜出菜品，奇思妙想，那客房的雕花床刀工不俗足以静美足以养眼足以想见当时手工业的技艺精湛。晁府几进的院落气概非凡，尤其地下迷宫值得一提。县衙大堂的审案灵动活泼更增添游玩之乐。还有那落子评书，音韵流淌，韵味无尽。最后值得一提的是四卫生间，赞呀。总之，不虚此行。大爱大赞。","dpDate":"2014-08-27","dpGuid":"t-d6ac916c-a51d-4b48-b547-3c2279fa9c57","dpId":"t-d6ac916c-a51d-4b48-b547-3c2279fa9c57","DPItemId":"25794","DPItemName":"水浒好汉城","DPSite":"1","dpTripMode":"1","dpTripPurpose":"3,","DPUserLevel":"1","dpUserName":"138*****577","highLightColor":"","homeId":"","isElite":"0","isMyComments":"","isPraised":"0","lineAccess":"好评","markColor":"","memberGradeUrl":"","memberHeaderImgUrl":"//pic5.40017.cn/i/ori/PELe6f5TBC.jpg","mobile":"","productPriceDesc":"","servicePoint":"1","zanCount":"0","csReplyList":null,"dpImgUrl":[],"subList":[],"dpImpressionList":[],"DPPlusStatus":0,"DPLocation":""},{"commentType":"1","dpContent":"全都是古建筑，古家具。晁家寨的地下迷宫有些渗人，人少没敢下去。还有部分景点在施工，没看到什么演出，可能是冬季的原因，游玩的人不太多。","dpDate":"2015-12-26","dpGuid":"c95e7014-6a74-44b0-8be3-efb7b7e0076c","dpId":"c95e7014-6a74-44b0-8be3-efb7b7e0076c","DPItemId":"25794","DPItemName":"水浒好汉城","DPSite":"1","dpTripMode":"0","dpTripPurpose":"","DPUserLevel":"3","dpUserName":"158****0965","highLightColor":"","homeId":"","isElite":"0","isMyComments":"","isPraised":"0","lineAccess":"中评","markColor":"","memberGradeUrl":"","memberHeaderImgUrl":"//pic3.40017.cn/member/face/2015/08/27/17/sHIVcY.png","mobile":"","productPriceDesc":"","servicePoint":"2","zanCount":"0","csReplyList":[{"replyContent":"程程感谢您的点评，景区一直在努力，从未停止过，我们一起携手创造更美好游玩品质，欢迎您继续监督哟。\t<br>"}],"dpImgUrl":[],"subList":[],"dpImpressionList":[],"DPPlusStatus":0,"DPLocation":""}],"isShowConinsicon":0,"rulesContent":"","dpConinRemark":"","isCanEnter":0,"isCanDianPingBefore":0,"externalUrl":"","serviceScoreAvgList":[{"score":"10","serviceName":"同程服务"},{"score":"10","serviceName":"产品便捷"},{"score":"10","serviceName":"性价比"},{"score":"10","serviceName":"景区体验"}],"dpTagList":[{"tagColor":"","tagId":"1","tagName":"全部(539)","tagNum":"539","tagType":"","tagBorderColor":""},{"tagColor":"","tagId":"6","tagName":"最新(539)","tagNum":"539","tagType":"","tagBorderColor":""},{"tagColor":"","tagId":"2","tagName":"好评(448)","tagNum":"448","tagType":"","tagBorderColor":""},{"tagColor":"","tagId":"3","tagName":"中评(81)","tagNum":"81","tagType":"","tagBorderColor":""},{"tagColor":"","tagId":"4","tagName":"差评(10)","tagNum":"10","tagType":"","tagBorderColor":""},{"tagColor":"","tagId":"5","tagName":"有图(109)","tagNum":"109","tagType":"","tagBorderColor":""},{"tagColor":"","tagId":"15","tagName":"整体不错(37)","tagNum":"37","tagType":"","tagBorderColor":""},{"tagColor":"","tagId":"96","tagName":"设施齐全(22)","tagNum":"22","tagType":"","tagBorderColor":""},{"tagColor":"","tagId":"65","tagName":"环境好(8)","tagNum":"8","tagType":"","tagBorderColor":""},{"tagColor":"","tagId":"317","tagName":"风光好(7)","tagNum":"7","tagType":"","tagBorderColor":""},{"tagColor":"","tagId":"266","tagName":"地方不错(3)","tagNum":"3","tagType":"","tagBorderColor":""},{"tagColor":"","tagId":"111","tagName":"景色壮观(1)","tagNum":"1","tagType":"","tagBorderColor":""},{"tagColor":"","tagId":"39","tagName":"门票贵(7)","tagNum":"7","tagType":"","tagBorderColor":""},{"tagColor":"","tagId":"95","tagName":"设施旧(1)","tagNum":"1","tagType":"","tagBorderColor":""}],"dianpingInfo":[]}