{"isSuccess":1,"errorMsg":"","isCache":0,"pageInfo":{"page":8,"pageSize":10,"totalPage":54,"totalCount":539},"degreeLevel":"98","starNum":"4.2","totalNum":"539","goodNum":448,"midNum":81,"badNum":10,"hasImgNum":109,"dpList":[{"commentType":"1","dpContent":"这个属于我家乡的一个景点。自我感觉挺不错的，相片都在我空间里，很麻烦找出来。不过如果在附近的可以去看看，因为看着挺有寨子的感觉的。。。嘿嘿","dpDate":"2015-11-19","dpGuid":"7beea053-2e32-4d2e-89ec-92d8542446cc","dpId":"7beea053-2e32-4d2e-89ec-92d8542446cc","DPItemId":"25794","DPItemName":"水浒好汉城","DPSite":"1","dpTripMode":"0","dpTripPurpose":"","DPUserLevel":"1","dpUserName":"155****4332","highLightColor":"","homeId":"","isElite":"0","isMyComments":"","isPraised":"0","lineAccess":"好评","markColor":"","memberGradeUrl":"","memberHeaderImgUrl":"//pic3.40017.cn/member/face/2015/11/19/22/0dupWY.jpg","mobile":"","productPriceDesc":"","servicePoint":"1","zanCount":"0","csReplyList":null,"dpImgUrl":[],"subList":[],"dpImpressionList":[],"DPPlusStatus":0,"DPLocation":""},{"commentType":"1","dpContent":"这个季节里面几乎没有游客。正在进行施工，灰比较大，里面按水浒小说修建了一些建筑。有一个县衙反映了中国古代县一级官场文化。景点大门在宋江武校内，好难找。","dpDate":"2014-11-13","dpGuid":"t-e4b12e30-f022-4b35-9cfd-71881f3b1201","dpId":"t-e4b12e30-f022-4b35-9cfd-71881f3b1201","DPItemId":"25794","DPItemName":"水浒好汉城","DPSite":"1","dpTripMode":"3","dpTripPurpose":"5,","DPUserLevel":"4","dpUserName":"138*****105","highLightColor":"","homeId":"","isElite":"0","isMyComments":"","isPraised":"0","lineAccess":"好评","markColor":"","memberGradeUrl":"","memberHeaderImgUrl":"2015/05/11/7/201505110619255636384.jpg","mobile":"","productPriceDesc":"","servicePoint":"1","zanCount":"0","csReplyList":null,"dpImgUrl":[],"subList":[],"dpImpressionList":[],"DPPlusStatus":0,"DPLocation":""},{"commentType":"1","dpContent":"去的时候是淡季人不是很多   但里面的建筑非常棒 景点门票也不贵   挺值   赞","dpDate":"2015-12-10","dpGuid":"9f503d76-d17b-471b-a14d-e551e59bec5e","dpId":"9f503d76-d17b-471b-a14d-e551e59bec5e","DPItemId":"25794","DPItemName":"水浒好汉城","DPSite":"1","dpTripMode":"0","dpTripPurpose":"","DPUserLevel":"2","dpUserName":"150****8849","highLightColor":"","homeId":"","isElite":"0","isMyComments":"","isPraised":"0","lineAccess":"好评","markColor":"","memberGradeUrl":"","memberHeaderImgUrl":"//pic3.40017.cn/member/face/2015/09/22/13/JgKW4f.jpg","mobile":"","productPriceDesc":"","servicePoint":"1","zanCount":"1","csReplyList":null,"dpImgUrl":[],"subList":[],"dpImpressionList":[],"DPPlusStatus":0,"DPLocation":""},{"commentType":"1","dpContent":"不怎么样，地方太小了，没什么意思，仿古建筑，门票贵了","dpDate":"2019-07-08","dpGuid":"73b00bc0-5312-430a-869a-da62fce27fe9","dpId":"73b00bc0-5312-430a-869a-da62fce27fe9","DPItemId":"25794","DPItemName":"水浒好汉城","DPSite":"1","dpTripMode":"0","dpTripPurpose":"","DPUserLevel":"2","dpUserName":"大毛爸","highLightColor":"","homeId":"","isElite":"0","isMyComments":"","isPraised":"0","lineAccess":"中评","markColor":"","memberGradeUrl":"","memberHeaderImgUrl":"https://pic5.40017.cn/i/ori/1dhWb8X8neg.jpg","mobile":"","productPriceDesc":"","servicePoint":"2","zanCount":"2","csReplyList":[{"replyContent":"您好，非常感谢您的评价。水浒好汉城景区目前占地面的600多亩，景区人文建筑，大部分建筑采用整体搬迁的方式保留有一定的年代，比如古戏楼是明代的距今已有几百年历史。门票价格由物价局监制，目前水浒好汉城景区四期正在建筑当中，水浒好汉城四期工程完成后，将申报国家5A级旅游景区。"}],"dpImgUrl":[{"imgUrl":"//pic5.40017.cn/04/001/90/b8/rBTJU10jTcOAI8flAAR6jTSykRo088.jpg","originalImgUrl":"//pic5.40017.cn/04/001/90/b8/rBTJU10jTcOAI8flAAR6jTSykRo088.jpg","smallImgUrl":"//pic5.40017.cn/04/001/90/b8/rBTJU10jTcOAI8flAAR6jTSykRo088_150x150_00.jpg"},{"imgUrl":"//pic5.40017.cn/04/000/91/17/rBTJUl0jTcSANPuvAASpvgYVqwc554.jpg","originalImgUrl":"//pic5.40017.cn/04/000/91/17/rBTJUl0jTcSANPuvAASpvgYVqwc554.jpg","smallImgUrl":"//pic5.40017.cn/04/000/91/17/rBTJUl0jTcSANPuvAASpvgYVqwc554_150x150_00.jpg"},{"imgUrl":"//pic5.40017.cn/04/002/90/b8/rBTJU10jTcWAPI1QAALrNL2u_so869.jpg","originalImgUrl":"//pic5.40017.cn/04/002/90/b8/rBTJU10jTcWAPI1QAALrNL2u_so869.jpg","smallImgUrl":"//pic5.40017.cn/04/002/90/b8/rBTJU10jTcWAPI1QAALrNL2u_so869_150x150_00.jpg"},{"imgUrl":"//pic5.40017.cn/04/002/90/b8/rBTJU10jTcaAJj9JAAS3kJacw8o021.jpg","originalImgUrl":"//pic5.40017.cn/04/002/90/b8/rBTJU10jTcaAJj9JAAS3kJacw8o021.jpg","smallImgUrl":"//pic5.40017.cn/04/002/90/b8/rBTJU10jTcaAJj9JAAS3kJacw8o021_150x150_00.jpg"}],"subList":[],"dpImpressionList":[],"DPPlusStatus":1,"DPLocation":""},{"commentType":"1","dpContent":"还行吧    园子不大   全是建筑    是新建的    里面也没有卖吃的     出了园子外面没有太象样的饭店    用餐方面有些不便","dpDate":"2015-01-02","dpGuid":"t-107e8c01-6e84-4c55-ba71-0eb524ecff1d","dpId":"t-107e8c01-6e84-4c55-ba71-0eb524ecff1d","DPItemId":"25794","DPItemName":"水浒好汉城","DPSite":"1","dpTripMode":"1","dpTripPurpose":"3,","DPUserLevel":"2","dpUserName":"一粟一粟","highLightColor":"","homeId":"","isElite":"0","isMyComments":"","isPraised":"0","lineAccess":"好评","markColor":"","memberGradeUrl":"","memberHeaderImgUrl":"//pic3.40017.cn/member/face/2015/08/18/14/9tkD6v.jpg","mobile":"","productPriceDesc":"","servicePoint":"1","zanCount":"0","csReplyList":null,"dpImgUrl":[],"subList":[],"dpImpressionList":[],"DPPlusStatus":0,"DPLocation":""},{"commentType":"1","dpContent":"游玩项目太少，看看仿古建筑还不错","dpDate":"2015-05-10","dpGuid":"t-9f81857e-d606-4dab-8c5d-00f1531679e5","dpId":"t-9f81857e-d606-4dab-8c5d-00f1531679e5","DPItemId":"25794","DPItemName":"水浒好汉城","DPSite":"1","dpTripMode":"0","dpTripPurpose":"0,","DPUserLevel":"1","dpUserName":"132wsflo666","highLightColor":"","homeId":"","isElite":"0","isMyComments":"","isPraised":"0","lineAccess":"好评","markColor":"","memberGradeUrl":"","memberHeaderImgUrl":"//pic3.40017.cn/member/face/2017/12/05/16/tcdefault.png","mobile":"","productPriceDesc":"","servicePoint":"1","zanCount":"0","csReplyList":null,"dpImgUrl":[{"imgUrl":"//pic3.40017.cn/scenery/comment/2015/05/10/15/ziFz2I.jpg","originalImgUrl":"//pic3.40017.cn/scenery/comment/2015/05/10/15/ziFz2I.jpg","smallImgUrl":"//pic3.40017.cn/scenery/comment/2015/05/10/15/ziFz2I_150x150_00.jpg"},{"imgUrl":"//pic3.40017.cn/scenery/comment/2015/05/10/15/fHeQM9.jpg","originalImgUrl":"//pic3.40017.cn/scenery/comment/2015/05/10/15/fHeQM9.jpg","smallImgUrl":"//pic3.40017.cn/scenery/comment/2015/05/10/15/fHeQM9_150x150_00.jpg"},{"imgUrl":"//pic3.40017.cn/scenery/comment/2015/05/10/15/kBkLfc.jpg","originalImgUrl":"//pic3.40017.cn/scenery/comment/2015/05/10/15/kBkLfc.jpg","smallImgUrl":"//pic3.40017.cn/scenery/comment/2015/05/10/15/kBkLfc_150x150_00.jpg"},{"imgUrl":"//pic3.40017.cn/scenery/comment/2015/05/10/15/TkyMZr.jpg","originalImgUrl":"//pic3.40017.cn/scenery/comment/2015/05/10/15/TkyMZr.jpg","smallImgUrl":"//pic3.40017.cn/scenery/comment/2015/05/10/15/TkyMZr_150x150_00.jpg"},{"imgUrl":"//pic3.40017.cn/scenery/comment/2015/05/10/15/ZFOBNL.jpg","originalImgUrl":"//pic3.40017.cn/scenery/comment/2015/05/10/15/ZFOBNL.jpg","smallImgUrl":"//pic3.40017.cn/scenery/comment/2015/05/10/15/ZFOBNL_150x150_00.jpg"},{"imgUrl":"//pic3.40017.cn/scenery/comment/2015/05/10/15/LkUgVK.jpg","originalImgUrl":"//pic3.40017.cn/scenery/comment/2015/05/10/15/LkUgVK.jpg","smallImgUrl":"//pic3.40017.cn/scenery/comment/2015/05/10/15/LkUgVK_150x150_00.jpg"}],"subList":[],"dpImpressionList":[],"DPPlusStatus":0,"DPLocation":""},{"commentType":"1","dpContent":"还行吧    园子不大    全是建筑    里面没有卖吃的    外面也没有太象样的饭店    总之用餐方面很不便利","dpDate":"2015-01-02","dpGuid":"t-81e91979-22e1-4a0e-ba64-497fbac37dc2","dpId":"t-81e91979-22e1-4a0e-ba64-497fbac37dc2","DPItemId":"25794","DPItemName":"水浒好汉城","DPSite":"1","dpTripMode":"1","dpTripPurpose":"3,","DPUserLevel":"2","dpUserName":"一粟一粟","highLightColor":"","homeId":"","isElite":"0","isMyComments":"","isPraised":"0","lineAccess":"好评","markColor":"","memberGradeUrl":"","memberHeaderImgUrl":"//pic3.40017.cn/member/face/2015/08/18/14/9tkD6v.jpg","mobile":"","productPriceDesc":"","servicePoint":"1","zanCount":"0","csReplyList":null,"dpImgUrl":[],"subList":[],"dpImpressionList":[],"DPPlusStatus":0,"DPLocation":""},{"commentType":"1","dpContent":"感觉还行，有点小，票价有点贵。","dpDate":"2016-04-05","dpGuid":"532ef52f-189e-4d5a-8861-9a61cff908e5","dpId":"532ef52f-189e-4d5a-8861-9a61cff908e5","DPItemId":"25794","DPItemName":"水浒好汉城","DPSite":"1","dpTripMode":"0","dpTripPurpose":"","DPUserLevel":"2","dpUserName":"139****3776","highLightColor":"","homeId":"","isElite":"0","isMyComments":"","isPraised":"0","lineAccess":"中评","markColor":"","memberGradeUrl":"","memberHeaderImgUrl":"//pic3.40017.cn/member/face/2015/08/27/17/sHIVcY.png","mobile":"","productPriceDesc":"","servicePoint":"2","zanCount":"1","csReplyList":[{"replyContent":"程程感谢您的点评，景区一直在努力，从未停止过，我们一起携手创造更美好游玩品质，欢迎您继续监督哟。"}],"dpImgUrl":[{"imgUrl":"//pic4.40017.cn/scenery/comment/2016/04/05/09/GKBieO.jpg","originalImgUrl":"//pic4.40017.cn/scenery/comment/2016/04/05/09/GKBieO.jpg","smallImgUrl":"//pic4.40017.cn/scenery/comment/2016/04/05/09/GKBieO_150x150_00.jpg"},{"imgUrl":"//pic4.40017.cn/scenery/comment/2016/04/05/09/fCG3pm.jpg","originalImgUrl":"//pic4.40017.cn/scenery/comment/2016/04/05/09/fCG3pm.jpg","smallImgUrl":"//pic4.40017.cn/scenery/comment/2016/04/05/09/fCG3pm_150x150_00.jpg"},{"imgUrl":"//pic4.40017.cn/scenery/comment/2016/04/05/09/eNB2zJ.jpg","originalImgUrl":"//pic4.40017.cn/scenery/comment/2016/04/05/09/eNB2zJ.jpg","smallImgUrl":"//pic4.40017.cn/scenery/comment/2016/04/05/09/eNB2zJ_150x150_00.jpg"}],"subList":[],"dpImpressionList":[],"DPPlusStatus":0,"DPLocation":""},{"commentType":"1","dpContent":"景区面积不是太大，但是古建确实很好，有完整的县官衙，我是研究历史的，但还是涨姿势了。好评，推荐!","dpDate":"2017-01-31","dpGuid":"4f61d150-00f3-49fa-9b3d-84d5c6759de5","dpId":"4f61d150-00f3-49fa-9b3d-84d5c6759de5","DPItemId":"25794","DPItemName":"水浒好汉城","DPSite":"1","dpTripMode":"0","dpTripPurpose":"","DPUserLevel":"1","dpUserName":"超人强","highLightColor":"","homeId":"","isElite":"0","isMyComments":"","isPraised":"0","lineAccess":"好评","markColor":"","memberGradeUrl":"","memberHeaderImgUrl":"https://pic5.40017.cn/i/ori/1dhWb8X8neg.jpg","mobile":"","productPriceDesc":"","servicePoint":"1","zanCount":"0","csReplyList":null,"dpImgUrl":[],"subList":[],"dpImpressionList":[],"DPPlusStatus":0,"DPLocation":""},{"commentType":"1","dpContent":"很好玩 美丽的风景","dpDate":"2016-02-12","dpGuid":"abc151e7-4199-49b8-a851-fbc8395bfce9","dpId":"abc151e7-4199-49b8-a851-fbc8395bfce9","DPItemId":"25794","DPItemName":"水浒好汉城","DPSite":"1","dpTripMode":"0","dpTripPurpose":"","DPUserLevel":"1","dpUserName":"138****6541","highLightColor":"","homeId":"","isElite":"0","isMyComments":"","isPraised":"0","lineAccess":"好评","markColor":"","memberGradeUrl":"","memberHeaderImgUrl":"//pic3.40017.cn/member/face/2015/08/27/17/9CS7ZO.png","mobile":"","productPriceDesc":"","servicePoint":"1","zanCount":"0","csReplyList":null,"dpImgUrl":[{"imgUrl":"//pic3.40017.cn/scenery/comment/2016/02/12/19/aHQx6x.jpg","originalImgUrl":"//pic3.40017.cn/scenery/comment/2016/02/12/19/aHQx6x.jpg","smallImgUrl":"//pic3.40017.cn/scenery/comment/2016/02/12/19/aHQx6x_150x150_00.jpg"},{"imgUrl":"//pic3.40017.cn/scenery/comment/2016/02/12/19/6eN9dZ.jpg","originalImgUrl":"//pic3.40017.cn/scenery/comment/2016/02/12/19/6eN9dZ.jpg","smallImgUrl":"//pic3.40017.cn/scenery/comment/2016/02/12/19/6eN9dZ_150x150_00.jpg"},{"imgUrl":"//pic3.40017.cn/scenery/comment/2016/02/12/19/ciNQBT.jpg","originalImgUrl":"//pic3.40017.cn/scenery/comment/2016/02/12/19/ciNQBT.jpg","smallImgUrl":"//pic3.40017.cn/scenery/comment/2016/02/12/19/ciNQBT_150x150_00.jpg"}],"subList":[],"dpImpressionList":[],"DPPlusStatus":0,"DPLocation":""}],"isShowConinsicon":0,"rulesContent":"","dpConinRemark":"","isCanEnter":0,"isCanDianPingBefore":0,"externalUrl":"","serviceScoreAvgList":[{"score":"10","serviceName":"同程服务"},{"score":"10","serviceName":"产品便捷"},{"score":"10","serviceName":"性价比"},{"score":"10","serviceName":"景区体验"}],"dpTagList":[{"tagColor":"","tagId":"1","tagName":"全部(539)","tagNum":"539","tagType":"","tagBorderColor":""},{"tagColor":"","tagId":"6","tagName":"最新(539)","tagNum":"539","tagType":"","tagBorderColor":""},{"tagColor":"","tagId":"2","tagName":"好评(448)","tagNum":"448","tagType":"","tagBorderColor":""},{"tagColor":"","tagId":"3","tagName":"中评(81)","tagNum":"81","tagType":"","tagBorderColor":""},{"tagColor":"","tagId":"4","tagName":"差评(10)","tagNum":"10","tagType":"","tagBorderColor":""},{"tagColor":"","tagId":"5","tagName":"有图(109)","tagNum":"109","tagType":"","tagBorderColor":""},{"tagColor":"","tagId":"15","tagName":"整体不错(37)","tagNum":"37","tagType":"","tagBorderColor":""},{"tagColor":"","tagId":"96","tagName":"设施齐全(22)","tagNum":"22","tagType":"","tagBorderColor":""},{"tagColor":"","tagId":"65","tagName":"环境好(8)","tagNum":"8","tagType":"","tagBorderColor":""},{"tagColor":"","tagId":"317","tagName":"风光好(7)","tagNum":"7","tagType":"","tagBorderColor":""},{"tagColor":"","tagId":"266","tagName":"地方不错(3)","tagNum":"3","tagType":"","tagBorderColor":""},{"tagColor":"","tagId":"111","tagName":"景色壮观(1)","tagNum":"1","tagType":"","tagBorderColor":""},{"tagColor":"","tagId":"39","tagName":"门票贵(7)","tagNum":"7","tagType":"","tagBorderColor":""},{"tagColor":"","tagId":"95","tagName":"设施旧(1)","tagNum":"1","tagType":"","tagBorderColor":""}],"dianpingInfo":[]}